﻿capital = 141	

oob = "SWE_1936"

set_war_support = 0.25

set_research_slots = 2

set_convoys = 80

set_stability = 0.9
set_country_flag = league_member
set_country_flag = olympic_attendee

set_country_flag = SWE_armor

if = {
	limit = {
		not = { has_dlc = "Man the Guns" }
	}
	set_technology = {
		generic_naval_tech = 1
		early_submarine = 1
		generic_naval = 1
		early_destroyer = 1
		basic_destroyer = 1
		early_light_cruiser = 1
		early_heavy_cruiser = 1
		#transport = 1
		early_submarine = 1
		basic_submarine = 1
	}
	set_naval_oob = "SWE_1936_naval_legacy"
}

if = {
	limit = {
		has_dlc = "Man the Guns"
	}
	set_technology = {
		basic_naval_mines = 1
		submarine_mine_laying = 1
		early_ship_hull_light = 1
		basic_ship_hull_light = 1
		early_ship_hull_submarine = 1
		basic_ship_hull_submarine = 1
		early_ship_hull_cruiser = 1
		basic_ship_hull_cruiser = 1
		basic_cruiser_armor_scheme = 1
		early_fire_control_system = 1
		basic_fire_control_system = 1
		nrm_battery_basic = 1
		nrm_battery_early_6 = 1
		nrm_battery_early_8 = 1
		nrm_battery_early_11 = 1
		nrm_early_antiair = 1
		nrm_basic_antiair = 1
		nrm_early_heavy_antiair = 1
		nrm_basic_heavy_antiair = 1
		basic_torpedo = 1
		airplane_launcher = 1
		improved_ship_torpedo_launcher = 1
		improved_sub_torpedo_launcher = 1
		advanced_ship_torpedo_launcher = 1
		advanced_sub_torpedo_launcher = 1
		sonar = 1
		improved_sonar = 1
		early_engine = 1
		early_sub_diesel = 1
		smoke_generator = 1
		basic_depth_charges = 1
		improved_depth_charges = 1
		#mtg_transport = 1
		damage_control_1 = 1
		coastal_defense_ships = 1
		coastal_defense_ship_early = 1
		coastal_defense_ship_basic = 1
		old_cruiser = 1
		#early_ship_hull_coastal_submarine = 1
		#basic_ship_hull_coastal_submarine = 1
		#basic_ship_hull_lr_submarine = 1
	}
	set_naval_oob = "SWE_1936_naval"
}

set_technology = {
	
	#BICE_airrange_balance = 1
	building_tech = 1
	tech_basic_train = 1
	################# infantry ###############
	infantry_weapons = 1
	infantry_weapons1 = 1
	hmg = 1
	HMG_equipment_infantry_group_tech = 1
	HMG_equipment_mobile_group_tech = 1
	HMG_equipment_special_forces_group_tech = 1
	mortars = 1
	mortar_equipment_infantry_group_tech = 1
	mortar_equipment_mobile_group_tech = 1
	mortar_equipment_special_forces_group_tech = 1
	tech_infantry_uniforms = 1
	tech_Garrison = 1
	tech_Headquarters = 1
	motorised_infantry = 1
	semi_motorised_infantry = 1
	################## support ##################
	tech_recon = 1
	tech_support = 1		
	tech_engineers = 1
	subtech_recon_cav_1 = 1
	subtech_recon_mot_1 = 1
	tech_ac_recon = 1
	tech_military_police = 1
	tech_maintenance_company = 1
	tech_field_hospital = 1
	tech_logistics_company = 1
	################## artillery ###############
	gw_artillery = 1
	interwar_artillery = 1
	interwar_medartillery = 1
	interwar_Hvartillery = 1
	#superartillery1 = 1
	interwar_antiair = 1
	interwar_antitank = 1
	medartillery1 = 1
	################## armor-techs ##############
	#tech_Tankettes = 1
	tech_liaison_cars = 1
	tech_ac_recon = 1
	
	tech_trm_armour_basic = 1
	tech_trm_engine_gasoline_basic_swe = 1
	################## armor ##############
	tech_trm_swe_armour = 1
	tech_trm_cavalry_tank_chassis_swe_m31_1 = 1
	################## aircraft ##############
	#sweden_air_tech = 1 
	#sweden_b4hart_tech = 1 
	early_CAS = 1
	CAS1 = 1
	early_fighter = 1
	naval_bomber1 = 1
	cv_naval_bomber1 = 1
	early_bomber = 1
	generic_fighter = 1
	generic_bomber = 1
	generic_strategic_bomber = 1
	############### economy ############
	basic_machine_tools = 1
	environmental_recognition = 1
	early_tractors = 1
	polymerization_theories = 1
	improved_glass_optics = 1
	modern_microscopes = 1
	############### WW1 doctrines ############
	ww1_infantry = 1
	infantry_charge = 1
	small_unit_raids = 1
	night_patrols = 1
	complex_trench_systems = 1
	barbed_wire = 1
	pillboxes = 1
	basic_MG_defences = 1
	
	ww1_artillery = 1
	artillery_concentration = 1
	artillery_observers = 1
	balloon_observers = 1
	foot_runners = 1
	carrier_pidgeons = 1

	mobile_doctrines = 1
	cavalry_charges = 1
	cavalry_dismounting = 1

	ww1_battlefield_support = 1
	weather_reporting = 1
	terrain_mapping = 1
	first_aid_stations = 1
	
	WW1_air_power = 1
	WW1_air_survey = 1
	WW1_air_control = 1
	WW1_air_bomb = 1
	WW1_air_ground = 1
	############### naval doctrines ##################
	nrm_pre_ww1_naval_doctrine = 1
	nrm_mahanian_concepts = 1
	nrm_jeune_ecole_concepts = 1
	nrm_commerce_warfare = 1
	nrm_battlefleet_concentration = 1
	nrm_scouting_force = 1
	nrm_cruiser_warfare = 1
	nrm_cruiser_battleline_support = 1
	nrm_cruiser_flotilla_leader = 1
	nrm_independent_cruiser_operation = 1
	nrm_destroyer_support = 1
	nrm_destroyer_screen = 1
	nrm_destroyer_torpedo_tactics = 1
	nrm_independent_destroyer_operation = 1
	nrm_submarine_tactics_early = 1
	nrm_submarine_raiding = 1
	nrm_submarine_torpedo_tactics = 1
	nrm_mine_warfare = 1
}

add_ideas = {
	en_svensk_tiger
	neutrality_idea
	kungen_gustaf_v
	CW_great_depression_5
	
	export_focus
	tax_average
	tariffs_average
	
	civilian_economy
	press_free
	private_control
	labor_allowed
	fdi_allowed
	
	cons_one
	foreign_volunteers
	mob_reserve
	train_medium
	officer_train_low
	age_19
	security_liberty_first
	edu_high
	foreign_neutral
	modern_diet
}

add_opinion_modifier = { target = GER modifier = medium_increase }
add_opinion_modifier = { target = FIN modifier = SWE_aland_convention }

set_politics = {
	ruling_party = socialism
	last_election = "1932.9.18"
	election_frequency = 48
	elections_allowed = yes
}

set_popularities = {
	monarchism = 4.7
	socialism = 45.1
	agrarianism = 14.4
	liberalism = 12.9
	communism = 3.3
	fascism = 1.6
	neutrality = 1
	conservatism = 17
}
#add_to_array = { government = token:socialism }
#add_coalition_agrarianism = yes
###############################################################
recruit_character = SWE_gustaf_v
recruit_character = SWE_per_albin_hansson
recruit_character = SWE_sven_olov_lindholm
recruit_character = SWE_sven_linderot
recruit_character = SWE_axel_pehrssonbramstorp
recruit_character = SWE_folke_hogberg
recruit_character = SWE_erik_af_edholm
recruit_character = SWE_ehrensvard_ca.
recruit_character = SWE_thornell
recruit_character = SWE_claes_lindstrom
recruit_character = SWE_dyrssen
recruit_character = SWE_grefberg
recruit_character = SWE_felix_brolin
recruit_character = SWE_peter_kiby
recruit_character = SWE_per_sylvan
recruit_character = SWE_gosta_ehrensvard
recruit_character = SWE_torsten_friis
recruit_character = SWE_erik_palmstierna
recruit_character = SWE_helge_stromback
recruit_character = SWE_arne_beurling
recruit_character = SWE_torsten_rapp
recruit_character = SWE_helge_jung
recruit_character = SWE_olof_thornell
recruit_character = SWE_William_Yngve_Anderson
recruit_character = SWE_osten_unden
recruit_character = SWE_bengt_nordenskiold
recruit_character = SWE_ivar_holmquist
recruit_character = SWE_fabian_tamm
recruit_character = SWE_charles_de_champs
recruit_character = SWE_stig_ericson
recruit_character = SWE_axel_rappe
recruit_character = SWE_oscar_nygren
recruit_character = SWE_axel_ljungdahl
recruit_character = SWE_alf_lysholm
recruit_character = SWE_archibald_douglas
recruit_character = SWE_christian_gunther
recruit_character = SWE_thorwald_bergquist
recruit_character = SWE_carlos_adlercreutz
recruit_character = SWE_knut_ewerlof
recruit_character = SWE_carl_petersen
recruit_character = SWE_per_edvin_skold
recruit_character = SWE_fritiof_domo
recruit_character = SWE_tage_erlander
recruit_character = SWE_herman_eriksson
recruit_character = SWE_bertil_ohlin
recruit_character = SWE_axel_gjores
recruit_character = SWE_gustav_moller
recruit_character = SWE_nils_quensel
recruit_character = SWE_edgar_rosander
recruit_character = SWE_georg_andren
recruit_character = SWE_ernst_wigforss
recruit_character = SWE_lise_meitner


activate_advisor = SWE_gustaf_v_head_of_state

### HTD Start ###
set_country_flag = HTD_SWE_trm_light_tank_chassis_swe_m21_1_a
set_country_flag = HTD_SWE_trm_light_tank_chassis_swe_m21_1_b
set_country_flag = HTD_SWE_trm_cavalry_tank_chassis_swe_m31_1_a

### Tank Variants ###
create_equipment_variant = {
	name = "Strv m/21"
	type = trm_light_tank_chassis_swe_m21_1
	parent_version = 0
	show_position = no
	modules = {
		fixed_trm_tank_turret_slot = trm_light_tank_swe_m21_turret_1
		fixed_trm_tank_main_gun_slot = trm_weapon_mg_swe_m1429
		fixed_trm_tank_ammunition_slot = empty
		fixed_trm_tank_coax_gun_slot = empty
		fixed_trm_tank_hull_gun_slot = empty
		fixed_trm_tank_engine_slot = trm_engine_G1_0050
		fixed_trm_tank_transmission_slot = trm_transmission_brake_front
		fixed_trm_tank_gearbox_slot = trm_gearbox_simple
		fixed_trm_tank_suspension_slot = trm_suspension_spring_coil
		fixed_trm_tank_armor_thickness_slot = trm_armour_012
		fixed_trm_tank_armor_design_slot = trm_armour_design_light_basic
		fixed_trm_tank_armor_distribution_slot = trm_armour_distribution_mixed
		fixed_trm_tank_armor_construction_slot = trm_armour_construction_riveted
		fixed_trm_tank_armor_construction_turret_slot = trm_turret_construction_enclosed_riveted
		fixed_trm_tank_radio_slot = empty
		fixed_trm_tank_ergonomics_slot = trm_ergonomics_light_standard
		fixed_trm_tank_construction_slot = trm_tank_construction_standard
		special_type_slot_1 = empty
		special_type_slot_2 = empty
		special_type_slot_3 = empty
		special_type_slot_4 = empty
		special_type_slot_5 = empty
	}
	
	icon = "GFX_trm_light_tank_chassis_swe_m21_1_a"
	
	obsolete = yes
}
add_equipment_to_stockpile = {
	type = trm_light_tank_chassis_swe_m21_1
	amount = 5
	producer = SWE
}
create_equipment_variant = {
	name = "Strv m/21-29"
	type = trm_light_tank_chassis_swe_m21_1
	parent_version = 0
	show_position = no
	modules = {
		fixed_trm_tank_turret_slot = trm_light_tank_swe_m21_turret_2
		fixed_trm_tank_main_gun_slot = trm_weapon_mg_swe_m1429_x2
		fixed_trm_tank_ammunition_slot = empty
		fixed_trm_tank_coax_gun_slot = empty
		fixed_trm_tank_hull_gun_slot = empty
		fixed_trm_tank_engine_slot = trm_engine_G1_0080
		fixed_trm_tank_transmission_slot = trm_transmission_brake_front
		fixed_trm_tank_gearbox_slot = trm_gearbox_simple
		fixed_trm_tank_suspension_slot = trm_suspension_spring_coil
		fixed_trm_tank_armor_thickness_slot = trm_armour_012
		fixed_trm_tank_armor_design_slot = trm_armour_design_light_basic
		fixed_trm_tank_armor_distribution_slot = trm_armour_distribution_mixed
		fixed_trm_tank_armor_construction_slot = trm_armour_construction_riveted
		fixed_trm_tank_armor_construction_turret_slot = trm_turret_construction_enclosed_riveted
		fixed_trm_tank_radio_slot = empty
		fixed_trm_tank_ergonomics_slot = trm_ergonomics_light_standard
		fixed_trm_tank_construction_slot = trm_tank_construction_standard
		special_type_slot_1 = empty
		special_type_slot_2 = empty
		special_type_slot_3 = empty
		special_type_slot_4 = empty
		special_type_slot_5 = empty
	}
	
	icon = "GFX_trm_light_tank_chassis_swe_m21_1_b"
	
	obsolete = yes
}
add_equipment_to_stockpile = {
	type = trm_light_tank_chassis_swe_m21_1
	amount = 5
	producer = SWE
}
create_equipment_variant = {
	name = "Strv m/31"
	type = trm_cavalry_tank_chassis_swe_m31_1
	parent_version = 0
	show_position = no
	modules = {
		fixed_trm_tank_turret_slot = trm_cavalry_tank_swe_m31_turret_1
		fixed_trm_tank_main_gun_slot = trm_weapon_c_swe_37_m34
		fixed_trm_tank_ammunition_slot = empty
		fixed_trm_tank_coax_gun_slot = trm_weapon_coax_mg_swe_m1429
		fixed_trm_tank_hull_gun_slot = trm_weapon_coax_mg_swe_m1429
		fixed_trm_tank_engine_slot = trm_engine_G1_0140
		fixed_trm_tank_transmission_slot = trm_transmission_brake_rear
		fixed_trm_tank_gearbox_slot = trm_gearbox_simple
		fixed_trm_tank_suspension_slot = trm_suspension_spring_coil
		fixed_trm_tank_armor_thickness_slot = trm_armour_020
		fixed_trm_tank_armor_design_slot = trm_armour_design_light_partial_sloped
		fixed_trm_tank_armor_distribution_slot = trm_armour_distribution_mixed
		fixed_trm_tank_armor_construction_slot = trm_armour_construction_welded
		fixed_trm_tank_armor_construction_turret_slot = trm_turret_construction_enclosed_welded
		fixed_trm_tank_radio_slot = empty
		fixed_trm_tank_ergonomics_slot = trm_ergonomics_light_standard
		fixed_trm_tank_construction_slot = trm_tank_construction_standard
		special_type_slot_1 = empty
		special_type_slot_2 = empty
		special_type_slot_3 = empty
		special_type_slot_4 = empty
		special_type_slot_5 = empty
	}
}
add_equipment_to_stockpile = {
	type = trm_cavalry_tank_chassis_swe_m31_1
	amount = 3
	producer = SWE
}

##### Ship Variants ##################################################
if = {
	limit = { has_dlc = "Man the Guns" }
	# Submarines #
	create_equipment_variant = {
		name = "Hajen Class"					# represents Hajen and Bävern classes	
		type = nrm_ship_hull_submarine_small_1
		name_group = SWE_SS_HISTORICAL
		parent_version = 0
		show_position = no
		role_icon_index = 120
		modules = {
			fixed_ship_sub_hull_slot = nrm_submarine_hull_small_1
			fixed_ship_engine_slot = nrm_submarine_engine_D0_020
			fixed_ship_sonar_slot = nrm_submarine_sonar_1
			fixed_ship_noise_slot = nrm_submarine_noise_0
			fixed_ship_subdivision_slot = nrm_subdivision_1
			fixed_ship_damagecontrol_slot = nrm_damagecontrol_1
			fixed_ship_range_slot = nrm_range_submarine_small_0h
			fixed_ship_radar_slot = empty
			fixed_ship_battery_slot = nrm_submarine_deckgun_3
			fixed_ship_anti_air_slot = empty
			fixed_ship_torpedo_slot = nrm_submarine_TRP_18_2_x4
			fixed_ship_torpedo_2_slot = empty
			custom_slot_1 = empty
		}
		obsolete = yes
	}
	create_equipment_variant = {
		name = "Bävern Class"					# represents Hajen and Bävern classes	
		type = nrm_ship_hull_submarine_small_1
		name_group = SWE_SS_HISTORICAL
		parent_version = 0
		show_position = no
		role_icon_index = 120
		modules = {
			fixed_ship_sub_hull_slot = nrm_submarine_hull_small_1
			fixed_ship_engine_slot = nrm_submarine_engine_D0_020
			fixed_ship_sonar_slot = nrm_submarine_sonar_1
			fixed_ship_noise_slot = nrm_submarine_noise_0
			fixed_ship_subdivision_slot = nrm_subdivision_1
			fixed_ship_damagecontrol_slot = nrm_damagecontrol_1
			fixed_ship_range_slot = nrm_range_submarine_small_1h
			fixed_ship_radar_slot = empty
			fixed_ship_battery_slot = empty
			fixed_ship_anti_air_slot = empty
			fixed_ship_torpedo_slot = nrm_submarine_TRP_18_2_x4
			fixed_ship_torpedo_2_slot = empty
			custom_slot_1 = empty
		}
		obsolete = yes
	}
	create_equipment_variant = {
		name = "Valen Class"				
		type = nrm_ship_hull_submarine_small_1
		name_group = SWE_SS_HISTORICAL
		parent_version = 0
		show_position = no
		role_icon_index = 120
		modules = {
			fixed_ship_sub_hull_slot = nrm_submarine_hull_small_1
			fixed_ship_engine_slot = nrm_submarine_engine_D0_016
			fixed_ship_sonar_slot = nrm_submarine_sonar_1
			fixed_ship_noise_slot = nrm_submarine_noise_0
			fixed_ship_subdivision_slot = nrm_subdivision_1
			fixed_ship_damagecontrol_slot = nrm_damagecontrol_1
			fixed_ship_range_slot = nrm_range_submarine_small_1h
			fixed_ship_radar_slot = empty
			fixed_ship_battery_slot = nrm_submarine_deckgun_3
			fixed_ship_anti_air_slot = empty
			fixed_ship_torpedo_slot = nrm_submarine_TRP_18_2_x4
			fixed_ship_torpedo_2_slot = empty
			custom_slot_1 = nrm_submarine_ML_1
		}
		obsolete = yes
	}
	create_equipment_variant = {
		name = "Draken Class"				
		type = nrm_ship_hull_submarine_small_2
		name_group = SWE_SS_HISTORICAL
		parent_version = 0
		show_position = no
		role_icon_index = 120
		modules = {
			fixed_ship_sub_hull_slot = nrm_submarine_hull_small_2
			fixed_ship_engine_slot = nrm_submarine_engine_D0_020
			fixed_ship_sonar_slot = nrm_submarine_sonar_2
			fixed_ship_noise_slot = nrm_submarine_noise_0
			fixed_ship_subdivision_slot = nrm_subdivision_1
			fixed_ship_damagecontrol_slot = nrm_damagecontrol_1
			fixed_ship_range_slot = nrm_range_submarine_small_2h
			fixed_ship_radar_slot = empty
			fixed_ship_battery_slot = nrm_submarine_deckgun_4
			fixed_ship_anti_air_slot = empty
			fixed_ship_torpedo_slot = nrm_submarine_TRP_21_2_x4
			fixed_ship_torpedo_2_slot = empty
			custom_slot_1 = empty
		}
	}
	create_equipment_variant = {
		name = "Delfinen Class"				
		type = nrm_ship_hull_submarine_small_2
		name_group = SWE_SS_HISTORICAL
		parent_version = 0
		show_position = no
		role_icon_index = 115
		modules = {
			fixed_ship_sub_hull_slot = nrm_submarine_hull_small_2
			fixed_ship_engine_slot = nrm_submarine_engine_D0_012
			fixed_ship_sonar_slot = nrm_submarine_sonar_2
			fixed_ship_noise_slot = nrm_submarine_noise_0
			fixed_ship_subdivision_slot = nrm_subdivision_1
			fixed_ship_damagecontrol_slot = nrm_damagecontrol_1
			fixed_ship_range_slot = nrm_range_submarine_small_1h
			fixed_ship_radar_slot = empty
			fixed_ship_battery_slot = empty
			fixed_ship_anti_air_slot = empty
			fixed_ship_torpedo_slot = nrm_submarine_TRP_21_2_x4
			fixed_ship_torpedo_2_slot = empty
			custom_slot_1 = nrm_submarine_ML_1
		}
	}
	create_equipment_variant = {
		name = "Sjölejonet Class"				
		type = nrm_ship_hull_submarine_2
		name_group = SWE_SS_HISTORICAL
		parent_version = 0
		show_position = no
		role_icon_index = 122
		modules = {
			fixed_ship_sub_hull_slot = nrm_submarine_hull_2
			fixed_ship_engine_slot = nrm_submarine_engine_D1_020
			fixed_ship_sonar_slot = nrm_submarine_sonar_2
			fixed_ship_noise_slot = nrm_submarine_noise_0
			fixed_ship_subdivision_slot = nrm_subdivision_1
			fixed_ship_damagecontrol_slot = nrm_damagecontrol_1
			fixed_ship_range_slot = nrm_range_submarine_1
			fixed_ship_radar_slot = empty
			fixed_ship_battery_slot = empty
			fixed_ship_anti_air_slot = empty
			fixed_ship_torpedo_slot = nrm_submarine_TRP_21_2_x3
			fixed_ship_torpedo_2_slot = nrm_submarine_TRP_21_2_x3
			custom_slot_1 = empty
			custom_slot_2 = empty
		}
	}
	# Destroyers #
	create_equipment_variant = {
		name = "Örnen Class"					# torpedo boats		
		type = nrm_ship_hull_torpedo_boat_1
		name_group = SWE_DD_HISTORICAL
		parent_version = 0
		show_position = no
		role_icon_index = 25
		modules = {
			fixed_ship_hullform_slot = nrm_ship_hullform_torpedo_boat_1
			fixed_ship_engine_slot = nrm_destroyer_engine_S0_005
			fixed_ship_sonar_slot = empty
			fixed_ship_battery_slot = nrm_destroyer_battery_5_1_x3
			fixed_ship_subdivision_slot = nrm_subdivision_1
			fixed_ship_damagecontrol_slot = nrm_damagecontrol_1
			fixed_ship_range_slot = nrm_range_torpedo_boat_1
			fixed_ship_radar_slot = empty
			fixed_ship_fire_control_system_slot = nrm_fire_control_1
			fixed_ship_fire_control_system_aa_slot = empty
			custom_slot_1 = empty
			custom_slot_2 = empty
			custom_slot_4 = nrm_support_destroyer_TRP_21_C_1_x2
			custom_slot_5 = empty
			custom_slot_6 = empty
		}
		obsolete = yes
	}
	create_equipment_variant = {
		name = "Ehrensköld Class"				# represents Ehrensköld	and Klas Horn classes
		type = nrm_ship_hull_destroyer_1
		name_group = SWE_DD_HISTORICAL
		parent_version = 0
		show_position = no
		role_icon_index = 39
		modules = {
			fixed_ship_hullform_slot = nrm_ship_hullform_destroyer_1
			fixed_ship_engine_slot = nrm_destroyer_engine_S1_025
			fixed_ship_sonar_slot = nrm_sonar_1
			fixed_ship_battery_slot = nrm_destroyer_battery_5_1_x3
			fixed_ship_subdivision_slot = nrm_subdivision_1
			fixed_ship_damagecontrol_slot = nrm_damagecontrol_1
			fixed_ship_range_slot = nrm_range_destroyer_1
			fixed_ship_radar_slot = empty
			fixed_ship_fire_control_system_slot = nrm_fire_control_2
			fixed_ship_fire_control_system_aa_slot = empty
			custom_slot_1 = empty
			custom_slot_2 = nrm_support_destroyer_ASW_1
			custom_slot_3 = nrm_support_destroyer_TRP_21_C_2_x3
			custom_slot_4 = nrm_support_destroyer_TRP_21_C_2_x3
			custom_slot_5 = nrm_support_destroyer_HAA_1
			custom_slot_6 = empty
		}
		obsolete = yes
	}
	create_equipment_variant = {
		name = "Clas Fleming Class"				# minelayer		
		type = nrm_ship_hull_destroyer_1
		name_group = SWE_DD_HISTORICAL
		parent_version = 0
		show_position = no
		role_icon_index = 93
		modules = {
			fixed_ship_hullform_slot = nrm_ship_hullform_destroyer_1
			fixed_ship_engine_slot = nrm_destroyer_engine_S0_015
			fixed_ship_sonar_slot = empty
			fixed_ship_battery_slot = nrm_destroyer_battery_5_1_x4
			fixed_ship_subdivision_slot = nrm_subdivision_1
			fixed_ship_damagecontrol_slot = nrm_damagecontrol_1
			fixed_ship_range_slot = nrm_range_destroyer_1
			fixed_ship_radar_slot = empty
			fixed_ship_fire_control_system_slot = nrm_fire_control_1
			fixed_ship_fire_control_system_aa_slot = empty
			custom_slot_1 = nrm_support_destroyer_ML_1
			custom_slot_2 = nrm_support_destroyer_ML_1
			custom_slot_3 = empty
			custom_slot_4 = empty
			custom_slot_5 = empty
			custom_slot_6 = empty
		}
		obsolete = yes
	}
	create_equipment_variant = {
		name = "Göteborg Class"	
		type = nrm_ship_hull_destroyer_2
		name_group = SWE_DD_HISTORICAL
		parent_version = 0
		show_position = no
		role_icon_index = 39
		modules = {
			fixed_ship_hullform_slot = nrm_ship_hullform_destroyer_2
			fixed_ship_engine_slot = nrm_destroyer_engine_S1_040
			fixed_ship_sonar_slot = nrm_sonar_2
			fixed_ship_battery_slot = nrm_destroyer_battery_5_1_x3
			fixed_ship_subdivision_slot = nrm_subdivision_1
			fixed_ship_damagecontrol_slot = nrm_damagecontrol_1
			fixed_ship_range_slot = nrm_range_destroyer_1
			fixed_ship_radar_slot = empty
			fixed_ship_fire_control_system_slot = nrm_fire_control_3
			fixed_ship_fire_control_system_aa_slot = empty
			custom_slot_1 = empty
			custom_slot_2 = nrm_support_destroyer_ASW_1
			custom_slot_3 = nrm_support_destroyer_TRP_21_C_2_x3
			custom_slot_4 = nrm_support_destroyer_TRP_21_C_2_x3
			custom_slot_5 = nrm_support_destroyer_AA_1
			custom_slot_6 = empty
		}
	}
	# Cruisers #
	create_equipment_variant = {
		name = "Fylgia Class"				
		type = nrm_ship_hull_cruiser_0
		name_group = SWE_CL_HISTORICAL
		parent_version = 0
		show_position = no
		role_icon_index = 41
		modules = {
			fixed_ship_hullform_slot = nrm_ship_hullform_cruiser_0
			fixed_ship_engine_slot = nrm_cruiser_engine_S0_015
			fixed_ship_armor_layout_slot = nrm_armour_layout_0
			fixed_ship_armor_slot = nrm_cruiser_armour_04_1
			fixed_ship_subdivision_slot = nrm_subdivision_1
			fixed_ship_damagecontrol_slot = nrm_damagecontrol_1
			fixed_ship_range_slot = nrm_range_cruiser_1
			fixed_ship_radar_slot = empty
			fixed_ship_fire_control_system_slot = nrm_fire_control_2
			fixed_ship_fire_control_system_aa_slot = empty
			fixed_ship_battery_slot = nrm_cruiser_battery_6_1_x04
			fixed_ship_tertiary_slot = nrm_cruiser_tertiary_SB_6_1_x04
			custom_slot_1 = empty
			custom_slot_2 = empty
			custom_slot_5 = empty
			custom_slot_6 = empty
		}
		obsolete = yes
	}
	create_equipment_variant = {
		name = "Äran Class"				
		type = nrm_ship_hull_cruiser_coastal_0
		name_group = SWE_CA_HISTORICAL
		parent_version = 0
		show_position = no
		role_icon_index = 50
		modules = {
			fixed_ship_hullform_slot = nrm_ship_hullform_cruiser_0
			fixed_ship_engine_slot = nrm_cruiser_engine_S0_005
			fixed_ship_armor_layout_slot = nrm_armour_layout_1
			fixed_ship_armor_slot = nrm_cruiser_armour_06_1
			fixed_ship_subdivision_slot = nrm_subdivision_1
			fixed_ship_damagecontrol_slot = nrm_damagecontrol_1
			fixed_ship_range_slot = nrm_range_cruiser_0
			fixed_ship_radar_slot = empty
			fixed_ship_fire_control_system_slot = nrm_fire_control_3
			fixed_ship_fire_control_system_aa_slot = empty
			fixed_ship_battery_slot = nrm_cruiser_battery_8_1_x02
			fixed_ship_tertiary_slot = nrm_cruiser_tertiary_SB_6_1_x04
			custom_slot_1 = empty
			custom_slot_2 = empty
			custom_slot_5 = empty
			custom_slot_6 = empty
		}
		obsolete = yes
	}
	create_equipment_variant = {
		name = "Oscar II Class"				
		type = nrm_ship_hull_cruiser_coastal_1
		name_group = SWE_CA_HISTORICAL
		parent_version = 0
		show_position = no
		role_icon_index = 50
		modules = {
			fixed_ship_hullform_slot = nrm_ship_hullform_cruiser_1
			fixed_ship_engine_slot = nrm_cruiser_engine_S0_010
			fixed_ship_armor_layout_slot = nrm_armour_layout_1
			fixed_ship_armor_slot = nrm_cruiser_armour_06_1
			fixed_ship_subdivision_slot = nrm_subdivision_1
			fixed_ship_damagecontrol_slot = nrm_damagecontrol_1
			fixed_ship_range_slot = nrm_range_cruiser_0
			fixed_ship_radar_slot = empty
			fixed_ship_fire_control_system_slot = nrm_fire_control_3
			fixed_ship_fire_control_system_aa_slot = empty
			fixed_ship_battery_slot = nrm_cruiser_battery_8_1_x02
			fixed_ship_tertiary_slot = nrm_cruiser_tertiary_SB_6_1_x08
			custom_slot_1 = empty
			custom_slot_2 = empty
			custom_slot_3 = empty
			custom_slot_5 = empty
			custom_slot_6 = empty
		}
		obsolete = yes
	}
	create_equipment_variant = {
		name = "Sverige Class"				
		type = nrm_ship_hull_cruiser_coastal_1
		name_group = SWE_CA_HISTORICAL
		parent_version = 0
		show_position = no
		role_icon_index = 50
		modules = {
			fixed_ship_hullform_slot = nrm_ship_hullform_cruiser_1
			fixed_ship_engine_slot = nrm_cruiser_engine_S1_025
			fixed_ship_armor_layout_slot = nrm_armour_layout_1
			fixed_ship_armor_slot = nrm_cruiser_armour_06_1
			fixed_ship_subdivision_slot = nrm_subdivision_1
			fixed_ship_damagecontrol_slot = nrm_damagecontrol_1
			fixed_ship_range_slot = nrm_range_cruiser_0
			fixed_ship_radar_slot = empty
			fixed_ship_fire_control_system_slot = nrm_fire_control_3
			fixed_ship_fire_control_system_aa_slot = empty
			fixed_ship_battery_slot = nrm_cruiser_battery_PB_11_1_2x2
			fixed_ship_tertiary_slot = nrm_cruiser_tertiary_SB_6_1_x08
			custom_slot_1 = empty
			custom_slot_2 = nrm_support_cruiser_AA_1
			custom_slot_3 = nrm_support_cruiser_AA_1
			custom_slot_5 = empty
			custom_slot_6 = empty
		}
	}
	create_equipment_variant = {
		name = "Gotland Class"
		type = nrm_ship_hull_cruiser_2
		name_group = SWE_CL_HISTORICAL
		parent_version = 0
		show_position = no
		role_icon_index = 41
		modules = {
			fixed_ship_hullform_slot = nrm_ship_hullform_cruiser_2
			fixed_ship_engine_slot = nrm_cruiser_engine_S1_030
			fixed_ship_armor_layout_slot = nrm_armour_layout_1
			fixed_ship_armor_slot = nrm_cruiser_armour_01h_1
			fixed_ship_subdivision_slot = nrm_subdivision_1
			fixed_ship_damagecontrol_slot = nrm_damagecontrol_1
			fixed_ship_range_slot = nrm_range_cruiser_1
			fixed_ship_radar_slot = empty
			fixed_ship_fire_control_system_slot = nrm_fire_control_4
			fixed_ship_fire_control_system_aa_slot = empty
			fixed_ship_battery_slot = nrm_cruiser_battery_6_1_x06
			fixed_ship_tertiary_slot = nrm_cruiser_tertiary_HA_3_1_x04
			custom_slot_1 = nrm_support_cruiser_ML_1
			custom_slot_2 = nrm_support_cruiser_FP_1
			custom_slot_3 = nrm_support_cruiser_FP_1
			custom_slot_4 = nrm_support_cruiser_TRP_21_2_x06
			custom_slot_5 = nrm_support_cruiser_AA_1
			custom_slot_6 = empty
		}
	}
}
### EOF ###