## 9 Power Fun
foreign_politics = {
	warlords_support_CHI_with_militia = {
		icon = generic_economy
		allowed = {
			is_chinese_nations/TAG = yes 
			NOT = { tag = CHI tag = PRC }
		}
		available = {
			has_manpower > 50000
			is_in_faction_with = FROM 
			has_war_together_with = FROM
			has_completed_focus = CHI_cooperation_with_the_nationalists
			NOT = { FROM = { has_country_flag = { flag = warlord_sending_troops value > 1 } } }
		}
		visible = {
			has_capitulated = no
			has_war = yes
			has_completed_focus = CHI_cooperation_with_the_nationalists
			has_war_together_with = FROM
			is_in_faction_with = FROM 
			FROM = {
				has_capitulated = no 
				has_army_manpower = {
					size < 1000000
				}
			}
		}
		targets = { CHI }
		ai_will_do = {
			base = 1
			modifier = {
				factor = 0 
				CHI = { num_divisions > 75 }
			}
		}
		
		custom_cost_trigger = {
			command_power > 49.9
		}
		custom_cost_text = cp_atleast_50
		
		days_remove = 30
		days_re_enable = 90
		
		modifier = {
			weekly_manpower = -3000
		}
		complete_effect = {
			hidden_effect = { add_command_power = -50 }
			CHI = { 
				if = {
					limit = {
						has_country_flag = warlord_sending_troops
					}
					modify_country_flag = {
						flag = warlord_sending_troops
						value = 1
					}
				}
				else_if = {
					limit = {
						NOT = { has_country_flag = warlord_sending_troops }
					}
					set_country_flag = warlord_sending_troops 
				}
			}
		}
		remove_effect = {
			CHI = {
				if = {
					limit = {
						has_country_flag = { flag = warlord_sending_troops value > 1 }
					}
					modify_country_flag = {
						flag = warlord_sending_troops
						value = -1
					}
				}
				else = {
					clr_country_flag = warlord_sending_troops 
				}
				if = {
					limit = {
						NOT = { has_template = "Warlord Reinforcements" }
					}
					division_template = {
						name = "Warlord Reinforcements" #need better name
						is_locked = yes #add button to recruitment tab to clear this template
						regiments = {
							militia = { x = 0 y = 0 }
							militia = { x = 0 y = 1 }
							
							militia = { x = 1 y = 0 }
							militia = { x = 1 y = 1 }
							
							militia = { x = 2 y = 0 }
							militia = { x = 2 y = 1 }
						}
						support = { 
							DIV_HQ = { x = 0 y = 0 }
							engineer = { x = 0 y = 1 }
						} 
					}
				}

				random_owned_controlled_state = {
					limit = {
						any_neighbor_state = {
							CONTROLLER = { has_war_with = CHI }
						}
						impassable = no 
					}
					create_unit = {
						division = "name = \"Bubing Shi\" division_template = \"Warlord Reinforcements\" start_experience_factor = 0.20 start_equipment_factor = 0.75" 
						owner = CHI
					}
				}
				random_owned_controlled_state = {
					limit = {
						any_neighbor_state = {
							CONTROLLER = { has_war_with = CHI }
						}
						impassable = no 
					}
					create_unit = {
						division = "name = \"Bubing Shi\" division_template = \"Warlord Reinforcements\" start_experience_factor = 0.20 start_equipment_factor = 0.75" 
						owner = CHI
					}
				}
				random_owned_controlled_state = {
					limit = {
						any_neighbor_state = {
							CONTROLLER = { has_war_with = CHI }
						}
						impassable = no 
					}
					create_unit = {
						division = "name = \"Bubing Shi\" division_template = \"Warlord Reinforcements\" start_experience_factor = 0.20 start_equipment_factor = 0.75" 
						owner = CHI
					}
				}
			}
		}
	}
	warlords_support_PRC_with_militia = {
		icon = generic_economy
		allowed = {
			is_chinese_nations/TAG = yes 
			NOT = { tag = CHI tag = PRC }
		}
		available = {
			has_manpower > 50000  
			is_in_faction_with = FROM 
			has_completed_focus = CHI_cooperation_with_the_communists
			NOT = { FROM = { has_country_flag = { flag = warlord_sending_troops value > 1 } } }
		}
		visible = {
			has_capitulated = no
			has_war = yes
			has_completed_focus = CHI_cooperation_with_the_communists
			has_war_together_with = FROM
			is_in_faction_with = FROM 
			FROM = {
				has_capitulated = no 
				has_army_manpower = {
					size < 100000
				}
			}
		}
		targets = { PRC }
		ai_will_do = {
			base = 1
			modifier = {
				factor = 0.1
				PRC = { num_divisions > 20 }
			}
		}
		
		custom_cost_trigger = {
			command_power > 49.9
		}
		custom_cost_text = cp_atleast_50
		
		days_remove = 30
		days_re_enable = 90
		
		modifier = {
			weekly_manpower = -3000
		}
		complete_effect = {
			hidden_effect = { add_command_power = -50 }
			PRC = { 
				if = {
					limit = {
						has_country_flag = warlord_sending_troops
					}
					modify_country_flag = {
						flag = warlord_sending_troops
						value = 1
					}
				}
				else_if = {
					limit = {
						NOT = { has_country_flag = warlord_sending_troops }
					}
					set_country_flag = warlord_sending_troops 
				}
			}
		}
		remove_effect = {
			PRC = {
				if = {
					limit = {
						has_country_flag = { flag = warlord_sending_troops value > 1 }
					}
					modify_country_flag = {
						flag = warlord_sending_troops
						value = -1
					}
				}
				else = {
					clr_country_flag = warlord_sending_troops 
				}
				clr_country_flag = warlord_sending_troops 
				if = {
					limit = {
						NOT = { has_template = "Warlord Reinforcements" }
					}
					division_template = {
						name = "Warlord Reinforcements" #need better name
						is_locked = yes #add button to recruitment tab to clear this template
						regiments = {
							militia = { x = 0 y = 0 }
							militia = { x = 0 y = 1 }
							
							militia = { x = 1 y = 0 }
							militia = { x = 1 y = 1 }
							
							militia = { x = 2 y = 0 }
							militia = { x = 2 y = 1 }
						}
						support = { 
							DIV_HQ = { x = 0 y = 0 }
							engineer = { x = 0 y = 1 }
						} 
					}
				}

				random_owned_controlled_state = {
					limit = {
						any_neighbor_state = {
							CONTROLLER = { has_war_with = CHI }
						}
						impassable = no 
					}
					create_unit = {
						division = "name = \"Bubing Shi\" division_template = \"Warlord Reinforcements\" start_experience_factor = 0.20 start_equipment_factor = 0.75" 
						owner = PRC
					}
				}
				random_owned_controlled_state = {
					limit = {
						any_neighbor_state = {
							CONTROLLER = { has_war_with = CHI }
						}
						impassable = no 
					}
					create_unit = {
						division = "name = \"Bubing Shi\" division_template = \"Warlord Reinforcements\" start_experience_factor = 0.20 start_equipment_factor = 0.75" 
						owner = PRC
					}
				}
			}
		}
	}
	nine_exploit_active_1 = {
		icon = gre_investment_decisions
		allowed = { always = no }
		available = { check_variable = { none = 1 } }
		
		modifier = { industrial_factory_donations = 1 }
		
		is_good = yes
		days_mission_timeout = 0
		days_remove = 75
		
		remove_effect = {
			set_temp_variable = { chance_picked = nine_exploit_1 }
			effect_tooltip = {
				nine_power_exploiting_tooltip = yes
			}
			clear_variable = nine_exploit_1
		}
		
	}
	nine_exploit_active_2 = {
		icon = gre_investment_decisions
		allowed = { always = no }
		available = { check_variable = { none = 1 } }
		
		modifier = { industrial_factory_donations = 1 }
		
		is_good = yes
		days_mission_timeout = 0
		days_remove = 75
		
		remove_effect = {
			set_temp_variable = { chance_picked = nine_exploit_2 }
			effect_tooltip = {
				nine_power_exploiting_tooltip = yes
			}
			clear_variable = nine_exploit_2
		}
		
	}
	nine_exploit_active_3 = {
		icon = gre_investment_decisions
		allowed = { always = no }
		available = { check_variable = { none = 1 } }
		
		modifier = { industrial_factory_donations = 1 }
		
		is_good = yes
		days_mission_timeout = 0
		days_remove = 75
		
		remove_effect = {
			set_temp_variable = { chance_picked = nine_exploit_3 }
			effect_tooltip = {
				nine_power_exploiting_tooltip = yes
			}
			clear_variable = nine_exploit_3
		}
		
	}
			
	nine_exploit_FROM = {
		icon = gre_investment_decisions
		allowed = {
			OR = {
				tag = USA
				tag = JAP
				tag = ITA
				tag = POR
				tag = HOL
				tag = BEL
				tag = ENG
				tag = FRA
				
			}
		}
		visible = {
			has_war = no
			#CHI = {
			#	has_idea = CHI_nine_power_treaty
			#	has_capitulated = no
			#}
			NOT = {
				AND = {
					has_variable = nine_exploit_1
					has_variable = nine_exploit_2
					has_variable = nine_exploit_3
				}
			}
			any_of = {
				array = global.chinese_nations
				
				var:v = {
					has_idea = CHI_nine_power_treaty
					exists = yes
					OR = {
						has_war = no
						is_in_faction_with = CHI
					}
					NOT = { has_war_with = ROOT }
				}
			}
		}
		cosmetic_tag = CHI
		cosmetic_ideology = neutrality
		available = {
			
		}
		ai_will_do = {
			base = 10
			modifier = {
				factor = 0.2
				
				has_variable = nine_exploit_1
			}
		}
			
		cost = 20
		days_re_enable = 0
		fixed_random_seed = no
		
		complete_effect = {
			if = {
				limit = {
					CHI = {
						OR = {
							NOT = { has_idea = CHI_nine_power_treaty }
							AND = {
								has_idea = CHI_cost
								has_idea = CHI_cost2
								has_idea = CHI_cost3
								has_idea = CHI_cost4
								has_idea = CHI_cost5
							}
						}
					}
				}
				
				random_scope_in_array = {
					array = global.chinese_nations
					
					limit = {
						has_idea = CHI_nine_power_treaty
						exists = yes
						OR = {
							has_war = no
							is_in_faction_with = CHI
						}
						NOT = { 
							has_war_with = ROOT 
						}
					}
					
					set_temp_variable = { nine_exploit_target = THIS }
				}
			}
			else = {
				set_temp_variable = { nine_exploit_target = CHI }
			}
			
			custom_effect_tooltip = nine_exploit_tt2
			hidden_effect = {
				
				var:nine_exploit_target = {
				
					if = {
						limit = {
							not = {
								has_idea = CHI_cost
							}
						}
						add_timed_idea = {
							idea = CHI_cost
							days = 80
						}
					}
					else_if = {
						limit = {
							not = {
								has_idea = CHI_cost2
							}
						}
						add_timed_idea = {
							idea = CHI_cost2
							days = 80
						}
					}
					else_if = {
						limit = {
							not = {
								has_idea = CHI_cost3
							}
						}
						add_timed_idea = {
							idea = CHI_cost3
							days = 80
						}
					}
					else_if = {
						limit = {
							not = {
								has_idea = CHI_cost4
							}
						}
						add_timed_idea = {
							idea = CHI_cost4
							days = 80
						}
					}
					else_if = {
						limit = {
							not = {
								has_idea = CHI_cost5
							}
						}
						add_timed_idea = {
							idea = CHI_cost5
							days = 80
						}
					}
					
					add_opinion_modifier = {
						target = ROOT
						modifier = protest_action_light
					}
						
					random_list = {
						25 = {
							if = {
								limit = {
									not = { has_country_flag = no_more_spam }
								}
								country_event = china.19
							}
							if = {
								limit = {
									has_idea = CHI_roads
								}
								modify_timed_idea = {
									idea = CHI_roads
									days = 75
								}
							}
							else = {
								add_timed_idea = {
									idea = CHI_roads
									days = 75
								}
							}
						}
						20 = {
							if = {
								limit = {
									not = { has_country_flag = no_more_spam }
								}
								country_event = china.20
							}
							add_timed_idea = {
								idea = CHI_industry
								days = 75
							}
						}
						15 = {
							if = {
								limit = {
									not = { has_country_flag = no_more_spam }
								}
								country_event = china.21
							}
							add_timed_idea = {
								idea = CHI_construct
								days = 75
							}
						}
						5 = {
							if = {
								limit = {
									not = { has_country_flag = no_more_spam }
								}
								country_event = china.22
							}
							add_timed_idea = {
								idea = CHI_ideas
								days = 75
							}
						}
						12 = {
							if = {
								limit = {
									not = { has_country_flag = no_more_spam }
								}
								country_event = china.23
							}
							add_timed_idea = {
								idea = CHI_cmd
								days = 75
							}
						}
						8 = {
							if = {
								limit = {
									not = { has_country_flag = no_more_spam }
								}
								country_event = china.24
							}
							add_fuel = 2500
						}
						10 = {
							if = {
								limit = {
									not = { has_country_flag = no_more_spam }
								}
								country_event = china.25
							}
							army_experience = 10
						}
						3 = {
							if = {
								limit = {
									not = { has_country_flag = no_more_spam }
								}
								country_event = china.26
							}
							air_experience = 10
						}
						2 = {
							if = {
								limit = {
									not = { has_country_flag = no_more_spam }
								}
								country_event = china.27
							}
							navy_experience = 10
						}
					}
				}
			}

			custom_effect_tooltip = nine_exploit_tt
			
			random_list = {
				3 = {
					add_offsite_building = { type = arms_factory level = 1 }
					set_temp_variable = { chance_picked = 1 }
				}
				2 = {
					add_offsite_building = { type = industrial_complex level = 1 }
					set_temp_variable = { chance_picked = 2 }
				}
				20 = {
					add_timed_idea = {
						idea = CHI_wealth
						days = 75
					}
					set_temp_variable = { chance_picked = 3 }
				}
				30 = {
					add_timed_idea = {
						idea = CHI_mines
						days = 75
					}
					set_temp_variable = { chance_picked = 4 }
				}
				22 = {
					add_timed_idea = {
						idea = CHI_ideas
						days = 75
					}
					set_temp_variable = { chance_picked = 5 }
				}
				15 = {
					add_timed_idea = {
						idea = CHI_power
						days = 75
					}
					set_temp_variable = { chance_picked = 6 }
				}
				8 = {
					set_temp_variable = { chance_picked = 7 }
				}
			}	
			
			hidden_effect = {
				if = {
					limit = {
						NOT = { has_variable = nine_exploit_1 }
					}
					set_variable = { nine_exploit_1 = chance_picked }
					activate_mission = nine_exploit_active_1
				}
				else_if = {
					limit = {
						NOT = { has_variable = nine_exploit_2 }
					}
					set_variable = { nine_exploit_2 = chance_picked }
					activate_mission = nine_exploit_active_2
				}
				else_if = {
					limit = {
						NOT = { has_variable = nine_exploit_3 }
					}
					set_variable = { nine_exploit_3 = chance_picked }
					activate_mission = nine_exploit_active_3
				}
			}
		}
		remove_effect = {
		
		}
	}
}

#Category allowed for all potential nationalist china
#Category visible when CHI_army_reform focus is completed
CHI_army_reform = {

	CHI_army_reform = {

		icon = eng_blackshirt_march

		available = {
			has_completed_focus = CHI_army_reform
			hidden_trigger = {
				if = {
					limit = { is_ai = yes }
					has_army_experience > 50
				}
				else_if = {
					limit = {
						OR = {
							has_war_with = JAP
							has_war_with = GER
							has_war_with = ITA
							has_war_with = USA
							has_war_with = ENG
							has_war_with = FRA
							has_war_with = SOV
							has_war_with = PRC
						}
					}
					has_army_experience > 50
					has_completed_focus = CHI_army_reform
				}
				else = {
					has_army_experience > 150
				}
			}
		}

		custom_cost_trigger = {
			if = {
				limit = {
					OR = {
						has_war_with = JAP
						has_war_with = GER
						has_war_with = ITA
						has_war_with = USA
						has_war_with = ENG
						has_war_with = FRA
						has_war_with = SOV
						has_war_with = PRC
					}
				}
				set_temp_variable = { cost = 50 }
				has_army_experience > 50
			}
			else = {
				set_temp_variable = { cost = 150 }
				has_army_experience > 150
			}
		}
		custom_cost_text = army_experience_atleast
		
		ai_will_do = {
			factor = 100
		}
		days_remove = 180

		visible = {
			OR = {
				has_idea = CHI_army_corruption_1
				has_idea = CHI_army_corruption_2
				has_idea = CHI_army_corruption_3
				has_idea = CHI_army_corruption_4
			}
		}
		remove_effect = {
			if = {
				limit = { has_idea = CHI_army_corruption_1 }
				swap_ideas = {
					remove_idea = CHI_army_corruption_1
					add_idea = CHI_army_corruption_2
				}
			}
			else_if = {
				limit = { has_idea = CHI_army_corruption_2 }
				swap_ideas = {
					remove_idea = CHI_army_corruption_2
					add_idea = CHI_army_corruption_3
				}
			}
			else_if = {
				limit = { has_idea = CHI_army_corruption_3 }
				swap_ideas = {
					remove_idea = CHI_army_corruption_3
					add_idea = CHI_army_corruption_4
				}
			}
			else_if = {
				limit = { has_idea = CHI_army_corruption_4 }
				remove_ideas = CHI_army_corruption_4
			}
		}
		complete_effect = {
			hidden_effect = {
				if = {
					limit = { is_ai = yes }
					army_experience = -50
				}
				else_if = {
					limit = {
						OR = {
							has_war_with = JAP
							has_war_with = GER
							has_war_with = ITA
							has_war_with = USA
							has_war_with = ENG
							has_war_with = FRA
							has_war_with = SOV
							has_war_with = PRC
						}
					}
					army_experience = -50
				}
				else = {
					army_experience = -150
				}
			}		
		}		
	}

	CHI_lessons_of_war = {
		icon = generic_army_support
		available = {
			has_idea = CHI_incompetent_officers
			if = {
				limit = { has_idea = CHI_army_corruption_1 }
				has_army_experience > 150
			}

			else_if = {
				limit = { has_idea = CHI_army_corruption_2 }
				has_army_experience > 125
			}

			else_if = {
				limit = { has_idea = CHI_army_corruption_3 }
				has_army_experience > 100
			}
			
			else_if = {
				limit = { has_idea = CHI_army_corruption_4 }
				has_army_experience > 75
			}

			else = {
				has_army_experience > 50
			}
		}

		cost = 0
		ai_will_do = {
			factor = 100
		}
		fire_only_once = yes

		visible = {
			has_completed_focus = CHI_army_reform
			has_idea = CHI_incompetent_officers
		}

		complete_effect = {
			if = {
				limit = { has_idea = CHI_army_corruption_1 }
				army_experience = -150
			}

			else_if = {
				limit = { has_idea = CHI_army_corruption_2 }
				army_experience = -125
			}

			else_if = {
				limit = { has_idea = CHI_army_corruption_3 }
				army_experience = -100
			}
			
			else_if = {
				limit = { has_idea = CHI_army_corruption_4 }
				army_experience = -75
			}

			else = {
				army_experience = -50
			}
			remove_ideas = CHI_incompetent_officers
			set_country_flag = CHI_lessons_of_war_completed
		}		
	}

	#Activates when the player picks CHI_60_divisions_plan decision
	CHI_bolster_our_ranks = {
		allowed = { always = no }

		icon = generic_prepare_civil_war

		available = {
			num_divisions > 60
			has_army_manpower = { size > 549999 }
		}

		fire_only_once = yes
		
		days_mission_timeout = 180

		is_good = no

		activation = {
			always = no #Triggered from effect in CHI_60_divisions_plan
		}

		complete_effect = {
			add_war_support = 0.1
		}

		timeout_effect = {

		}
	}

	CHI_60_divisions_plan = {

		icon = generic_operation
		
		allowed = { tag = CHI }

		available = {
			
		}

		cost = 90
		ai_will_do = {
			factor = 1
		}
		fire_only_once = yes

		visible = {
			has_completed_focus = CHI_60_divisions_plan
		}

		days_remove = 180

		modifier = {
			training_time_army_factor = -0.25
		}

		complete_effect = {
			activate_mission = CHI_bolster_our_ranks
		}		
	}
	CHI_free_conscripts = {
		icon = generic_army_support
		allowed = {
			is_chinese_nations/TAG = yes
			NOT = {
				tag = SIK
			}
		}
		
		available = {
			check_variable = { command_power > 24.9 }
		}

		custom_cost_trigger = {
			command_power > 24.9
		}
		custom_cost_text = cp_atleast_25
		ai_will_do = { 
			base = 0
			modifier = {
				add = stability_score
				set_temp_variable = { weight = 1 } #since no cost = 1/1*100 = 100
				ai_check_stability_need = yes
			}
		}

		days_remove = 90
		days_re_enable = 90
		modifier = {
			weekly_manpower = -10000
			stability_weekly = 0.03
			war_support_weekly = 0.01
		}
		complete_effect = {
			hidden_effect = {
				add_command_power = -25
			}
		}
		
	}
	
	KMT_lower_incompetent_army_1 = {
		icon = eng_blackshirt_march
		visible = {
			OR = {
				has_idea = KMT_weak_army
				has_idea = KMT_weak_army_lesser
				has_idea = KMT_weak_army_lesserer
			}
		}
		
		available = {
			hidden_trigger = {
				if = {
					limit = { is_ai = yes }
					has_army_experience > 100
				}
				else_if = {
					limit = {
						OR = {
							has_war_with = JAP
							has_war_with = GER
							has_war_with = ITA
							has_war_with = USA
							has_war_with = ENG
							has_war_with = FRA
							has_war_with = SOV
							has_war_with = PRC
						}
					}
					has_army_experience > 100
				}
				else = {
					has_army_experience > 200
				}
			}
		}
		
		custom_cost_trigger = {
			if = {
				limit = {
					OR = {
						has_war_with = JAP
						has_war_with = GER
						has_war_with = ITA
						has_war_with = USA
						has_war_with = ENG
						has_war_with = FRA
						has_war_with = SOV
						has_war_with = PRC
					}
				}
				set_temp_variable = { cost = 100 }
				has_army_experience > 100
			}
			else = {
				set_temp_variable = { cost = 200 }
				has_army_experience > 200
			}
		}
		custom_cost_text = army_experience_atleast
		
		ai_will_do = {
			factor = 1000
		}

		days_remove = 150

		cost = 50
		
		complete_effect = {
			hidden_effect = {
				if = {
					limit = { is_ai = yes }
					army_experience = -100
				}
				else_if = {
					limit = {
						OR = {
							has_war_with = JAP
							has_war_with = GER
							has_war_with = ITA
							has_war_with = USA
							has_war_with = ENG
							has_war_with = FRA
							has_war_with = SOV
							has_war_with = PRC
						}
					}
					army_experience = -100
				}
				else = {
					army_experience = -200
				}
				#custom_effect_tooltip = 150_days_tt
			}		
		}
		
		remove_effect = {
			if = {
				limit = {
					has_idea = KMT_weak_army
				}
				swap_ideas = {
					remove_idea = KMT_weak_army
					add_idea = KMT_weak_army_lesser
				}
				else = {
					if = {
						limit = {
							has_idea = KMT_weak_army_lesser
						}
						swap_ideas = {
							remove_idea = KMT_weak_army_lesser
							add_idea = KMT_weak_army_lesserer
						}
						else = {
							if = {
								limit = {
									has_idea = KMT_weak_army_lesserer
								}
								remove_ideas = KMT_weak_army_lesserer
							}
						}
					}
				}
			}
		}
	}
	
	KMT_extensive_drilling = {
		icon = eng_blackshirt_march
		visible = {
			has_completed_focus = KMT_army_reform
		}
		
		available = {
		}
		
		ai_will_do = {
			factor = 1
			modifier = {
				OR = {
					has_idea = KMT_weak_army
					has_idea = KMT_weak_army_lesser
					has_idea = KMT_weak_army_lesserer
					has_idea = CHI_army_corruption_1
					has_idea = CHI_army_corruption_2
					has_idea = CHI_army_corruption_3
					has_idea = CHI_army_corruption_4
					has_idea = CHI_incompetent_officers
				}
				add = 100
			}
		}

		days_remove = 365
		days_re_enable = 0
		
		fire_only_once = yes

		cost = 50
		
		modifier = {
			experience_gain_army = 0.07
			experience_gain_army_factor = 0.25
			army_morale_factor = -0.05
			army_org_factor = -0.05
		}
		
		complete_effect = {
		}
		
		remove_effect = {
			set_country_flag = KMT_extensive_drilling_finished
		}
	}
	
	KMT_tighten_up_recruitment_standard = {
		icon = generic_police_action
		visible = {
			has_completed_focus = KMT_army_reform
		}
		
		available = {
		}
		
		ai_will_do = {
			factor = 0
			modifier = {
				OR = {
					has_idea = KMT_weak_army
					has_idea = KMT_weak_army_lesser
					has_idea = KMT_weak_army_lesserer
					has_idea = CHI_army_corruption_1
					has_idea = CHI_army_corruption_2
					has_idea = CHI_army_corruption_3
					has_idea = CHI_army_corruption_4
					has_idea = CHI_incompetent_officers
				}
				add = 100
			}
		}

		days_remove = 365
		days_re_enable = 0
		
		fire_only_once = yes

		cost = 50
		
		modifier = {
			experience_gain_army = 0.07
			experience_gain_army_factor = 0.25
			conscription = -0.01
			conscription_factor = -0.1
		}
		
		complete_effect = {
		}
		
		remove_effect = {
			set_country_flag = KMT_tighten_up_recruitment_standard_finished
		}
	}
	
	KMT_officer_reshuffle = {
		icon = generic_army_support
		allowed = { tag = CHI }
		
		visible = {
			has_completed_focus = KMT_army_reform
		}
		
		available = {
		}
		
		ai_will_do = {
			factor = 1
			modifier = {
				OR = {
					has_idea = KMT_weak_army
					has_idea = KMT_weak_army_lesser
					has_idea = KMT_weak_army_lesserer
					has_idea = CHI_army_corruption_1
					has_idea = CHI_army_corruption_2
					has_idea = CHI_army_corruption_3
					has_idea = CHI_army_corruption_4
					has_idea = CHI_incompetent_officers
				}
				add = 100
			}
		}

		days_remove = 365
		days_re_enable = 0
		
		fire_only_once = yes

		cost = 50
		
		modifier = {
			experience_gain_army = 0.07
			experience_gain_army_factor = 0.25
			military_leader_cost_factor = 0.75
			planning_speed = -0.1
		}
		
		complete_effect = {
		}
		
		remove_effect = {
			set_country_flag = KMT_officer_reshuffle_finished
		}
	}
	
	KMT_extensive_drilling_plus = {
		icon = generic_industry
		allowed = { tag = CHI }
		visible = {
			has_completed_focus = KMT_army_reform
		}
		
		available = {
			has_country_flag = KMT_extensive_drilling_finished
		}
		
		ai_will_do = {
			factor = 10
		}

		days_remove = -1
		days_re_enable = 0

		cost = 75
		
		modifier = {
			experience_gain_army = 0.01
			training_time_army_factor = -0.1
		}
	}
	
	KMT_tighten_up_recruitment_standard_plus = {
		icon = generic_political_discourse
		allowed = { tag = CHI }
		visible = {
			has_completed_focus = KMT_army_reform
		}
		
		available = {
			has_country_flag = KMT_tighten_up_recruitment_standard_finished
		}
		
		ai_will_do = {
			factor = 4
		}

		days_remove = -1
		days_re_enable = 0

		cost = 75
		
		modifier = {
			army_org_factor = 0.025
			army_morale_factor = 0.025
		}
	}
	
	KMT_officer_reshuffle_plus = {
		icon = generic_army_support
		allowed = { tag = CHI }
		visible = {
			has_completed_focus = KMT_army_reform
		}
		
		available = {
			has_country_flag = KMT_officer_reshuffle_finished
		}
		
		ai_will_do = {
			factor = 5
		}

		days_remove = -1
		days_re_enable = 0

		cost = 75
		
		modifier = {
			max_planning = 0.05
			planning_speed = 0.1
		}
	}
}

war_measures = {

	CHI_scorched_earth_tactics = {
		icon = generic_scorched_earth
		allowed = { tag = CHI }
		available = {
			any_owned_state = {
				is_controlled_by = ROOT
				infrastructure > 0
				any_neighbor_state = {
					NOT = { is_fully_controlled_by = ROOT }
					controller = { has_war_with = CHI }
				}
			}
		}

		cost = 25

		ai_will_do = {
			factor = 1
		}

		visible = {			
			has_completed_focus = CHI_scorched_earth_tactics
		}

		days_re_enable = 30

		complete_effect = {
			every_owned_state = {
				limit = {
					is_controlled_by = ROOT
					infrastructure > 0
					any_neighbor_state = {
						NOT = { is_fully_controlled_by = ROOT }
						controller = { has_war_with = CHI }
					}
				}
				damage_building = {
					type = infrastructure
					damage = 3
				}
			}			
		}
	}
}

###  ##  ###  ### ###  ##  #  #      ## #  # ###  ###   ##  ###  ### 
#   #  # #  # #    #  #    ## #     #   #  # #  # #  # #  # #  #  #  
##  #  # ###  ##   #  # ## # ##      #  #  # ###  ###  #  # ###   #  
#   #  # #  # #    #  #  # #  #       # #  # #    #    #  # #  #  #  
#    ##  #  # ### ###  ##  #  #     ##   ##  #    #     ##  #  #  #  

foreign_support = {
	CHI_flying_tigers = {
		icon = generic_air
		allowed = { always = no }
		available = {
		}
		visible = {
			has_country_flag = CHI_flying_tigers
		}
		cost = 25
		ai_will_do = {
			factor = 100
		}
		fire_only_once = yes
		days_remove = -1
		complete_effect = {
			add_war_support = 0.05
			
			FROM = {
				ROOT_bypass_volunteer_ideology_for_THIS = yes 
				ROOT_disable_land_volunteers_for_THIS = yes
			}
		}
		modifier = {
			air_volunteer_cap = 50
		}
		
	}

	CHI_soviet_volunteer_group = {
		icon = generic_air
		allowed = { is_chinese_nations/TAG = yes }
		available = {
			has_equipment = { fighter_equipment > 99 }
			has_equipment = { tac_bomber_equipment > 49 }
		}
		visible = {
			has_country_flag = CHI_soviet_volunteer_group
		}
		cost = 25
		ai_will_do = {
			factor = 1
		}
		days_remove = -1
		fire_only_once = yes
		complete_effect = {
			random_country = {
				limit = {
					has_completed_focus = CHI_the_soviet_volunteer_group
				}
				custom_effect_tooltip = soviet_volunteers_tt
				hidden_effect = {
					SOV = {
						send_equipment = {
							target = PREV
							type = fighter_alt_equipment
							amount = 100
						}
					}
					SOV = {
						send_equipment = {
							target = PREV
							type = tac_bomber_equipment
							amount = 50
						}
					}
				}
			}
			add_war_support = 0.05	
		}
		modifier = {
			air_volunteer_cap = 50
		}
	}
	CHI_expand_the_burma_road = {
		icon = generic_construction
		allowed = {
			OR = {
				tag = ENG 
				tag = CHI 
				tag = PRC
			}
		}
		
		highlight_states = {
			highlight_state_targets = {
				state = 288 state = 640 state = 325 state = 747 
			}
		}
		
		available = { 
			if = {
				limit = {
					tag = CHI 
				}
				has_completed_focus = KMT_the_burma_road
			}
			else_if = {
				limit = {
					tag = ENG
				}
				has_completed_focus = uk_burma_focus
			}
			
			is_burma_road_available = yes
		}
		visible = {
			OR = {
				has_completed_focus = KMT_the_burma_road
				has_completed_focus = uk_burma_focus
				has_completed_focus = CHI_burma_road
			}
			
			NOT = { has_global_flag = { flag = CHI_burma_road_level value > 2 } }
		}
		days_re_enable = 180
		ai_will_do = {
			factor = 1
		}
		cost = 25
		days_remove = 30
		modifier = {
			civilian_factory_use = 7
		}
		complete_effect = {
			if = {
				limit = {
					has_war = no
					has_war_support < 0.6
				}
				add_war_support = 0.05
			}
		}
		remove_effect = {
			288 = {
				add_building_construction = {
					type = infrastructure
					level = 1
					instant_build = yes
				}
			}
			640 = {
				add_building_construction = {
					type = infrastructure
					level = 1
					instant_build = yes
				}
			}
			325 = {
				add_building_construction = {
					type = infrastructure
					level = 1
					instant_build = yes
				}
			}
			747 = {
				add_building_construction = {
					type = infrastructure
					level = 1
					instant_build = yes
				}
			}
			
			#Set up global flag for current level
			if = {
				limit = {
					NOT = { has_global_flag = CHI_burma_road_level } # 
				}
				set_global_flag = { flag = CHI_burma_road_level value = 1 }
			}
			else_if = {
				limit = {
					has_global_flag = CHI_burma_road_level
				}
				modify_global_flag = {
					flag = CHI_burma_road_level
					value = 1
				}
			}
			
			for_each_scope_loop = {
				array = global.chinese_nations
				tooltip = CHI_burma_road_array_TT
				
				add_to_variable = { global.CHI_burma_road_current_level = 1 }
				add_to_variable = { CHI_burma_road_current_level = 1 }
				add_offsite_building = { type = arms_factory level = 1 }
			}
		}
	}
	CHI_expand_the_ledo_road = {
		icon = generic_construction
		allowed = {
			OR = {
				tag = ENG 
				tag = CHI 
				tag = PRC
			}
		}
		available = {
			has_global_flag = CHI_ledo_road_completed
			OR = {
				640 = { is_controlled_by_ROOT_or_ally = yes }
				325 = { is_controlled_by_ROOT_or_ally = yes }
				#325 = {
				#	CONTROLLER = {
				#		OR = {
				#			AND = {
				#				is_subject = yes
				#				OVERLORD = {
				#					has_completed_focus = CHI_ledo_road
				#				}
				#			}
				#			AND = {
				#				is_in_faction_with = event_target:WTT_current_china_leader
				#				event_target:WTT_current_china_leader = {
				#					has_completed_focus = CHI_ledo_road
				#				}
				#			}
				#		}
				#	}
				#}
			}
		}
		visible = {
			has_global_flag = CHI_ledo_road_completed
			OR = {
				has_completed_focus = CHI_ledo_road
				640 = { is_controlled_by_ROOT_or_ally = yes }
			}
			NOT = {
				has_global_flag = CHI_ledo_3
			}
		}
		days_re_enable = 360
		ai_will_do = {
			factor = 1
		}
		cost = 25
		days_remove = 60
		modifier = {
			civilian_factory_use = 5
		}

		remove_effect = {
			if = {
				limit = {
					has_global_flag = CHI_ledo_2
				}
				set_global_flag = CHI_ledo_3
			}
			if = {
				limit = {
					NOT = { has_global_flag = CHI_ledo_2} # 
				}
				set_global_flag = CHI_ledo_2
			}

			random_country = {
				limit = { check_variable = { CHI_ledo_road > 0 } }
				add_to_variable = { var = CHI_ledo_road value = 1 }

				#Country that had the ledo road open
				add_offsite_building = { type = arms_factory level = 1 }
			}
		}
	}
	CHI_expand_the_airlift = {
		icon = generic_construction
		allowed = {
			OR = {
				tag = ENG 
				tag = CHI 
				tag = PRC
			}
		}
		available = {	
			OR = {
				434 = {
					is_controlled_by_ROOT_or_ally = yes
				}
				601 = {
					is_controlled_by_ROOT_or_ally = yes
				}
			}
		}
		visible = {
			OR = { 
				AND = {
					has_completed_focus = CHI_the_hump
					601 = { is_controlled_by_ROOT_or_ally = yes }
				}
				AND = {
					has_global_flag = CHI_the_hump_completed
					434 = { is_controlled_by_ROOT_or_ally = yes }
				}
			}
			NOT = {
				has_global_flag = CHI_hump_3
			}
		}
		cost = 25
		days_re_enable = 360
		ai_will_do = {
			factor = 1
		}
		days_remove = 60
		modifier = {
			civilian_factory_use = 5
		}
		complete_effect = {
			if = {
				limit = {
					AND = {
						has_war = no
						has_war_support < 0.6
					}
				}
				add_war_support = 0.05
			}
		}
		remove_effect = {
			434 = {
				add_building_construction = {
					type = air_base
					level = 1
					instant_build = yes
				}
			}
			601 = {
				add_building_construction = {
					type = air_base
					level = 1
					instant_build = yes
				}
			}
			if = {
				limit = {
					has_global_flag = CHI_hump_2
				}
				set_global_flag = CHI_hump_3 # Hump 3: Revenge of the Hump: The Humpening
			}
			if = {
				limit = {
					NOT = { has_global_flag = CHI_hump_2} # Hump 2: Hump Harder
				}
				set_global_flag = CHI_hump_2
			}
			601 = {
				CONTROLLER = {
					add_to_variable = { var = CHI_the_hump value = 1 }
					add_offsite_building = { type = arms_factory level = 1 }
				}
			}
		}
	}
}

political_actions = {

	CHI_join_united_front = {
		allowed = { is_chinese_nations/TAG = yes }
		available = {
			CHI = {
				is_in_faction_with = PRC
			}
			OR = {
				PRC = {
					is_faction_leader = yes
				}
				CHI = {
					is_faction_leader = yes
				}
			}
			NOT = {
				OR = {
					has_war_with = CHI
					has_war_with = PRC
				}
			}
			is_in_faction = no
			NOT = {
				has_completed_focus = CHI_opposition
			}
			NOT =  {
				original_tag = SIK
				has_civil_war = yes
			}
		}
		visible = {
			CHI = {
				is_in_faction_with = PRC
			}
			is_in_faction = no
		}
		cost = 25
		ai_will_do = {
			factor = 100
			modifier = {
				JAP = {
					OR = {
						has_war_with = CHI
						has_war_with = PRC
					}
				}
				factor = 10
			}
		}
		complete_effect = {
			If = {
				limit = {
					CHI = {
						is_faction_leader = yes
					}
				}
				CHI = {
					country_event = generic.2
				}
				add_ai_strategy = {
					type = alliance
					id = "CHI"
					value = 200
				}
			}
			else_if = {
				limit = {
					PRC = {
						is_faction_leader = yes
					}
				}
				PRC = {
					country_event = generic.2
				}
				add_ai_strategy = {
					type = alliance
					id = "PRC"
					value = 200
				}
			}
		}
	}
	CHI_move_the_capital = {
		allowed = {
			tag = CHI
		}
		available = {
			has_war = no
			OR = {
				has_full_control_of_state = 608
				has_full_control_of_state = 613
			}
		}
		visible = {
			has_war = no
			OR = {
				has_full_control_of_state = 608
				has_full_control_of_state = 613
			}
			capital_scope = {
				NOT = {
					OR = {
						state = 608
						state = 613
					}
				}
			}
		}
		fire_only_once = yes
		cost = 50
		ai_will_do = {
			factor = 1
		}
		complete_effect = {
			country_event = wtt_china.204
		}
	}
}

CHI_xian_incident = {
	CHI_instigate_xian_incident = {
		icon = generic_political_discourse
		available = {			
			NOT = {
				has_global_flag = CHI_xian_fired
			}
			JAP = {
				OR = {
					has_added_tension_amount > 1.5
					has_completed_focus = JAP_intervene_in_china
				}
			}
			CHI = {
				NOT = {
					is_in_faction_with = PRC
					has_war_with = JAP
					has_war_with = PRC
				}
			}
			PRC = {
				NOT = {
					has_war_with = JAP
					has_war_with = CHI
				}
				is_in_faction = no
			}
			NOT = {
				has_war_with = CHI
				has_war_with = PRC
			}
		}

		visible = {
			NOT = {
				has_global_flag = CHI_xian_fired
			}
			CHI = {
				NOT = {
					is_in_faction_with = PRC
					has_war_with = JAP
				}
			}
			PRC = {
				NOT = {
					has_war_with = JAP
				}
			}
			event_target:WTT_current_china_leader = { tag = CHI }
		}
		cost = 25
		fire_only_once = yes
		ai_will_do = {
			factor = 1
			modifier = {
				threat > 0.1
				factor = 2
			}
			modifier = {
				NOT = { 	
					JAP = {
						has_added_tension_amount > 1
					}
				}
				factor = 0
			}
			modifier = {
				JAP = {
					has_democratic_govt = no
				}
				factor = 0
			}
		}
		complete_effect = {
			set_country_flag = CHI_xian_instigator_flag
			set_global_flag = CHI_xian_fired
			CHI = {
				country_event = wtt_xian_incident.1
			}
		}
	}
}

operations = {
	
	CHI_overlordship_over_indochina = {
		icon = generic_operation
		allowed = { always = no } #already fired from focus
		available = {
			controls_state = 671
			controls_state = 750
			controls_state = 670
			controls_state = 286
			controls_state = 741
			controls_state = 833
		} 

		days_mission_timeout = 360

		fire_only_once = yes

		activation = {
			has_completed_focus = CHI_overlordship_over_indochina
		}
		
		complete_effect = {
			add_political_power = 50
			add_war_support = 0.05
			add_stability = 0.05
		}

		timeout_effect = {
			add_war_support = -0.1
		}
	}
	CHI_flood_dams = {

		icon = hol_inundate_water_lines

		allowed = {
			is_chinese_nations/TAG = yes
		}

		available = {
			has_war = yes
			607 = { is_fully_controlled_by = ROOT }
		}

		cost = 25

		fire_only_once = no

		days_remove = 7

		highlight_states = { 
			highlight_state_targets = { state = 607 }
		}

		highlight_states = { 
			highlight_provinces = {
				9958
				7656
				4066
				7126
				10079
				9937
				10040
				4079
				12036
				11916
				1161
				1121
				1076
				4123
				4005
			}
		}

		modifier = {
		}

		visible = {
			CHI = { has_completed_focus = CHI_dams }
			607 = { is_fully_controlled_by = ROOT }
			NOT = { has_global_flag = yellow_flooded }
		}

		remove_effect = {
			if = {
				limit = {
					607 = { is_controlled_by = ROOT }
				}
				607 = {
					add_province_modifier = {
						static_modifiers = { flooded }
						province = {
							id = 9958
							id = 7565
							id = 4066
							id = 7126
						}
					}
					damage_building = {
					    type = infrastructure
					    damage = 2
					}
					damage_building = {
					    type = industrial_complex
					    damage = 0.5
					}
					damage_building = {
					    type = arms_factory
					    damage = 0.5
					}
				}
				822 = {
					add_province_modifier = {
						static_modifiers = { flooded }
						province = {
							id = 10079
							id = 9937
							id = 10040
							id = 4079
							id = 12036
							id = 11916
							id = 1161
							id = 1121
						}
					}
					remove_building = {
						type = infrastructure
						level = 3
					}
					damage_building = {
					    type = infrastructure
					    damage = 3
					}
					damage_building = {
					    type = industrial_complex
					    damage = 1.5
					}
					damage_building = {
					    type = arms_factory
					    damage = 1.5
					}
				}
				823 = {
					add_province_modifier = {
						static_modifiers = { flooded }
						province = {
							id = 1076
						}
					}
					remove_building = {
						type = infrastructure
						level = 1
					}
					damage_building = {
					    type = infrastructure
					    damage = 2
					}
					damage_building = {
					    type = industrial_complex
					    damage = 1
					}
				}
				598 = {
					add_province_modifier = {
						static_modifiers = { flooded }
						province = {
							id = 4123
							id = 4005
						}
					}
					remove_building = {
						type = infrastructure
						level = 2
					}
					damage_building = {
					    type = infrastructure
					    damage = 1
					}
					damage_building = {
					    type = industrial_complex
					    damage = 1
					}
				}
			}
			set_global_flag = yellow_flooded
		}

		complete_effect = {
			add_stability = -0.1
			add_war_support = -0.05
		}

	}
}

prestigious_projects = {
	CHI_build_a_carrier = { 
		icon = generic_naval
		allowed = { always = no } #already fired from focus
		available = {
			has_navy_size = { archetype = nrm_ship_hull_carrier size > 0 }
		}

		days_mission_timeout = 720

		fire_only_once = yes
		is_good = no
		activation = {
			has_completed_focus = CHI_naval_aviation
		}
		
		complete_effect = {
			add_political_power = 100
			navy_experience = 30
			add_war_support = 0.05
		}

		timeout_effect = {
		
		}
	}
}
