
political_actions = {

	form_greater_german_reich = {

		icon = generic_form_nation

		allowed = {
			original_tag = GER
			has_dlc = "Waking the Tiger"
			#is_historical_focus_on = no
		}
		
		cosmetic_tag = GER
		cosmetic_ideology = fascism

		available = {
			is_subject = no
			date > 1943.1.1
			NOT = { surrender_progress > 0 }
		}

		visible = {
			has_government = fascism
			has_country_leader = { ruling_only = yes character = GER_adolf_hitler }
		
			NOT = { has_global_flag = form_greater_german_reich_flag }
			OR = {
				AND = {
					has_war_with = FRA
					FRA = { has_capitulated = yes }
				}
				AND = {
					owns_state = 16
					has_full_control_of_state = 16
				}
			}
		}

		complete_effect = {
			set_cosmetic_tag = GER_greater_german_reich
			#set_province_name = { id = 6521 name = "Germania" }
			hidden_effect = { #LOL
				set_global_flag = form_greater_german_reich_flag
			}
		}

		ai_will_do = {
			factor = 200
		}
	}
}