on_actions = {
	on_capitulation = {
		effect = {
			if = {
				limit = {
					ROOT = {
						original_tag = INS
						NOT = { has_government = fascism }
					}
					FROM = {
						original_tag = INS
						has_government = fascism
						controls_state = 334
						controls_state = 673
						controls_state = 669
						controls_state = 668
						controls_state = 738
						controls_state = 667
						controls_state = 672
						controls_state = 335
					}
				}
				AST = {
					country_event = { id = tfv_australia.41 }
				}
			}
			if = {
				limit = {
					ROOT = {
						original_tag = FRA
						has_government = conservatism
						has_government = socialism
						has_government = liberalism
					}
				}
				set_cosmetic_tag = FRA_FREE
			}
		}
		
	}

	#ROOT is subject FROM is previous overlord
	on_subject_free = {
		effect = {
			remove_ideas = subject_country
			country_event = blackiceevents.162 
			FROM = { country_event = blackiceevents.162 }
			if = {
				limit = {
					OR = {
						TAG = RAJ
						TAG = AST
						TAG = NZL
						TAG = CAN
						TAG = BHU
						TAG = EGY
						TAG = MAL
						TAG = BUR
						TAG = SAF
						TAG = BMP
						TAG = JOR
						TAG = OMA
						TAG = IRE						
					}
				}		
				remove_ideas = ENG_commonwealth_officers
				ENG = {
					#country_event = { id = britain.137 }
				}
			}
			if = {
				limit = { 
					NOT = { 
						AND = { 
							TAG = SAF 
							has_government = communism #communist SAF gets cosmetic tag to allow recruitment of black generals. If they go communist before breaking free, they would lose the cosmetic tag.
							} 
						} 
					} 
				drop_cosmetic_tag = yes
			}

			if = {
				limit = {
					TAG = INS
				}
				retire_country_leader = yes
			}
			if = {
				limit = {
					TAG = MAL
				}
				retire_country_leader = yes
			}

			if = {
				limit = {
					has_idea = RAJ_marginalized_muslim_community_happy
				}
				RAJ = {
					release = PAK
				}
			}

			if = {
				limit = {
					original_tag = RAJ
				}				
				remove_ideas = {
					RAJ_quit_india_movement
					RAJ_marginalized_muslim_community
					RAJ_marginalized_muslim_community_angry
					RAJ_marginalized_muslim_community_happy
					RAJ_princely_states
					RAJ_princely_states_donations
					RAJ_princely_states_donations_troops
				}
				drop_cosmetic_tag = yes
			}

		}
	}

	#ROOT is subject FROM is overlord
	on_subject_autonomy_level_change = {
		effect = {
			#Add to commonwealth tech group
			if = {
				limit = {
					OR = {
						has_autonomy_state = autonomy_colony
						has_autonomy_state = autonomy_dominion
					}
					OVERLORD = { is_in_tech_sharing_group = commonwealth_research }
				}
				add_to_tech_sharing_group = commonwealth_research				
			}

			if = {
				limit = {
					tag = RAJ
					has_autonomy_state = autonomy_dominion
				}				
				swap_ideas = {
					remove_idea = ENG_commonwealth_officers2
					add_idea = ENG_commonwealth_officers
				}
				set_politics = {
					ruling_party = conservatism
					elections_allowed = yes
				}
				add_popularity = {
					ideology = neutrality
					popularity = -1
				}
				ENG = {
					#country_event = { id = britain.137 }
				}
			}
		}
	}

	#ROOT is subject FROM is overlord
	on_subject_annexed = {
		effect = {
			
		}
	}

	#used when puppeting in a peace conference
	#ROOT = nation being puppeted, FROM = overlord
	on_puppet = {
		effect = {
			
			if = {
				limit = {
					has_dlc = "Death or Dishonor"
					tag = HUN
					FROM = {
						has_country_flag = HUN_ROM_puppet_war #Romania only
					}
				}
				ROM = { set_country_flag = ROM_HUN_aligned }
			}
			if = {
				limit = { 
					OR = {
						TAG = SOV
						TAG = GER
					}
					SOV = { has_idea = SOV_molotov_ribbentrop_pact }
				}
				SOV = { remove_ideas = SOV_molotov_ribbentrop_pact } #the pact is OFF if one of them is a puppet
			}
			if = {
				limit = { 
					tag = USA
					is_subject_of = ENG
				}
				set_cosmetic_tag = USA_UK
			}
			if = {
				limit = { 
					tag = USA
					is_subject_of = SAF
					SAF = { has_idea = SAF_king_edward }
				}
				set_cosmetic_tag = USA_SAF_EDW
			}
			if = {
				limit = { 
					tag = UKR
					is_subject_of = GER
				}
				set_cosmetic_tag = UKR_GER
			}
			if = {
				limit = { 
					tag = UKR
					is_subject_of = SOV
					SOV = { has_government = communism }
				}
				set_cosmetic_tag = UKR_SOV
			}
			if = {
				limit = {
					tag = CZE
					SLO = { exists = yes }
				}
				CZE = { set_cosmetic_tag = CZE_ONLY } #cosmetic tag for CZE if Slovakia exists
			}
			if = {
				limit = { 
					ROOT = { tag = CHI }
					FROM = { tag = JAP }
				}
				if = {
					limit = {
						has_country_flag = jap_china_occupation_setup
						country_exists = RGR
					}
					JAP = {
						#activate_decision = JAP_reorginized_china_instatement3
						annex_country = {
							target = CHI
						}
					}
				}
				else = {
					JAP = {
						activate_decision = JAP_reorginized_china_instatement2
						annex_country = {
							target = CHI
						}
					}
				}
			}
			if = {
				limit = { 
					ROOT = { tag = PRC }
					FROM = { tag = JAP }
				}
				if = {
					limit = {
						has_country_flag = jap_china_occupation_setup
						country_exists = RGR
					}
					JAP = {
						#activate_decision = JAP_reorginized_china_instatement3
						annex_country = {
							target = PRC
						}
					}
				}
				else = {
					JAP = {
						activate_decision = JAP_reorginized_china_instatement2
						#annex_country = { #dude
						#	target = CHI
						#}
					}
				}
			}
		}
	}

	#used when puppeting through the occupied territories menu during peace time (or when releasing from non-core but owned territory, f.e. Britain releasing Egypt)
	#ROOT = nation being released, FROM = overlord
	on_release_as_puppet = {
		effect = {
			reverse_add_opinion_modifier = {
				target = FROM
				modifier = subject_opinion
			}
			
			if = {
				limit = {
					has_dlc = "Death or Dishonor"
					tag = HUN
					FROM = {
						has_country_flag = HUN_ROM_puppet_war #Romania only
					}
				}
				ROM = { set_country_flag = ROM_HUN_aligned }
			}
			if = {
				limit = { 
					AND = { 
						TAG = USA
						is_subject_of = ENG
					}
				}
				set_cosmetic_tag = USA_UK
			}
			if = {
				limit = { 
					AND = { 
						TAG = UKR
						is_subject_of = GER
					}
				}
				set_cosmetic_tag = UKR_GER
			}
			if = {
				limit = { 
					AND = { 
						TAG = UKR
						is_subject_of = SOV
						SOV = { has_government = communism }
					}
				}
				set_cosmetic_tag = UKR_SOV
			}
			if = {
				limit = {
					AND = {
						TAG = CZE
						SLO = { exists = yes }
					}
				}
				CZE = { set_cosmetic_tag = CZE_ONLY } #cosmetic tag for CZE if Slovakia exists
			}
			if = {
				limit = { 
					ROOT = { tag = CHI }
					FROM = { tag = JAP }
				}
				if = {
					limit = { CHI = { is_subject_of = JAP } }
					if = {
						limit = {
							has_country_flag = jap_china_occupation_setup
							country_exists = RGR
						}
						JAP = {
							#activate_decision = JAP_reorginized_china_instatement3
							annex_country = {
								target = CHI
							}
						}
					}
					else = {
						JAP = {
							#activate_decision = JAP_reorginized_china_instatement2
							annex_country = {
								target = CHI
							}
						}
					}
				}
			}
			if = {
				limit = { 
					ROOT = { tag = PRC }
					FROM = { tag = JAP }
				}
				if = {
					limit = { PRC = { is_subject_of = JAP } }
					if = {
						limit = {
							has_country_flag = jap_china_occupation_setup
							country_exists = RGR
						}
						JAP = {
							#activate_decision = JAP_reorginized_china_instatement3
							annex_country = {
								target = PRC
							}
						}
					}
					else = {
						JAP = {
							activate_decision = JAP_reorginized_china_instatement2
							annex_country = {
								target = PRC
							}
						}
					}
				}
			}
		}
	}

	#ROOT is free nation FROM is releaser
	on_release_as_free = {
		effect = {
			if = {
				limit = {
					AND = {
						TAG = CZE
						SLO = { exists = yes }
					}
				}
				CZE = { set_cosmetic_tag = CZE_ONLY } #cosmetic tag for CZE if Slovakia exists
			}
		}
	}

}