
POR_ignore_africa = {
	allowed = {
		tag = POR
	}
	
	enable = { has_war = no }
	abort_when_not_enabled = yes
	
	ai_strategy = {
		type = front_unit_request
		area = africa
		value = -100
	}
}
DEN_dont_even_bother = {
	allowed = {
		tag = DEN
	}
	
	enable = {
		is_in_faction = no
	}
	
	abort = {
		OR = {
			is_in_faction = yes
			AND = {
				has_war = yes
				date > 1941.1.1
			}
		}
	}
	
	ai_strategy = {
		type = alliance
		id = ENG
		value = -5000
	}
}

ai_default_strategy = {
	enable = { always = yes }
	abort = { always = no }
	
	ai_strategy = { type = equipment_variant_production_factor id = ai_debug_equipment value = -99 }
	
######################################### Area Priority
	ai_strategy = { type = area_priority id = europe 			value = 1 }
	ai_strategy = { type = area_priority id = asia 				value = 1 }
	ai_strategy = { type = area_priority id = middle_east 		value = 1 }
	ai_strategy = { type = area_priority id = africa 			value = 1 }
	ai_strategy = { type = area_priority id = north_america 	value = 1 }
	ai_strategy = { type = area_priority id = south_america 	value = 1 }
	
######################################### FRONT REQUESTS
 
	ai_strategy = { #New Guinea
		type = front_unit_request
		strategic_region = 167
		value = -50
	}
######################################### PP usage
 
	ai_strategy = {
		type = pp_spend_amount
		id = idea
		value = 100
	}
	ai_strategy = {
		type = pp_spend_amount
		id = decision
		value = 100
	}
	
	ai_strategy = {
		type = pp_spend_priority
		id = general
		value = -9999
	}
	ai_strategy = {
		type = pp_spend_priority
		id = admiral
		value = -9999
	}
	ai_strategy = {
		type = pp_spend_priority
		id = relation
		value = -99999
	}
	ai_strategy = {
		type = pp_spend_priority
		id = guarantee
		value = -99999
	}
	
######################################### Garrison Priority

	ai_strategy = {
		type = garrison_reinforcement_priority
		value = 100 # positive is high prio, negative is low prio
	}
	
######################################### Base Lend Lease Desire

	ai_strategy = { type = send_lend_lease_desire id = "GER" value = -2000 }
	ai_strategy = { type = send_lend_lease_desire id = "ENG" value = -2000 }
	ai_strategy = { type = send_lend_lease_desire id = "SOV" value = -2000 }
	ai_strategy = { type = send_lend_lease_desire id = "SWE" value = -2000 }
	ai_strategy = { type = send_lend_lease_desire id = "FRA" value = -2000 }
	ai_strategy = { type = send_lend_lease_desire id = "LUX" value = -2000 }
	ai_strategy = { type = send_lend_lease_desire id = "BEL" value = -2000 }
	ai_strategy = { type = send_lend_lease_desire id = "HOL" value = -2000 }
	ai_strategy = { type = send_lend_lease_desire id = "CZE" value = -2000 }
	ai_strategy = { type = send_lend_lease_desire id = "POL" value = -2000 }
	ai_strategy = { type = send_lend_lease_desire id = "AUS" value = -2000 }
	ai_strategy = { type = send_lend_lease_desire id = "LIT" value = -2000 }
	ai_strategy = { type = send_lend_lease_desire id = "EST" value = -2000 }
	ai_strategy = { type = send_lend_lease_desire id = "LAT" value = -2000 }
	ai_strategy = { type = send_lend_lease_desire id = "SPR" value = -2000 }
	ai_strategy = { type = send_lend_lease_desire id = "ITA" value = -2000 }
	ai_strategy = { type = send_lend_lease_desire id = "ROM" value = -2000 }
	ai_strategy = { type = send_lend_lease_desire id = "YUG" value = -2000 }
	ai_strategy = { type = send_lend_lease_desire id = "SER" value = -2000 }
	ai_strategy = { type = send_lend_lease_desire id = "SWI" value = -2000 }
	ai_strategy = { type = send_lend_lease_desire id = "TUR" value = -2000 }
	ai_strategy = { type = send_lend_lease_desire id = "GRE" value = -2000 }
	ai_strategy = { type = send_lend_lease_desire id = "ALB" value = -2000 }
	ai_strategy = { type = send_lend_lease_desire id = "NOR" value = -2000 }
	ai_strategy = { type = send_lend_lease_desire id = "DEN" value = -2000 }
	ai_strategy = { type = send_lend_lease_desire id = "BUL" value = -2000 }
	ai_strategy = { type = send_lend_lease_desire id = "POR" value = -2000 }
	ai_strategy = { type = send_lend_lease_desire id = "FIN" value = -2000 }
	ai_strategy = { type = send_lend_lease_desire id = "IRE" value = -2000 }
	ai_strategy = { type = send_lend_lease_desire id = "HUN" value = -2000 }
	ai_strategy = { type = send_lend_lease_desire id = "AFG" value = -2000 }
	ai_strategy = { type = send_lend_lease_desire id = "ARG" value = -2000 }
	ai_strategy = { type = send_lend_lease_desire id = "AST" value = -2000 }
	ai_strategy = { type = send_lend_lease_desire id = "BHU" value = -2000 }
	ai_strategy = { type = send_lend_lease_desire id = "BOL" value = -2000 }
	ai_strategy = { type = send_lend_lease_desire id = "BRA" value = -2000 }
	ai_strategy = { type = send_lend_lease_desire id = "CAN" value = -2000 }
	ai_strategy = { type = send_lend_lease_desire id = "CHI" value = -2000 }
	ai_strategy = { type = send_lend_lease_desire id = "CHL" value = -2000 }
	ai_strategy = { type = send_lend_lease_desire id = "COL" value = -2000 }
	ai_strategy = { type = send_lend_lease_desire id = "COS" value = -2000 }
	ai_strategy = { type = send_lend_lease_desire id = "ECU" value = -2000 }
	ai_strategy = { type = send_lend_lease_desire id = "ELS" value = -2000 }
	ai_strategy = { type = send_lend_lease_desire id = "ETH" value = -2000 }
	ai_strategy = { type = send_lend_lease_desire id = "GUA" value = -2000 }
	ai_strategy = { type = send_lend_lease_desire id = "HON" value = -2000 }
	ai_strategy = { type = send_lend_lease_desire id = "IRQ" value = -2000 }
	ai_strategy = { type = send_lend_lease_desire id = "JAP" value = -2000 }
	ai_strategy = { type = send_lend_lease_desire id = "KOR" value = -2000 }
	ai_strategy = { type = send_lend_lease_desire id = "LIB" value = -2000 }
	ai_strategy = { type = send_lend_lease_desire id = "MEX" value = -2000 }
	ai_strategy = { type = send_lend_lease_desire id = "MEN" value = -2000 }
	ai_strategy = { type = send_lend_lease_desire id = "NEP" value = -2000 }
	ai_strategy = { type = send_lend_lease_desire id = "NIC" value = -2000 }
	ai_strategy = { type = send_lend_lease_desire id = "NZL" value = -2000 }
	ai_strategy = { type = send_lend_lease_desire id = "PAN" value = -2000 }
	ai_strategy = { type = send_lend_lease_desire id = "PER" value = -2000 }
	ai_strategy = { type = send_lend_lease_desire id = "PHI" value = -2000 }
	ai_strategy = { type = send_lend_lease_desire id = "PRU" value = -2000 }
	ai_strategy = { type = send_lend_lease_desire id = "SAF" value = -2000 }
	ai_strategy = { type = send_lend_lease_desire id = "SAU" value = -2000 }
	ai_strategy = { type = send_lend_lease_desire id = "SIA" value = -2000 }
	ai_strategy = { type = send_lend_lease_desire id = "SIK" value = -2000 }
	ai_strategy = { type = send_lend_lease_desire id = "TIB" value = -2000 }
	ai_strategy = { type = send_lend_lease_desire id = "URG" value = -2000 }
	ai_strategy = { type = send_lend_lease_desire id = "VEN" value = -2000 }
	ai_strategy = { type = send_lend_lease_desire id = "YUN" value = -2000 }
	ai_strategy = { type = send_lend_lease_desire id = "USA" value = -2000 }
	ai_strategy = { type = send_lend_lease_desire id = "MON" value = -2000 }
	ai_strategy = { type = send_lend_lease_desire id = "TAN" value = -2000 }
	ai_strategy = { type = send_lend_lease_desire id = "PAR" value = -2000 }
	ai_strategy = { type = send_lend_lease_desire id = "CUB" value = -2000 }
	ai_strategy = { type = send_lend_lease_desire id = "DOM" value = -2000 }
	ai_strategy = { type = send_lend_lease_desire id = "HAI" value = -2000 }
	ai_strategy = { type = send_lend_lease_desire id = "YEM" value = -2000 }
	ai_strategy = { type = send_lend_lease_desire id = "OMA" value = -2000 }
	ai_strategy = { type = send_lend_lease_desire id = "SLO" value = -2000 }
	ai_strategy = { type = send_lend_lease_desire id = "RAJ" value = -2000 }
	ai_strategy = { type = send_lend_lease_desire id = "CRO" value = -2000 }
	ai_strategy = { type = send_lend_lease_desire id = "GXC" value = -2000 }
	ai_strategy = { type = send_lend_lease_desire id = "PRC" value = -2000 }
	ai_strategy = { type = send_lend_lease_desire id = "SHX" value = -2000 }
	ai_strategy = { type = send_lend_lease_desire id = "XSM" value = -2000 }
	ai_strategy = { type = send_lend_lease_desire id = "ICE" value = -2000 }
	ai_strategy = { type = send_lend_lease_desire id = "LEB" value = -2000 }
	ai_strategy = { type = send_lend_lease_desire id = "JOR" value = -2000 }
	ai_strategy = { type = send_lend_lease_desire id = "SYR" value = -2000 }
	ai_strategy = { type = send_lend_lease_desire id = "EGY" value = -2000 }
	ai_strategy = { type = send_lend_lease_desire id = "PAL" value = -2000 }
	ai_strategy = { type = send_lend_lease_desire id = "ISR" value = -2000 }
	ai_strategy = { type = send_lend_lease_desire id = "MAL" value = -2000 }
	ai_strategy = { type = send_lend_lease_desire id = "INS" value = -2000 }
	ai_strategy = { type = send_lend_lease_desire id = "PAK" value = -2000 }
	ai_strategy = { type = send_lend_lease_desire id = "MAN" value = -2000 }
	ai_strategy = { type = send_lend_lease_desire id = "BMP" value = -2000 }
	ai_strategy = { type = send_lend_lease_desire id = "UKR" value = -2000 }
	ai_strategy = { type = send_lend_lease_desire id = "TUN" value = -2000 }
	ai_strategy = { type = send_lend_lease_desire id = "BUR" value = -2000 }
	ai_strategy = { type = send_lend_lease_desire id = "MAR" value = -2000 }
	ai_strategy = { type = send_lend_lease_desire id = "MOR" value = -2000 }
	ai_strategy = { type = send_lend_lease_desire id = "FRI" value = -2000 }
	ai_strategy = { type = send_lend_lease_desire id = "VIC" value = -2000 }
	ai_strategy = { type = send_lend_lease_desire id = "HAT" value = -2000 }
	ai_strategy = { type = send_lend_lease_desire id = "PGR" value = -2000 }
	ai_strategy = { type = send_lend_lease_desire id = "EHA" value = -2000 }
	ai_strategy = { type = send_lend_lease_desire id = "RGR" value = -2000 }
	ai_strategy = { type = send_lend_lease_desire id = "YUT" value = -2000 }
	ai_strategy = { type = send_lend_lease_desire id = "XIA" value = -2000 }
	ai_strategy = { type = send_lend_lease_desire id = "SCC" value = -2000 }
	ai_strategy = { type = send_lend_lease_desire id = "ZXL" value = -2000 }
	ai_strategy = { type = send_lend_lease_desire id = "SDC" value = -2000 }
	ai_strategy = { type = send_lend_lease_desire id = "ECR" value = -2000 }
	ai_strategy = { type = send_lend_lease_desire id = "VIX" value = -2000 }
	ai_strategy = { type = send_lend_lease_desire id = "SKC" value = -2000 }
	ai_strategy = { type = send_lend_lease_desire id = "D01" value = -2000 }
	ai_strategy = { type = send_lend_lease_desire id = "D02" value = -2000 }
	ai_strategy = { type = send_lend_lease_desire id = "D03" value = -2000 }
	ai_strategy = { type = send_lend_lease_desire id = "D04" value = -2000 }
	ai_strategy = { type = send_lend_lease_desire id = "D05" value = -2000 }
	ai_strategy = { type = send_lend_lease_desire id = "D06" value = -2000 }
	ai_strategy = { type = send_lend_lease_desire id = "D07" value = -2000 }
	
######################################### Base Volunteer Desire

	ai_strategy = { type = send_volunteers_desire id = "GER" value = -2000 }
	ai_strategy = { type = send_volunteers_desire id = "ENG" value = -2000 }
	ai_strategy = { type = send_volunteers_desire id = "SOV" value = -2000 }
	ai_strategy = { type = send_volunteers_desire id = "SWE" value = -2000 }
	ai_strategy = { type = send_volunteers_desire id = "FRA" value = -2000 }
	ai_strategy = { type = send_volunteers_desire id = "LUX" value = -2000 }
	ai_strategy = { type = send_volunteers_desire id = "BEL" value = -2000 }
	ai_strategy = { type = send_volunteers_desire id = "HOL" value = -2000 }
	ai_strategy = { type = send_volunteers_desire id = "CZE" value = -2000 }
	ai_strategy = { type = send_volunteers_desire id = "POL" value = -2000 }
	ai_strategy = { type = send_volunteers_desire id = "AUS" value = -2000 }
	ai_strategy = { type = send_volunteers_desire id = "LIT" value = -2000 }
	ai_strategy = { type = send_volunteers_desire id = "EST" value = -2000 }
	ai_strategy = { type = send_volunteers_desire id = "LAT" value = -2000 }
	ai_strategy = { type = send_volunteers_desire id = "SPR" value = -2000 }
	ai_strategy = { type = send_volunteers_desire id = "ITA" value = -2000 }
	ai_strategy = { type = send_volunteers_desire id = "ROM" value = -2000 }
	ai_strategy = { type = send_volunteers_desire id = "YUG" value = -2000 }
	ai_strategy = { type = send_volunteers_desire id = "SER" value = -2000 }
	ai_strategy = { type = send_volunteers_desire id = "SWI" value = -2000 }
	ai_strategy = { type = send_volunteers_desire id = "TUR" value = -2000 }
	ai_strategy = { type = send_volunteers_desire id = "GRE" value = -2000 }
	ai_strategy = { type = send_volunteers_desire id = "ALB" value = -2000 }
	ai_strategy = { type = send_volunteers_desire id = "NOR" value = -2000 }
	ai_strategy = { type = send_volunteers_desire id = "DEN" value = -2000 }
	ai_strategy = { type = send_volunteers_desire id = "BUL" value = -2000 }
	ai_strategy = { type = send_volunteers_desire id = "POR" value = -2000 }
	ai_strategy = { type = send_volunteers_desire id = "FIN" value = -2000 }
	ai_strategy = { type = send_volunteers_desire id = "IRE" value = -2000 }
	ai_strategy = { type = send_volunteers_desire id = "HUN" value = -2000 }
	ai_strategy = { type = send_volunteers_desire id = "AFG" value = -2000 }
	ai_strategy = { type = send_volunteers_desire id = "ARG" value = -2000 }
	ai_strategy = { type = send_volunteers_desire id = "AST" value = -2000 }
	ai_strategy = { type = send_volunteers_desire id = "BHU" value = -2000 }
	ai_strategy = { type = send_volunteers_desire id = "BOL" value = -2000 }
	ai_strategy = { type = send_volunteers_desire id = "BRA" value = -2000 }
	ai_strategy = { type = send_volunteers_desire id = "CAN" value = -2000 }
	ai_strategy = { type = send_volunteers_desire id = "CHI" value = -2000 }
	ai_strategy = { type = send_volunteers_desire id = "CHL" value = -2000 }
	ai_strategy = { type = send_volunteers_desire id = "COL" value = -2000 }
	ai_strategy = { type = send_volunteers_desire id = "COS" value = -2000 }
	ai_strategy = { type = send_volunteers_desire id = "ECU" value = -2000 }
	ai_strategy = { type = send_volunteers_desire id = "ELS" value = -2000 }
	ai_strategy = { type = send_volunteers_desire id = "ETH" value = -2000 }
	ai_strategy = { type = send_volunteers_desire id = "GUA" value = -2000 }
	ai_strategy = { type = send_volunteers_desire id = "HON" value = -2000 }
	ai_strategy = { type = send_volunteers_desire id = "IRQ" value = -2000 }
	ai_strategy = { type = send_volunteers_desire id = "JAP" value = -2000 }
	ai_strategy = { type = send_volunteers_desire id = "KOR" value = -2000 }
	ai_strategy = { type = send_volunteers_desire id = "LIB" value = -2000 }
	ai_strategy = { type = send_volunteers_desire id = "MEX" value = -2000 }
	ai_strategy = { type = send_volunteers_desire id = "MEN" value = -2000 }
	ai_strategy = { type = send_volunteers_desire id = "NEP" value = -2000 }
	ai_strategy = { type = send_volunteers_desire id = "NIC" value = -2000 }
	ai_strategy = { type = send_volunteers_desire id = "NZL" value = -2000 }
	ai_strategy = { type = send_volunteers_desire id = "PAN" value = -2000 }
	ai_strategy = { type = send_volunteers_desire id = "PER" value = -2000 }
	ai_strategy = { type = send_volunteers_desire id = "PHI" value = -2000 }
	ai_strategy = { type = send_volunteers_desire id = "PRU" value = -2000 }
	ai_strategy = { type = send_volunteers_desire id = "SAF" value = -2000 }
	ai_strategy = { type = send_volunteers_desire id = "SAU" value = -2000 }
	ai_strategy = { type = send_volunteers_desire id = "SIA" value = -2000 }
	ai_strategy = { type = send_volunteers_desire id = "SIK" value = -2000 }
	ai_strategy = { type = send_volunteers_desire id = "TIB" value = -2000 }
	ai_strategy = { type = send_volunteers_desire id = "URG" value = -2000 }
	ai_strategy = { type = send_volunteers_desire id = "VEN" value = -2000 }
	ai_strategy = { type = send_volunteers_desire id = "YUN" value = -2000 }
	ai_strategy = { type = send_volunteers_desire id = "USA" value = -2000 }
	ai_strategy = { type = send_volunteers_desire id = "MON" value = -2000 }
	ai_strategy = { type = send_volunteers_desire id = "TAN" value = -2000 }
	ai_strategy = { type = send_volunteers_desire id = "PAR" value = -2000 }
	ai_strategy = { type = send_volunteers_desire id = "CUB" value = -2000 }
	ai_strategy = { type = send_volunteers_desire id = "DOM" value = -2000 }
	ai_strategy = { type = send_volunteers_desire id = "HAI" value = -2000 }
	ai_strategy = { type = send_volunteers_desire id = "YEM" value = -2000 }
	ai_strategy = { type = send_volunteers_desire id = "OMA" value = -2000 }
	ai_strategy = { type = send_volunteers_desire id = "SLO" value = -2000 }
	ai_strategy = { type = send_volunteers_desire id = "RAJ" value = -2000 }
	ai_strategy = { type = send_volunteers_desire id = "CRO" value = -2000 }
	ai_strategy = { type = send_volunteers_desire id = "GXC" value = -2000 }
	ai_strategy = { type = send_volunteers_desire id = "PRC" value = -2000 }
	ai_strategy = { type = send_volunteers_desire id = "SHX" value = -2000 }
	ai_strategy = { type = send_volunteers_desire id = "XSM" value = -2000 }
	ai_strategy = { type = send_volunteers_desire id = "ICE" value = -2000 }
	ai_strategy = { type = send_volunteers_desire id = "LEB" value = -2000 }
	ai_strategy = { type = send_volunteers_desire id = "JOR" value = -2000 }
	ai_strategy = { type = send_volunteers_desire id = "SYR" value = -2000 }
	ai_strategy = { type = send_volunteers_desire id = "EGY" value = -2000 }
	ai_strategy = { type = send_volunteers_desire id = "PAL" value = -2000 }
	ai_strategy = { type = send_volunteers_desire id = "ISR" value = -2000 }
	ai_strategy = { type = send_volunteers_desire id = "MAL" value = -2000 }
	ai_strategy = { type = send_volunteers_desire id = "INS" value = -2000 }
	ai_strategy = { type = send_volunteers_desire id = "PAK" value = -2000 }
	ai_strategy = { type = send_volunteers_desire id = "MAN" value = -2000 }
	ai_strategy = { type = send_volunteers_desire id = "UKR" value = -2000 }
	ai_strategy = { type = send_volunteers_desire id = "TUN" value = -2000 }
	ai_strategy = { type = send_volunteers_desire id = "BUR" value = -2000 }
	ai_strategy = { type = send_volunteers_desire id = "MAR" value = -2000 }
	ai_strategy = { type = send_volunteers_desire id = "MOR" value = -2000 }
	ai_strategy = { type = send_volunteers_desire id = "FRI" value = -2000 }
	ai_strategy = { type = send_volunteers_desire id = "VIC" value = -2000 }
	ai_strategy = { type = send_volunteers_desire id = "HAT" value = -2000 }
	ai_strategy = { type = send_volunteers_desire id = "BMP" value = -2000 }
	ai_strategy = { type = send_volunteers_desire id = "PGR" value = -2000 }
	ai_strategy = { type = send_volunteers_desire id = "EHA" value = -2000 }
	ai_strategy = { type = send_volunteers_desire id = "RGR" value = -2000 }
	ai_strategy = { type = send_volunteers_desire id = "YUT" value = -2000 }
	ai_strategy = { type = send_volunteers_desire id = "XIA" value = -2000 }
	ai_strategy = { type = send_volunteers_desire id = "SCC" value = -2000 }
	ai_strategy = { type = send_volunteers_desire id = "ZXL" value = -2000 }
	ai_strategy = { type = send_volunteers_desire id = "SDC" value = -2000 }
	ai_strategy = { type = send_volunteers_desire id = "ECR" value = -2000 }
	ai_strategy = { type = send_volunteers_desire id = "SKC" value = -2000 }
	ai_strategy = { type = send_volunteers_desire id = "VIX" value = -2000 }
	ai_strategy = { type = send_volunteers_desire id = "D01" value = -2000 }
	ai_strategy = { type = send_volunteers_desire id = "D02" value = -2000 }
	ai_strategy = { type = send_volunteers_desire id = "D03" value = -2000 }
	ai_strategy = { type = send_volunteers_desire id = "D04" value = -2000 }
	ai_strategy = { type = send_volunteers_desire id = "D05" value = -2000 }
	ai_strategy = { type = send_volunteers_desire id = "D06" value = -2000 }
	ai_strategy = { type = send_volunteers_desire id = "D07" value = -2000 }
	
######################################### Base Invasion Desire
	
	ai_strategy = { type = invade id = "GER" value = -2000 }
	ai_strategy = { type = invade id = "ENG" value = -2000 }
	ai_strategy = { type = invade id = "SOV" value = -2000 }
	ai_strategy = { type = invade id = "SWE" value = -2000 }
	ai_strategy = { type = invade id = "FRA" value = -2000 }
	ai_strategy = { type = invade id = "LUX" value = -2000 }
	ai_strategy = { type = invade id = "BEL" value = -2000 }
	ai_strategy = { type = invade id = "HOL" value = -2000 }
	ai_strategy = { type = invade id = "CZE" value = -2000 }
	ai_strategy = { type = invade id = "POL" value = -2000 }
	ai_strategy = { type = invade id = "AUS" value = -2000 }
	ai_strategy = { type = invade id = "LIT" value = -2000 }
	ai_strategy = { type = invade id = "EST" value = -2000 }
	ai_strategy = { type = invade id = "LAT" value = -2000 }
	ai_strategy = { type = invade id = "SPR" value = -2000 }
	ai_strategy = { type = invade id = "ITA" value = -2000 }
	ai_strategy = { type = invade id = "ROM" value = -2000 }
	ai_strategy = { type = invade id = "YUG" value = -2000 }
	ai_strategy = { type = invade id = "SER" value = -2000 }
	ai_strategy = { type = invade id = "SWI" value = -2000 }
	ai_strategy = { type = invade id = "TUR" value = -2000 }
	ai_strategy = { type = invade id = "GRE" value = -2000 }
	ai_strategy = { type = invade id = "ALB" value = -2000 }
	ai_strategy = { type = invade id = "NOR" value = -2000 }
	ai_strategy = { type = invade id = "DEN" value = -2000 }
	ai_strategy = { type = invade id = "BUL" value = -2000 }
	ai_strategy = { type = invade id = "POR" value = -2000 }
	ai_strategy = { type = invade id = "FIN" value = -2000 }
	ai_strategy = { type = invade id = "IRE" value = -2000 }
	ai_strategy = { type = invade id = "HUN" value = -2000 }
	ai_strategy = { type = invade id = "AFG" value = -2000 }
	ai_strategy = { type = invade id = "ARG" value = -2000 }
	ai_strategy = { type = invade id = "AST" value = -2000 }
	ai_strategy = { type = invade id = "BHU" value = -2000 }
	ai_strategy = { type = invade id = "BOL" value = -2000 }
	ai_strategy = { type = invade id = "BRA" value = -2000 }
	ai_strategy = { type = invade id = "CAN" value = -2000 }
	ai_strategy = { type = invade id = "CHI" value = -2000 }
	ai_strategy = { type = invade id = "CHL" value = -2000 }
	ai_strategy = { type = invade id = "COL" value = -2000 }
	ai_strategy = { type = invade id = "COS" value = -2000 }
	ai_strategy = { type = invade id = "ECU" value = -2000 }
	ai_strategy = { type = invade id = "ELS" value = -2000 }
	ai_strategy = { type = invade id = "ETH" value = -2000 }
	ai_strategy = { type = invade id = "GUA" value = -2000 }
	ai_strategy = { type = invade id = "HON" value = -2000 }
	ai_strategy = { type = invade id = "IRQ" value = -2000 }
	ai_strategy = { type = invade id = "JAP" value = -2000 }
	ai_strategy = { type = invade id = "KOR" value = -2000 }
	ai_strategy = { type = invade id = "LIB" value = -2000 }
	ai_strategy = { type = invade id = "MEX" value = -2000 }
	ai_strategy = { type = invade id = "MEN" value = -2000 }
	ai_strategy = { type = invade id = "NEP" value = -2000 }
	ai_strategy = { type = invade id = "NIC" value = -2000 }
	ai_strategy = { type = invade id = "NZL" value = -2000 }
	ai_strategy = { type = invade id = "PAN" value = -2000 }
	ai_strategy = { type = invade id = "PER" value = -2000 }
	ai_strategy = { type = invade id = "PHI" value = -2000 }
	ai_strategy = { type = invade id = "PRU" value = -2000 }
	ai_strategy = { type = invade id = "SAF" value = -2000 }
	ai_strategy = { type = invade id = "SAU" value = -2000 }
	ai_strategy = { type = invade id = "SIA" value = -2000 }
	ai_strategy = { type = invade id = "SIK" value = -2000 }
	ai_strategy = { type = invade id = "TIB" value = -2000 }
	ai_strategy = { type = invade id = "URG" value = -2000 }
	ai_strategy = { type = invade id = "VEN" value = -2000 }
	ai_strategy = { type = invade id = "YUN" value = -2000 }
	ai_strategy = { type = invade id = "USA" value = -2000 }
	ai_strategy = { type = invade id = "MON" value = -2000 }
	ai_strategy = { type = invade id = "TAN" value = -2000 }
	ai_strategy = { type = invade id = "PAR" value = -2000 }
	ai_strategy = { type = invade id = "CUB" value = -2000 }
	ai_strategy = { type = invade id = "DOM" value = -2000 }
	ai_strategy = { type = invade id = "HAI" value = -2000 }
	ai_strategy = { type = invade id = "YEM" value = -2000 }
	ai_strategy = { type = invade id = "OMA" value = -2000 }
	ai_strategy = { type = invade id = "SLO" value = -2000 }
	ai_strategy = { type = invade id = "RAJ" value = -2000 }
	ai_strategy = { type = invade id = "CRO" value = -2000 }
	ai_strategy = { type = invade id = "GXC" value = -2000 }
	ai_strategy = { type = invade id = "PRC" value = -2000 }
	ai_strategy = { type = invade id = "SHX" value = -2000 }
	ai_strategy = { type = invade id = "XSM" value = -2000 }
	ai_strategy = { type = invade id = "ICE" value = -2000 }
	ai_strategy = { type = invade id = "LEB" value = -2000 }
	ai_strategy = { type = invade id = "JOR" value = -2000 }
	ai_strategy = { type = invade id = "SYR" value = -2000 }
	ai_strategy = { type = invade id = "EGY" value = -2000 }
	ai_strategy = { type = invade id = "PAL" value = -2000 }
	ai_strategy = { type = invade id = "ISR" value = -2000 }
	ai_strategy = { type = invade id = "MAL" value = -2000 }
	ai_strategy = { type = invade id = "INS" value = -2000 }
	ai_strategy = { type = invade id = "PAK" value = -2000 }
	ai_strategy = { type = invade id = "MAN" value = -2000 }
	ai_strategy = { type = invade id = "UKR" value = -2000 }
	ai_strategy = { type = invade id = "TUN" value = -2000 }
	ai_strategy = { type = invade id = "BUR" value = -2000 }
	ai_strategy = { type = invade id = "MAR" value = -2000 }
	ai_strategy = { type = invade id = "MOR" value = -2000 }
	ai_strategy = { type = invade id = "FRI" value = -2000 }
	ai_strategy = { type = invade id = "VIC" value = -2000 }
	ai_strategy = { type = invade id = "HAT" value = -2000 }
	ai_strategy = { type = invade id = "BMP" value = -2000 }
	ai_strategy = { type = invade id = "PGR" value = -2000 }
	ai_strategy = { type = invade id = "EHA" value = -2000 }
	ai_strategy = { type = invade id = "RGR" value = -2000 }
	ai_strategy = { type = invade id = "YUT" value = -2000 }
	ai_strategy = { type = invade id = "XIA" value = -2000 }
	ai_strategy = { type = invade id = "SCC" value = -2000 }
	ai_strategy = { type = invade id = "ZXL" value = -2000 }
	ai_strategy = { type = invade id = "SDC" value = -2000 }
	ai_strategy = { type = invade id = "ECR" value = -2000 }
	ai_strategy = { type = invade id = "VIX" value = -2000 }
	ai_strategy = { type = invade id = "SKC" value = -2000 }
	ai_strategy = { type = invade id = "D01" value = -2000 }
	ai_strategy = { type = invade id = "D02" value = -2000 }
	ai_strategy = { type = invade id = "D03" value = -2000 }
	ai_strategy = { type = invade id = "D04" value = -2000 }
	ai_strategy = { type = invade id = "D05" value = -2000 }
	ai_strategy = { type = invade id = "D06" value = -2000 }
	ai_strategy = { type = invade id = "D07" value = -2000 }
	
}

ai_dont_defend_default = {
	
	enable = { 
		NOT = { 
			has_country_flag = { 
				flag = ai_use_area_defense 
				value = 1 
			} 
		}
	}
	
	abort_when_not_enabled = yes
######################################### Base Dont Defend Ally Border

	ai_strategy = { type = dont_defend_ally_borders id = "GER" value = 2000 }
	ai_strategy = { type = dont_defend_ally_borders id = "ENG" value = 2000 }
	ai_strategy = { type = dont_defend_ally_borders id = "SOV" value = 2000 }
	ai_strategy = { type = dont_defend_ally_borders id = "SWE" value = 2000 }
	ai_strategy = { type = dont_defend_ally_borders id = "FRA" value = 2000 }
	ai_strategy = { type = dont_defend_ally_borders id = "LUX" value = 2000 }
	ai_strategy = { type = dont_defend_ally_borders id = "BEL" value = 2000 }
	ai_strategy = { type = dont_defend_ally_borders id = "HOL" value = 2000 }
	ai_strategy = { type = dont_defend_ally_borders id = "CZE" value = 2000 }
	ai_strategy = { type = dont_defend_ally_borders id = "POL" value = 2000 }
	ai_strategy = { type = dont_defend_ally_borders id = "AUS" value = 2000 }
	ai_strategy = { type = dont_defend_ally_borders id = "LIT" value = 2000 }
	ai_strategy = { type = dont_defend_ally_borders id = "EST" value = 2000 }
	ai_strategy = { type = dont_defend_ally_borders id = "LAT" value = 2000 }
	ai_strategy = { type = dont_defend_ally_borders id = "SPR" value = 2000 }
	ai_strategy = { type = dont_defend_ally_borders id = "ITA" value = 2000 }
	ai_strategy = { type = dont_defend_ally_borders id = "ROM" value = 2000 }
	ai_strategy = { type = dont_defend_ally_borders id = "YUG" value = 2000 }
	ai_strategy = { type = dont_defend_ally_borders id = "SER" value = 2000 }
	ai_strategy = { type = dont_defend_ally_borders id = "SWI" value = 2000 }
	ai_strategy = { type = dont_defend_ally_borders id = "TUR" value = 2000 }
	ai_strategy = { type = dont_defend_ally_borders id = "GRE" value = 2000 }
	ai_strategy = { type = dont_defend_ally_borders id = "ALB" value = 2000 }
	ai_strategy = { type = dont_defend_ally_borders id = "NOR" value = 2000 }
	ai_strategy = { type = dont_defend_ally_borders id = "DEN" value = 2000 }
	ai_strategy = { type = dont_defend_ally_borders id = "BUL" value = 2000 }
	ai_strategy = { type = dont_defend_ally_borders id = "POR" value = 2000 }
	ai_strategy = { type = dont_defend_ally_borders id = "FIN" value = 2000 }
	ai_strategy = { type = dont_defend_ally_borders id = "IRE" value = 2000 }
	ai_strategy = { type = dont_defend_ally_borders id = "HUN" value = 2000 }
	ai_strategy = { type = dont_defend_ally_borders id = "AFG" value = 2000 }
	ai_strategy = { type = dont_defend_ally_borders id = "ARG" value = 2000 }
	ai_strategy = { type = dont_defend_ally_borders id = "AST" value = 2000 }
	ai_strategy = { type = dont_defend_ally_borders id = "BHU" value = 2000 }
	ai_strategy = { type = dont_defend_ally_borders id = "BOL" value = 2000 }
	ai_strategy = { type = dont_defend_ally_borders id = "BRA" value = 2000 }
	ai_strategy = { type = dont_defend_ally_borders id = "CAN" value = 2000 }
	ai_strategy = { type = dont_defend_ally_borders id = "CHI" value = 2000 }
	ai_strategy = { type = dont_defend_ally_borders id = "CHL" value = 2000 }
	ai_strategy = { type = dont_defend_ally_borders id = "COL" value = 2000 }
	ai_strategy = { type = dont_defend_ally_borders id = "COS" value = 2000 }
	ai_strategy = { type = dont_defend_ally_borders id = "ECU" value = 2000 }
	ai_strategy = { type = dont_defend_ally_borders id = "ELS" value = 2000 }
	ai_strategy = { type = dont_defend_ally_borders id = "ETH" value = 2000 }
	ai_strategy = { type = dont_defend_ally_borders id = "GUA" value = 2000 }
	ai_strategy = { type = dont_defend_ally_borders id = "HON" value = 2000 }
	ai_strategy = { type = dont_defend_ally_borders id = "IRQ" value = 2000 }
	ai_strategy = { type = dont_defend_ally_borders id = "JAP" value = 2000 }
	ai_strategy = { type = dont_defend_ally_borders id = "KOR" value = 2000 }
	ai_strategy = { type = dont_defend_ally_borders id = "LIB" value = 2000 }
	ai_strategy = { type = dont_defend_ally_borders id = "MEX" value = 2000 }
	ai_strategy = { type = dont_defend_ally_borders id = "MEN" value = 2000 }
	ai_strategy = { type = dont_defend_ally_borders id = "NEP" value = 2000 }
	ai_strategy = { type = dont_defend_ally_borders id = "NIC" value = 2000 }
	ai_strategy = { type = dont_defend_ally_borders id = "NZL" value = 2000 }
	ai_strategy = { type = dont_defend_ally_borders id = "PAN" value = 2000 }
	ai_strategy = { type = dont_defend_ally_borders id = "PER" value = 2000 }
	ai_strategy = { type = dont_defend_ally_borders id = "PHI" value = 2000 }
	ai_strategy = { type = dont_defend_ally_borders id = "PRU" value = 2000 }
	ai_strategy = { type = dont_defend_ally_borders id = "SAF" value = 2000 }
	ai_strategy = { type = dont_defend_ally_borders id = "SAU" value = 2000 }
	ai_strategy = { type = dont_defend_ally_borders id = "SIA" value = 2000 }
	ai_strategy = { type = dont_defend_ally_borders id = "SIK" value = 2000 }
	ai_strategy = { type = dont_defend_ally_borders id = "TIB" value = 2000 }
	ai_strategy = { type = dont_defend_ally_borders id = "URG" value = 2000 }
	ai_strategy = { type = dont_defend_ally_borders id = "VEN" value = 2000 }
	ai_strategy = { type = dont_defend_ally_borders id = "YUN" value = 2000 }
	ai_strategy = { type = dont_defend_ally_borders id = "USA" value = 2000 }
	ai_strategy = { type = dont_defend_ally_borders id = "MON" value = 2000 }
	ai_strategy = { type = dont_defend_ally_borders id = "TAN" value = 2000 }
	ai_strategy = { type = dont_defend_ally_borders id = "PAR" value = 2000 }
	ai_strategy = { type = dont_defend_ally_borders id = "CUB" value = 2000 }
	ai_strategy = { type = dont_defend_ally_borders id = "DOM" value = 2000 }
	ai_strategy = { type = dont_defend_ally_borders id = "HAI" value = 2000 }
	ai_strategy = { type = dont_defend_ally_borders id = "YEM" value = 2000 }
	ai_strategy = { type = dont_defend_ally_borders id = "OMA" value = 2000 }
	ai_strategy = { type = dont_defend_ally_borders id = "SLO" value = 2000 }
	ai_strategy = { type = dont_defend_ally_borders id = "RAJ" value = 2000 }
	ai_strategy = { type = dont_defend_ally_borders id = "CRO" value = 2000 }
	ai_strategy = { type = dont_defend_ally_borders id = "GXC" value = 2000 }
	ai_strategy = { type = dont_defend_ally_borders id = "PRC" value = 2000 }
	ai_strategy = { type = dont_defend_ally_borders id = "SHX" value = 2000 }
	ai_strategy = { type = dont_defend_ally_borders id = "XSM" value = 2000 }
	ai_strategy = { type = dont_defend_ally_borders id = "ICE" value = 2000 }
	ai_strategy = { type = dont_defend_ally_borders id = "LEB" value = 2000 }
	ai_strategy = { type = dont_defend_ally_borders id = "JOR" value = 2000 }
	ai_strategy = { type = dont_defend_ally_borders id = "SYR" value = 2000 }
	ai_strategy = { type = dont_defend_ally_borders id = "EGY" value = 2000 }
	ai_strategy = { type = dont_defend_ally_borders id = "PAL" value = 2000 }
	ai_strategy = { type = dont_defend_ally_borders id = "ISR" value = 2000 }
	ai_strategy = { type = dont_defend_ally_borders id = "MAL" value = 2000 }
	ai_strategy = { type = dont_defend_ally_borders id = "INS" value = 2000 }
	ai_strategy = { type = dont_defend_ally_borders id = "PAK" value = 2000 }
	ai_strategy = { type = dont_defend_ally_borders id = "MAN" value = 2000 }
	ai_strategy = { type = dont_defend_ally_borders id = "UKR" value = 2000 }
	ai_strategy = { type = dont_defend_ally_borders id = "TUN" value = 2000 }
	ai_strategy = { type = dont_defend_ally_borders id = "BUR" value = 2000 }
	ai_strategy = { type = dont_defend_ally_borders id = "MAR" value = 2000 }
	ai_strategy = { type = dont_defend_ally_borders id = "MOR" value = 2000 }
	ai_strategy = { type = dont_defend_ally_borders id = "FRI" value = 2000 }
	ai_strategy = { type = dont_defend_ally_borders id = "VIC" value = 2000 }
	ai_strategy = { type = dont_defend_ally_borders id = "HAT" value = 2000 }
	ai_strategy = { type = dont_defend_ally_borders id = "BMP" value = 2000 }
	ai_strategy = { type = dont_defend_ally_borders id = "PGR" value = 2000 }
	ai_strategy = { type = dont_defend_ally_borders id = "EHA" value = 2000 }
	ai_strategy = { type = dont_defend_ally_borders id = "RGR" value = 2000 }
	ai_strategy = { type = dont_defend_ally_borders id = "YUT" value = 2000 }
	ai_strategy = { type = dont_defend_ally_borders id = "XIA" value = 2000 }
	ai_strategy = { type = dont_defend_ally_borders id = "SCC" value = 2000 }
	ai_strategy = { type = dont_defend_ally_borders id = "ZXL" value = 2000 }
	ai_strategy = { type = dont_defend_ally_borders id = "SDC" value = 2000 }
	ai_strategy = { type = dont_defend_ally_borders id = "ECR" value = 2000 }
	ai_strategy = { type = dont_defend_ally_borders id = "SKC" value = 2000 }
	ai_strategy = { type = dont_defend_ally_borders id = "VIX" value = 2000 }
	ai_strategy = { type = dont_defend_ally_borders id = "D01" value = 2000 }
	ai_strategy = { type = dont_defend_ally_borders id = "D02" value = 2000 }
	ai_strategy = { type = dont_defend_ally_borders id = "D03" value = 2000 }
	ai_strategy = { type = dont_defend_ally_borders id = "D04" value = 2000 }
	ai_strategy = { type = dont_defend_ally_borders id = "D05" value = 2000 }
	ai_strategy = { type = dont_defend_ally_borders id = "D06" value = 2000 }
	ai_strategy = { type = dont_defend_ally_borders id = "D07" value = 2000 }
}

