
strategic_region={
	id=143
	name="STRATEGICREGION_143"
	provinces={
		900 1027 1034 1052 1134 1137 1169 1180 1188 1203 1438 1519 1531 1575 1590 3830 3900 3955 4032 4058 4074 4093 4137 4140 4174 4190 4208 4469 4538 4634 6828 6904 6969 7000 7092 7109 7571 9776 9843 9969 10003 10022 10053 10068 10119 10367 10421 10480 10507 11761 11822 11944 11980 11996 12026 12043 12062 12078 12300 12344 12432 
	}
	weather={
		period={
			between={ 0.0 30.0 }
			temperature={ -16.0 0.0 }
			no_phenomenon=0.500
			rain_light=0.460
			rain_heavy=0.040
			snow=0.100
			blizzard=0.000
			arctic_water=0.000
			mud=1.000
			sandstorm=0.000
			min_snow_level=0.000
		}
		period={
			between={ 0.1 27.1 }
			temperature={ -14.0 5.0 }
			no_phenomenon=0.450
			rain_light=0.440
			rain_heavy=0.050
			snow=0.060
			blizzard=0.000
			arctic_water=0.000
			mud=1.000
			sandstorm=0.000
			min_snow_level=0.000
		}
		period={
			between={ 0.2 30.2 }
			temperature={ -7.0 11.0 }
			no_phenomenon=0.500
			rain_light=0.360
			rain_heavy=0.120
			snow=0.020
			blizzard=0.000
			arctic_water=0.000
			mud=1.000
			sandstorm=0.000
			min_snow_level=0.000
		}
		period={
			between={ 0.3 29.3 }
			temperature={ 3.0 19.0 }
			no_phenomenon=0.500
			rain_light=0.360
			rain_heavy=0.120
			snow=0.000
			blizzard=0.000
			arctic_water=0.000
			mud=1.000
			sandstorm=0.000
			min_snow_level=0.000
		}
		period={
			between={ 0.4 30.4 }
			temperature={ 10.0 24.0 }
			no_phenomenon=0.550
			rain_light=0.360
			rain_heavy=0.120
			snow=0.000
			blizzard=0.000
			arctic_water=0.000
			mud=1.000
			sandstorm=0.000
			min_snow_level=0.000
		}
		period={
			between={ 0.5 29.5 }
			temperature={ 14.0 29.0 }
			no_phenomenon=0.600
			rain_light=0.360
			rain_heavy=0.120
			snow=0.000
			blizzard=0.000
			arctic_water=0.000
			mud=1.000
			sandstorm=0.000
			min_snow_level=0.000
		}
		period={
			between={ 0.6 30.6 }
			temperature={ 16.0 31.0 }
			no_phenomenon=0.650
			rain_light=0.230
			rain_heavy=0.120
			snow=0.000
			blizzard=0.000
			arctic_water=0.000
			mud=1.000
			sandstorm=0.000
			min_snow_level=0.000
		}
		period={
			between={ 0.7 30.7 }
			temperature={ 15.0 30.0 }
			no_phenomenon=0.600
			rain_light=0.280
			rain_heavy=0.120
			snow=0.000
			blizzard=0.000
			arctic_water=0.000
			mud=1.000
			sandstorm=0.000
			min_snow_level=0.000
		}
		period={
			between={ 0.8 29.8 }
			temperature={ 10.0 24.0 }
			no_phenomenon=0.600
			rain_light=0.300
			rain_heavy=0.100
			snow=0.000
			blizzard=0.000
			arctic_water=0.000
			mud=1.000
			sandstorm=0.000
			min_snow_level=0.000
		}
		period={
			between={ 0.9 30.9 }
			temperature={ 3.0 18.0 }
			no_phenomenon=0.650
			rain_light=0.300
			rain_heavy=0.050
			snow=0.000
			blizzard=0.000
			arctic_water=0.000
			mud=1.000
			sandstorm=0.000
			min_snow_level=0.000
		}
		period={
			between={ 0.10 29.10 }
			temperature={ -7.0 10.0 }
			no_phenomenon=0.650
			rain_light=0.300
			rain_heavy=0.050
			snow=0.000
			blizzard=0.000
			arctic_water=0.000
			mud=1.000
			sandstorm=0.000
			min_snow_level=0.000
		}
		period={
			between={ 0.11 30.11 }
			temperature={ -15.0 3.0 }
			no_phenomenon=0.600
			rain_light=0.460
			rain_heavy=0.040
			snow=0.100
			blizzard=0.000
			arctic_water=0.000
			mud=1.000
			sandstorm=0.000
			min_snow_level=0.000
		}
	}
}
