
strategic_region={
	id=224
	name="STRATEGICREGION_224"
	provinces={
		5505 5531 8871 8895 8918 8941 
	}
	#naval_terrain = ocean
	weather={
		period={
			between={ 0.0 30.0 }
			temperature={ 7.7 11.4 }
			no_phenomenon=0.250
			rain_light=0.177
			rain_heavy=0.006
			snow=0.000
			blizzard=0.000
			mud=1.000
			sandstorm=0.000
			min_snow_level=0.000
		}
		period={
			between={ 0.1 27.1 }
			temperature={ 8.8 13.3 }
			no_phenomenon=0.300
			rain_light=0.260
			rain_heavy=0.013
			snow=0.000
			blizzard=0.000
			mud=1.000
			sandstorm=0.000
			min_snow_level=0.000
		}
		period={
			between={ 0.2 30.2 }
			temperature={ 10.4 15.2 }
			no_phenomenon=0.350
			rain_light=0.095
			rain_heavy=0.024
			snow=0.000
			blizzard=0.000
			mud=1.000
			sandstorm=0.000
			min_snow_level=0.000
		}
		period={
			between={ 0.3 29.3 }
			temperature={ 14.5 17.2 }
			no_phenomenon=0.375
			rain_light=0.160
			rain_heavy=0.047
			snow=0.000
			blizzard=0.000
			mud=1.000
			sandstorm=0.000
			min_snow_level=0.000
		}
		period={
			between={ 0.4 30.4 }
			temperature={ 18.3 20.0 }
			no_phenomenon=0.375
			rain_light=0.095
			rain_heavy=0.057
			snow=0.000
			blizzard=0.000
			mud=1.000
			sandstorm=0.000
			min_snow_level=0.000
		}
		period={
			between={ 0.5 29.5 }
			temperature={ 19.8 23.8 }
			no_phenomenon=0.450
			rain_light=0.292
			rain_heavy=0.175
			snow=0.000
			blizzard=0.000
			mud=1.000
			sandstorm=0.000
			min_snow_level=0.000
		}
		period={
			between={ 0.6 30.6 }
			temperature={ 22.5 23.8 }
			no_phenomenon=0.500
			rain_light=0.075
			rain_heavy=0.045
			snow=0.000
			blizzard=0.000
			mud=1.000
			sandstorm=0.000
			min_snow_level=0.000
		}
		period={
			between={ 0.7 30.7 }
			temperature={ 22.6 25.6 }
			no_phenomenon=0.450
			rain_light=0.223
			rain_heavy=0.134
			snow=0.000
			blizzard=0.000
			mud=1.000
			sandstorm=0.000
			min_snow_level=0.000
		}
		period={
			between={ 0.8 29.8 }
			temperature={ 20.0 23.5 }
			no_phenomenon=0.375
			rain_light=0.128
			rain_heavy=0.077
			snow=0.000
			blizzard=0.000
			mud=1.000
			sandstorm=0.000
			min_snow_level=0.000
		}
		period={
			between={ 0.9 30.9 }
			temperature={ 16.9 20.2 }
			no_phenomenon=0.325
			rain_light=0.297
			rain_heavy=0.107
			snow=0.000
			blizzard=0.000
			mud=1.000
			sandstorm=0.000
			min_snow_level=0.000
		}
		period={
			between={ 0.10 29.10 }
			temperature={ 13.1 15.7 }
			no_phenomenon=0.275
			rain_light=0.242
			rain_heavy=0.031
			snow=0.000
			blizzard=0.000
			mud=1.000
			sandstorm=0.000
			min_snow_level=0.000
		}
		period={
			between={ 0.11 30.11 }
			temperature={ 8.8 13.0 }
			no_phenomenon=0.250
			rain_light=0.120
			rain_heavy=0.013
			snow=0.000
			blizzard=0.000
			mud=1.000
			sandstorm=0.000
			min_snow_level=0.000
		}
	}
}
