
strategic_region={
	id=44
	name="STRATEGICREGION_44"
	provinces={
		999 2596 2909 5286 5312 5337 5361 5408 5432 5455 5480 6049 8387 8413 8428 8436 8463 8490 8509 8517 8534 8542 8557 8565 8580 8604 8632 8658 8684 8709 8735 8759 8782 8805 8831 8882 
	}
	naval_terrain = water_shallow_sea
	weather={
		period={
			between={ 0.0 30.0 }
			temperature={ -9.0 1.0 }
			no_phenomenon=0.250
			rain_light=0.177
			rain_heavy=0.000
			snow=0.000
			blizzard=0.000
			mud=1.000
			sandstorm=0.000
			min_snow_level=0.000
		}
		period={
			between={ 0.1 27.1 }
			temperature={ -8.0 2.0 }
			no_phenomenon=0.300
			rain_light=0.260
			rain_heavy=0.000
			snow=0.000
			blizzard=0.000
			mud=1.000
			sandstorm=0.000
			min_snow_level=0.000
		}
		period={
			between={ 0.2 30.2 }
			temperature={ -7.0 3.0 }
			no_phenomenon=0.350
			rain_light=0.095
			rain_heavy=0.000
			snow=0.000
			blizzard=0.000
			mud=1.000
			sandstorm=0.000
			min_snow_level=0.000
		}
		period={
			between={ 0.3 29.3 }
			temperature={ -4.0 3.0 }
			no_phenomenon=0.375
			rain_light=0.160
			rain_heavy=0.000
			snow=0.000
			blizzard=0.000
			mud=1.000
			sandstorm=0.000
			min_snow_level=0.000
		}
		period={
			between={ 0.4 30.4 }
			temperature={ -1.0 6.0 }
			no_phenomenon=0.375
			rain_light=0.095
			rain_heavy=0.000
			snow=0.000
			blizzard=0.000
			mud=1.000
			sandstorm=0.000
			min_snow_level=0.000
		}
		period={
			between={ 0.5 29.5 }
			temperature={ 2.0 8.0 }
			no_phenomenon=0.450
			rain_light=0.292
			rain_heavy=0.001
			snow=0.000
			blizzard=0.000
			mud=1.000
			sandstorm=0.000
			min_snow_level=0.000
		}
		period={
			between={ 0.6 30.6 }
			temperature={ 4.0 8.0 }
			no_phenomenon=0.500
			rain_light=0.075
			rain_heavy=0.001
			snow=0.000
			blizzard=0.000
			mud=1.000
			sandstorm=0.000
			min_snow_level=0.000
		}
		period={
			between={ 0.7 30.7 }
			temperature={ 3.5 9.0 }
			no_phenomenon=0.450
			rain_light=0.223
			rain_heavy=0.001
			snow=0.000
			blizzard=0.000
			mud=1.000
			sandstorm=0.000
			min_snow_level=0.000
		}
		period={
			between={ 0.8 29.8 }
			temperature={ 2.0 7.0 }
			no_phenomenon=0.375
			rain_light=0.128
			rain_heavy=0.000
			snow=0.000
			blizzard=0.000
			mud=1.000
			sandstorm=0.000
			min_snow_level=0.000
		}
		period={
			between={ 0.9 30.9 }
			temperature={ -1.0 4.0 }
			no_phenomenon=0.325
			rain_light=0.297
			rain_heavy=0.000
			snow=0.000
			blizzard=0.000
			mud=1.000
			sandstorm=0.000
			min_snow_level=0.000
		}
		period={
			between={ 0.10 29.10 }
			temperature={ -4.0 2.0 }
			no_phenomenon=0.275
			rain_light=0.242
			rain_heavy=0.000
			snow=0.000
			blizzard=0.000
			mud=1.000
			sandstorm=0.000
			min_snow_level=0.000
		}
		period={
			between={ 0.11 30.11 }
			temperature={ -8.0 1.0 }
			no_phenomenon=0.250
			rain_light=0.120
			rain_heavy=0.000
			snow=0.000
			blizzard=0.000
			mud=1.000
			sandstorm=0.000
			min_snow_level=0.000
		}
	}
}
