strategic_region={
	id=84
	name="STRATEGICREGION_84"
	provinces={
		807 1011 1231 1286 1301 1329 1361 1456 1681 1906 2121 2263 2289 2315 2339 2489 2558 2585 2611 2636 2661 2686 2711 2735 2758 4304 4332 4352 4421 4684 4907 5124 5267 6810 7010 7235 7251 7324 7339 7352 7412 7461 7690 7918 8139 8260 8896 8898 8919 8942 10166 10206 12222 13027 13028 13029 13030 13031 13032 13033 13034 13035 13036 
	}
	naval_terrain=water_deep_ocean
	static_modifiers={
				water_modifier_shark_infested=always

	}
	weather={
		period={
			between={ 0.0 30.0 }
			temperature={ 21.3 25.7 }
			no_phenomenon=0.250
			rain_light=0.177
			rain_heavy=0.106
			snow=0.000
			blizzard=0.000
			arctic_water=0.000
			mud=1.000
			sandstorm=0.000
			min_snow_level=0.000
		}
		period={
			between={ 0.1 27.1 }
			temperature={ 22.3 27.2 }
			no_phenomenon=0.300
			rain_light=0.260
			rain_heavy=0.155
			snow=0.000
			blizzard=0.000
			arctic_water=0.000
			mud=1.000
			sandstorm=0.000
			min_snow_level=0.000
		}
		period={
			between={ 0.2 30.2 }
			temperature={ 22.8 28.7 }
			no_phenomenon=0.350
			rain_light=0.095
			rain_heavy=0.057
			snow=0.000
			blizzard=0.000
			arctic_water=0.000
			mud=1.000
			sandstorm=0.000
			min_snow_level=0.000
		}
		period={
			between={ 0.3 29.3 }
			temperature={ 24.3 30.2 }
			no_phenomenon=0.375
			rain_light=0.160
			rain_heavy=0.096
			snow=0.000
			blizzard=0.000
			arctic_water=0.000
			mud=1.000
			sandstorm=0.000
			min_snow_level=0.000
		}
		period={
			between={ 0.4 30.4 }
			temperature={ 24.8 30.2 }
			no_phenomenon=0.375
			rain_light=0.095
			rain_heavy=0.057
			snow=0.000
			blizzard=0.000
			arctic_water=0.000
			mud=1.000
			sandstorm=0.000
			min_snow_level=0.000
		}
		period={
			between={ 0.5 29.5 }
			temperature={ 26.2 32.7 }
			no_phenomenon=0.450
			rain_light=0.292
			rain_heavy=0.175
			snow=0.000
			blizzard=0.000
			arctic_water=0.000
			mud=1.000
			sandstorm=0.000
			min_snow_level=0.000
		}
		period={
			between={ 0.6 30.6 }
			temperature={ 31.2 32.7 }
			no_phenomenon=0.500
			rain_light=0.075
			rain_heavy=0.045
			snow=0.000
			blizzard=0.000
			arctic_water=0.000
			mud=1.000
			sandstorm=0.000
			min_snow_level=0.000
		}
		period={
			between={ 0.7 30.7 }
			temperature={ 29.9 36.1 }
			no_phenomenon=0.450
			rain_light=0.223
			rain_heavy=0.134
			snow=0.000
			blizzard=0.000
			arctic_water=0.000
			mud=1.000
			sandstorm=0.000
			min_snow_level=0.000
		}
		period={
			between={ 0.8 29.8 }
			temperature={ 29.2 32.2 }
			no_phenomenon=0.375
			rain_light=0.128
			rain_heavy=0.077
			snow=0.000
			blizzard=0.000
			arctic_water=0.000
			mud=1.000
			sandstorm=0.000
			min_snow_level=0.000
		}
		period={
			between={ 0.9 30.9 }
			temperature={ 26.7 29.7 }
			no_phenomenon=0.325
			rain_light=0.297
			rain_heavy=0.178
			snow=0.000
			blizzard=0.000
			arctic_water=0.000
			mud=1.000
			sandstorm=0.000
			min_snow_level=0.000
		}
		period={
			between={ 0.10 29.10 }
			temperature={ 23.3 27.7 }
			no_phenomenon=0.275
			rain_light=0.242
			rain_heavy=0.145
			snow=0.000
			blizzard=0.000
			arctic_water=0.000
			mud=1.000
			sandstorm=0.000
			min_snow_level=0.000
		}
		period={
			between={ 0.11 30.11 }
			temperature={ 20.3 25.7 }
			no_phenomenon=0.250
			rain_light=0.120
			rain_heavy=0.072
			snow=0.000
			blizzard=0.000
			arctic_water=0.000
			mud=1.000
			sandstorm=0.000
			min_snow_level=0.000
		}
	}
}
