characters={
	PAK_acd2={
		advisor={
			slot = army_chief
			idea_token = PAK_acd2_army_chief
			on_add = {
				set_temp_variable = { character = token:PAK_acd2}
				set_temp_variable = { slot = token:army_chief}

				army_chief_on_add_effect = yes
			} 
			on_remove = {
				set_temp_variable = { character = token:PAK_acd2}
				set_temp_variable = { slot = token:army_chief}

				army_chief_on_remove_effect = yes
			} 
			allowed  = {
					original_tag  = PAK
				}
				traits  = {
					army_chief_defensive_2 
				}
		}
# TODO[ PORTRAIT LARGE ]: Missing large portrait please check!
		portraits={
			army={
				small="GFX_idea_generic_army_african_5"
			}
		}
	}
	PAK_ncs={
		advisor={
			slot = high_command
			idea_token = PAK_ncs_high_command
			on_add = {
				set_temp_variable = { character = token:PAK_ncs}
				set_temp_variable = { slot = token:high_command}

				high_command_on_add_effect = yes
			} 
			on_remove = {
				set_temp_variable = { character = token:PAK_ncs}
				set_temp_variable = { slot = token:high_command}

				high_command_on_remove_effect = yes
			} 
			ledger  = navy 
				allowed  = {
					original_tag  = PAK
				}
				traits  = {
					navy_capital_ship_2 
				}
		}
# TODO[ PORTRAIT LARGE ]: Missing large portrait please check!
		portraits={
			army={
				small="GFX_idea_generic_navy_african_2"
			}
		}
	}
	PAK_nccr={
		advisor={
			slot = navy_chief
			idea_token = PAK_nccr_navy_chief
			on_add = {
				set_temp_variable = { character = token:PAK_nccr}
				set_temp_variable = { slot = token:navy_chief}

				navy_chief_on_add_effect = yes
			} 
			on_remove = {
				set_temp_variable = { character = token:PAK_nccr}
				set_temp_variable = { slot = token:navy_chief}

				navy_chief_on_remove_effect = yes
			} 
			allowed  = {
					original_tag  = PAK
				}
				traits  = {
					navy_chief_commerce_raiding_2 
				}
		}
# TODO[ PORTRAIT LARGE ]: Missing large portrait please check!
		portraits={
			army={
				small="GFX_idea_generic_navy_african_2"
			}
		}
	}
	PAK_aco2={
		advisor={
			slot = army_chief
			idea_token = PAK_aco2_army_chief
			on_add = {
				set_temp_variable = { character = token:PAK_aco2}
				set_temp_variable = { slot = token:army_chief}

				army_chief_on_add_effect = yes
			} 
			on_remove = {
				set_temp_variable = { character = token:PAK_aco2}
				set_temp_variable = { slot = token:army_chief}

				army_chief_on_remove_effect = yes
			} 
			allowed  = {
					original_tag  = PAK
				}
				traits  = {
					army_chief_organizational_2 
				}
		}
# TODO[ PORTRAIT LARGE ]: Missing large portrait please check!
		portraits={
			army={
				small="GFX_idea_generic_army_african_4"
			}
		}
	}
	PAK_ai2={
		advisor={
			slot = high_command
			idea_token = PAK_ai2_high_command
			on_add = {
				set_temp_variable = { character = token:PAK_ai2}
				set_temp_variable = { slot = token:high_command}

				high_command_on_add_effect = yes
			} 
			on_remove = {
				set_temp_variable = { character = token:PAK_ai2}
				set_temp_variable = { slot = token:high_command}

				high_command_on_remove_effect = yes
			} 
			ledger  = army 
				allowed  = {
					original_tag  = PAK
				}
				traits  = {
					army_infantry_2 
				}
		}
# TODO[ PORTRAIT LARGE ]: Missing large portrait please check!
		portraits={
			army={
				small="GFX_idea_generic_army_african_3"
			}
		}
	}
	PAK_ar={
		advisor={
			slot = high_command
			idea_token = PAK_ar_high_command
			on_add = {
				set_temp_variable = { character = token:PAK_ar}
				set_temp_variable = { slot = token:high_command}

				high_command_on_add_effect = yes
			} 
			on_remove = {
				set_temp_variable = { character = token:PAK_ar}
				set_temp_variable = { slot = token:high_command}

				high_command_on_remove_effect = yes
			} 
			ledger  = army 
				allowed  = {
					original_tag  = PAK
				}
				traits  = {
					army_regrouping_2 
				}
		}
# TODO[ PORTRAIT LARGE ]: Missing large portrait please check!
		portraits={
			army={
				small="GFX_idea_generic_army_african_1"
			}
		}
	}
	PAK_coi={
		advisor={
			slot = political_advisor
			idea_token = PAK_coi_political_advisor
			on_add = {
				set_temp_variable = { character = token:PAK_coi}
				set_temp_variable = { slot = token:political_advisor}

				political_advisor_on_add_effect = yes
			} 
			on_remove = {
				set_temp_variable = { character = token:PAK_coi}
				set_temp_variable = { slot = token:political_advisor}

				political_advisor_on_remove_effect = yes
			} 
			allowed  = {
					original_tag  = PAK
				}
				traits  = {
					captain_of_industry 
				}
		}
# TODO[ PORTRAIT LARGE ]: Missing large portrait please check!
		portraits={
			army={
				small="GFX_idea_generic_political_advisor_african_1"
			}
		}
	}
	PAK_acas={
		advisor={
			slot = high_command
			idea_token = PAK_acas_high_command
			on_add = {
				set_temp_variable = { character = token:PAK_acas}
				set_temp_variable = { slot = token:high_command}

				high_command_on_add_effect = yes
			} 
			on_remove = {
				set_temp_variable = { character = token:PAK_acas}
				set_temp_variable = { slot = token:high_command}

				high_command_on_remove_effect = yes
			} 
			ledger  = air 
				allowed  = {
					original_tag  = PAK
				}
				traits  = {
					air_close_air_support_2 
				}
		}
# TODO[ PORTRAIT LARGE ]: Missing large portrait please check!
		portraits={
			army={
				small="GFX_idea_generic_air_african_2"
			}
		}
	}
	PAK_acgs={
		advisor={
			slot = air_chief
			idea_token = PAK_acgs_air_chief
			on_add = {
				set_temp_variable = { character = token:PAK_acgs}
				set_temp_variable = { slot = token:air_chief}

				air_chief_on_add_effect = yes
			} 
			on_remove = {
				set_temp_variable = { character = token:PAK_acgs}
				set_temp_variable = { slot = token:air_chief}

				air_chief_on_remove_effect = yes
			} 
			allowed  = {
					original_tag  = PAK
				}
				traits  = {
					air_chief_ground_support_2 
				}
		}
# TODO[ PORTRAIT LARGE ]: Missing large portrait please check!
		portraits={
			army={
				small="GFX_idea_generic_air_african_3"
			}
		}
	}
	PAK_aa2={
		advisor={
			slot = high_command
			idea_token = PAK_aa2_high_command
			on_add = {
				set_temp_variable = { character = token:PAK_aa2}
				set_temp_variable = { slot = token:high_command}

				high_command_on_add_effect = yes
			} 
			on_remove = {
				set_temp_variable = { character = token:PAK_aa2}
				set_temp_variable = { slot = token:high_command}

				high_command_on_remove_effect = yes
			} 
			ledger  = army 
				allowed  = {
					original_tag  = PAK
				}
				traits  = {
					army_cavalry_2 
				}
		}
# TODO[ PORTRAIT LARGE ]: Missing large portrait please check!
		portraits={
			army={
				small="GFX_idea_generic_army_african_2"
			}
		}
	}
	PAK_acr={
		advisor={
			slot = air_chief
			idea_token = PAK_acr_air_chief
			on_add = {
				set_temp_variable = { character = token:PAK_acr}
				set_temp_variable = { slot = token:air_chief}

				air_chief_on_add_effect = yes
			} 
			on_remove = {
				set_temp_variable = { character = token:PAK_acr}
				set_temp_variable = { slot = token:air_chief}

				air_chief_on_remove_effect = yes
			} 
			allowed  = {
					original_tag  = PAK
				}
				traits  = {
					air_chief_reform_2 
				}
		}
# TODO[ PORTRAIT LARGE ]: Missing large portrait please check!
		portraits={
			army={
				small="GFX_idea_generic_air_african_3"
			}
		}
	}
	PAK_stc={
		advisor={
			slot = political_advisor
			idea_token = PAK_stc_political_advisor
			on_add = {
				set_temp_variable = { character = token:PAK_stc}
				set_temp_variable = { slot = token:political_advisor}

				political_advisor_on_add_effect = yes
			} 
			on_remove = {
				set_temp_variable = { character = token:PAK_stc}
				set_temp_variable = { slot = token:political_advisor}

				political_advisor_on_remove_effect = yes
			} 
			allowed  = {
					original_tag  = PAK
				}
				traits  = {
					smooth_talking_charmer 
				}
		}
# TODO[ PORTRAIT LARGE ]: Missing large portrait please check!
		portraits={
			army={
				small="GFX_idea_generic_political_advisor_african_3"
			}
		}
	}
	PAK_awt={
		advisor={
			slot = theorist
			idea_token = PAK_awt_theorist
			on_add = {
				set_temp_variable = { character = token:PAK_awt}
				set_temp_variable = { slot = token:theorist}

				theorist_on_add_effect = yes
			} 
			on_remove = {
				set_temp_variable = { character = token:PAK_awt}
				set_temp_variable = { slot = token:theorist}

				theorist_on_remove_effect = yes
			} 
			ledger  = air 
				allowed  = {
					original_tag  = PAK
				}
				traits  = {
					air_warfare_theorist 
				}
		}
# TODO[ PORTRAIT LARGE ]: Missing large portrait please check!
		portraits={
			army={
				small="GFX_idea_generic_air_african_2"
			}
		}
	}
	PAK_pot={
		advisor={
			slot = political_advisor
			idea_token = PAK_pot_political_advisor
			on_add = {
				set_temp_variable = { character = token:PAK_pot}
				set_temp_variable = { slot = token:political_advisor}

				political_advisor_on_add_effect = yes
			} 
			on_remove = {
				set_temp_variable = { character = token:PAK_pot}
				set_temp_variable = { slot = token:political_advisor}

				political_advisor_on_remove_effect = yes
			} 
			allowed  = {
					original_tag  = PAK
				}
				traits  = {
					prince_of_terror 
				}
		}
# TODO[ PORTRAIT LARGE ]: Missing large portrait please check!
		portraits={
			army={
				small="GFX_idea_generic_political_advisor_african_2"
			}
		}
	}
	PAK_mt={
		advisor={
			slot = theorist
			idea_token = PAK_mt_theorist
			on_add = {
				set_temp_variable = { character = token:PAK_mt}
				set_temp_variable = { slot = token:theorist}

				theorist_on_add_effect = yes
			} 
			on_remove = {
				set_temp_variable = { character = token:PAK_mt}
				set_temp_variable = { slot = token:theorist}

				theorist_on_remove_effect = yes
			} 
			ledger  = army 
				allowed  = {
					original_tag  = PAK
				}
				traits  = {
					military_theorist 
				}
		}
# TODO[ PORTRAIT LARGE ]: Missing large portrait please check!
		portraits={
			army={
				small="GFX_idea_generic_army_african_2"
			}
		}
	}
	PAK_ncm={
		advisor={
			slot = navy_chief
			idea_token = PAK_ncm_navy_chief
			on_add = {
				set_temp_variable = { character = token:PAK_ncm}
				set_temp_variable = { slot = token:navy_chief}

				navy_chief_on_add_effect = yes
			} 
			on_remove = {
				set_temp_variable = { character = token:PAK_ncm}
				set_temp_variable = { slot = token:navy_chief}

				navy_chief_on_remove_effect = yes
			} 
			allowed  = {
					original_tag  = PAK
				}
				traits  = {
					navy_chief_maneuver_2 
				}
		}
# TODO[ PORTRAIT LARGE ]: Missing large portrait please check!
		portraits={
			army={
				small="GFX_idea_generic_navy_african_3"
			}
		}
	}
	PAK_nt={
		advisor={
			slot = theorist
			idea_token = PAK_nt_theorist
			on_add = {
				set_temp_variable = { character = token:PAK_nt}
				set_temp_variable = { slot = token:theorist}

				theorist_on_add_effect = yes
			} 
			on_remove = {
				set_temp_variable = { character = token:PAK_nt}
				set_temp_variable = { slot = token:theorist}

				theorist_on_remove_effect = yes
			} 
			ledger  = navy 
				allowed  = {
					original_tag  = PAK
				}
				traits  = {
					naval_theorist 
				}
		}
# TODO[ PORTRAIT LARGE ]: Missing large portrait please check!
		portraits={
			army={
				small="GFX_idea_generic_navy_african_3"
			}
		}
	}
}
