characters={
	SKC_liu_wenhui={
		name = SKC_liu_wenhui
		portraits={
			army={
				
			}
			army={
				# large="gfx/leaders/kmt_mod/Portrait_Liu_Wenhui.dds"
			}
		}
		corps_commander={
			skill=2
			attack_skill=2
			defense_skill=2
			planning_skill=1
			logistics_skill=2
			legacy_id=10311
		}
		country_leader={
			desc="POLITICS_LIU_WENHUI_DESC"
			ideology=despotism
			traits={ neutral }
			expire="1965.1.1.1"
			id=-1
		}
	}
	SKC_lin_fouxing={
		name = SKC_lin_fouxing
		portraits={
			civilian={
				large="gfx/leaders/Asia/Portrait_Asia_Generic_2.dds"
			}
		}
		country_leader={
			ideology=classical_liberalism
			expire="1956.1.1.12"
			id=-1
		}
	}
	SKC_yang_sun={
		name = SKC_yang_sun
		portraits={
			civilian={
				large="gfx/leaders/Asia/Portrait_Asia_Generic_2.dds"
			}
		}
		country_leader={
			ideology=libertarianism
			expire="1945.1.1.12"
			id=-1
		}
	}
	SKC_meng_xin={
		name = SKC_meng_xin
		portraits={
			civilian={
				large="gfx/leaders/Asia/Portrait_Asia_Generic_2.dds"
			}
		}
		country_leader={
			ideology=kemalism
			traits={ capitalist schemer }
			expire="1950.1.1.12"
			id=-1
		}
	}
	SKC_hu_liliang={
		name = SKC_hu_liliang
		portraits={
			civilian={
				large="gfx/leaders/Europe/Portrait_Europe_Generic_2.dds"
			}
		}
		country_leader={
			ideology=industrial_farmers
			expire="1955.1.1.12"
			id=-1
		}
	}
	SKC_yu_fouhai={
		name = SKC_yu_fouhai
		portraits={
			civilian={
				large="gfx/leaders/Asia/Portrait_Asia_Generic_1.dds"
			}
		}
		country_leader={
			ideology=anarchist_communism
			traits={ smooth_talking_charmer KMT_geologist }
			expire="1944.1.1.12"
			id=-1
		}
	}
	SKC_jiang_sun={
		name = SKC_jiang_sun
		portraits={
			civilian={
				large="gfx/leaders/Asia/Portrait_Asia_Generic_3.dds"
			}
		}
		country_leader={
			ideology=falangism
			traits={ ineffective_politician ideological_groupie }
			expire="1949.1.1.12"
			id=-1
		}
	}
	SKC_cui_xiaoping={
		name = SKC_cui_xiaoping
		portraits={
			civilian={
				large="gfx/leaders/Europe/Portrait_Europe_Generic_3.dds"
			}
		}
		country_leader={
			ideology=imperial
			traits={ inexperienced_naval dealbroker }
			expire="1954.1.1.12"
			id=-1
		}
	}
}
