characters={
	URG_gabriel_terra={
		name = URG_gabriel_terra
		portraits={
			civilian={
				large="gfx/leaders/URG/portrait_urg_gabriel_terra.dds"
			}
		}
		country_leader={
			desc=POLITICS_GABRIEL_TERRA_DESC
			ideology=moderatism
			expire="1965.1.1.1"
			id=-1
		}
	}
	URG_fructuoso_diaz={
		name = URG_fructuoso_diaz
		portraits={
			civilian={
				large="gfx/leaders/South America/Portrait_South_America_Generic_2.dds"
			}
		}
		country_leader={
			ideology=moderate
			expire="1948.1.1.12"
			id=-1
		}
	}
	URG_salvador_ellauri={
		name = URG_salvador_ellauri
		portraits={
			civilian={
				large="gfx/leaders/South America/Portrait_South_America_Generic_2.dds"
			}
		}
		country_leader={
			ideology=kemalism
			expire="1953.1.1.12"
			id=-1
		}
	}
	URG_roberto_pedernera={
		name = URG_roberto_pedernera
		portraits={
			civilian={
				large="gfx/leaders/Europe/Portrait_Europe_Generic_2.dds"
			}
		}
		country_leader={
			ideology=agrarian_socialism
			expire="1941.1.1.12"
			id=-1
		}
	}
	URG_feliciano_brown={
		name = URG_feliciano_brown
		portraits={
			civilian={
				large="gfx/leaders/South America/Portrait_South_America_Generic_1.dds"
			}
		}
		country_leader={
			ideology=marxism
			expire="1945.1.1.12"
			id=-1
		}
	}
	URG_guillermo_brown={
		name = URG_guillermo_brown
		portraits={
			civilian={
				large="GFX_portrait_south_america_generic_7"
			}
		}
		country_leader={
			ideology=french_fascism
			traits={ drunk silent_workhorse }
			expire="1949.1.1.12"
			id=-1
		}
	}
	URG_facundo_saenz={
		name = URG_facundo_saenz
		portraits={
			civilian={
				large="GFX_portrait_south_america_generic_9"
			}
		}
		country_leader={
			ideology=pseudo_fascism
			traits={ armaments_organizer }
			expire="1954.1.1.12"
			id=-1
		}
	}
	URG_santiago_justo={
		name = URG_santiago_justo
		portraits={
			civilian={
				large="gfx/leaders/Europe/Portrait_Europe_Generic_3.dds"
			}
		}
		country_leader={
			ideology=imperial
			expire="1942.1.1.12"
			id=-1
		}
	}
	URG_manuel_meza={
		name = URG_manuel_meza
		portraits={
			navy={
				small="GFX_Portrait_South_America_Generic_navy_3_small"
			}
			navy={
				large="GFX_Portrait_South_America_Generic_navy_3"
			}
		}
		navy_leader={
			traits={ caustic_personality }
			skill=1
			attack_skill=1
			defense_skill=1
			maneuvering_skill=1
			coordination_skill=1
			legacy_id=-1
		}
	}
	URG_ernesto_sanchez_elizondo={
		advisor={
			slot = theorist
			idea_token = URG_ernesto_sanchez_elizondo_theorist
			on_add = {
				set_temp_variable = { character = token:URG_ernesto_sanchez_elizondo}
				set_temp_variable = { slot = token:theorist}

				theorist_on_add_effect = yes
			} 
			on_remove = {
				set_temp_variable = { character = token:URG_ernesto_sanchez_elizondo}
				set_temp_variable = { slot = token:theorist}

				theorist_on_remove_effect = yes
			} 
			allowed  = {
					original_tag  = URG
				}
				available  = {
					#has_country_flag = can_theorist_air 
				}
				research_bonus  = {
					air_doctrine  = 0.070
				}
				traits  = {
					air_warfare_theorist  
				}
				ledger  = air 
		}
		name="URG_ernesto_sanchez_elizondo"
		portraits={
			army={
				small="GFX_idea_generic_political_advisor_south_america_6"
			}
		}
	}
	URG_rafael_marques_ayala={
		advisor={
			slot = navy_chief
			idea_token = URG_rafael_marques_ayala_navy_chief
			on_add = {
				set_temp_variable = { character = token:URG_rafael_marques_ayala}
				set_temp_variable = { slot = token:navy_chief}

				navy_chief_on_add_effect = yes
			} 
			on_remove = {
				set_temp_variable = { character = token:URG_rafael_marques_ayala}
				set_temp_variable = { slot = token:navy_chief}

				navy_chief_on_remove_effect = yes
			} 
			allowed  = {
					original_tag  = URG
				}
				available  = {
					has_country_flag  = coastal_state 
				}
				traits  = {
					navy_chief_naval_aviation_2 
				}
		}
		name="URG_rafael_marques_ayala"
		portraits={
			army={
				small="GFX_idea_generic_navy_south_america_3"
			}
		}
	}
	URG_a_martin_de_la_flores={
		advisor={
			slot = air_chief
			idea_token = URG_a_martin_de_la_flores_air_chief
			on_add = {
				set_temp_variable = { character = token:URG_a_martin_de_la_flores}
				set_temp_variable = { slot = token:air_chief}

				air_chief_on_add_effect = yes
			} 
			on_remove = {
				set_temp_variable = { character = token:URG_a_martin_de_la_flores}
				set_temp_variable = { slot = token:air_chief}

				air_chief_on_remove_effect = yes
			} 
			allowed  = {
					original_tag  = URG
				}
				traits  = {
					air_chief_night_operations_2 
				}
		}
		name="URG_a_martin_de_la_flores"
		portraits={
			army={
				small="GFX_idea_generic_air_south_america_2"
			}
		}
	}
	URG_carlos_neves_ochoa={
		advisor={
			slot = navy_chief
			idea_token = URG_carlos_neves_ochoa_navy_chief
			on_add = {
				set_temp_variable = { character = token:URG_carlos_neves_ochoa}
				set_temp_variable = { slot = token:navy_chief}

				navy_chief_on_add_effect = yes
			} 
			on_remove = {
				set_temp_variable = { character = token:URG_carlos_neves_ochoa}
				set_temp_variable = { slot = token:navy_chief}

				navy_chief_on_remove_effect = yes
			} 
			allowed  = {
					original_tag  = URG
				}
				available  = {
					has_country_flag  = coastal_state 
				}
				traits  = {
					navy_chief_commerce_raiding_2 
				}
		}
		name="URG_carlos_neves_ochoa"
		portraits={
			army={
				small="GFX_idea_generic_navy_south_america_2"
			}
		}
	}
	URG_hector_lopez_camara={
		advisor={
			slot = high_command
			idea_token = URG_hector_lopez_camara_high_command
			on_add = {
				set_temp_variable = { character = token:URG_hector_lopez_camara}
				set_temp_variable = { slot = token:high_command}

				high_command_on_add_effect = yes
			} 
			on_remove = {
				set_temp_variable = { character = token:URG_hector_lopez_camara}
				set_temp_variable = { slot = token:high_command}

				high_command_on_remove_effect = yes
			} 
			allowed  = {
					original_tag  = URG
				}
				traits  = {
					army_logistics_2 
				}
				ledger  = army 
				available  = {
					#has_country_flag = can_high_command_army 
				}
		}
		name="URG_hector_lopez_camara"
		portraits={
			army={
				small="GFX_idea_generic_army_south_america_2"
			}
		}
	}
	URG_valentin_gomez={
		advisor={
			slot = high_command
			idea_token = URG_valentin_gomez_high_command
			on_add = {
				set_temp_variable = { character = token:URG_valentin_gomez}
				set_temp_variable = { slot = token:high_command}

				high_command_on_add_effect = yes
			} 
			on_remove = {
				set_temp_variable = { character = token:URG_valentin_gomez}
				set_temp_variable = { slot = token:high_command}

				high_command_on_remove_effect = yes
			} 
			allowed  = {
					original_tag  = URG
				}
				available  = {
					#has_country_flag = can_high_command_air 
				}
				traits  = {
					air_strategic_bombing_2 
				}
				ledger  = air 
		}
		name="URG_valentin_gomez"
		portraits={
			army={
				small="GFX_idea_generic_air_south_america_2"
			}
		}
	}
	URG_enrico_amancias_rodriguez={
		advisor={
			slot = army_chief
			idea_token = URG_enrico_amancias_rodriguez_army_chief
			on_add = {
				set_temp_variable = { character = token:URG_enrico_amancias_rodriguez}
				set_temp_variable = { slot = token:army_chief}

				army_chief_on_add_effect = yes
			} 
			on_remove = {
				set_temp_variable = { character = token:URG_enrico_amancias_rodriguez}
				set_temp_variable = { slot = token:army_chief}

				army_chief_on_remove_effect = yes
			} 
			allowed  = {
					original_tag  = URG
				}
				traits  = {
					army_chief_drill_2 
				}
		}
		name="URG_enrico_amancias_rodriguez"
		portraits={
			army={
				small="GFX_idea_generic_army_south_america_3"
			}
		}
	}
	URG_cantido_quintio_reyes={
		advisor={
			slot = army_chief
			idea_token = URG_cantido_quintio_reyes_army_chief
			on_add = {
				set_temp_variable = { character = token:URG_cantido_quintio_reyes}
				set_temp_variable = { slot = token:army_chief}

				army_chief_on_add_effect = yes
			} 
			on_remove = {
				set_temp_variable = { character = token:URG_cantido_quintio_reyes}
				set_temp_variable = { slot = token:army_chief}

				army_chief_on_remove_effect = yes
			} 
			allowed  = {
					original_tag  = URG
				}
				traits  = {
					army_chief_morale_2 
				}
		}
		name="URG_cantido_quintio_reyes"
		portraits={
			army={
				small="GFX_idea_generic_army_south_america_1"
			}
		}
	}
	URG_cosme_alvarez_berisso={
		advisor={
			slot = high_command
			idea_token = URG_cosme_alvarez_berisso_high_command
			on_add = {
				set_temp_variable = { character = token:URG_cosme_alvarez_berisso}
				set_temp_variable = { slot = token:high_command}

				high_command_on_add_effect = yes
			} 
			on_remove = {
				set_temp_variable = { character = token:URG_cosme_alvarez_berisso}
				set_temp_variable = { slot = token:high_command}

				high_command_on_remove_effect = yes
			} 
			allowed  = {
					original_tag  = URG
				}
				available  = {
					#has_country_flag = can_high_command_air 
				}
				traits  = {
					air_air_superiority_2 
				}
				ledger  = air 
		}
		name="URG_cosme_alvarez_berisso"
		portraits={
			army={
				small="GFX_idea_generic_air_south_america_1"
			}
		}
	}
	URG_jorge_eloi_mendoza={
		advisor={
			slot = army_chief
			idea_token = URG_jorge_eloi_mendoza_army_chief
			on_add = {
				set_temp_variable = { character = token:URG_jorge_eloi_mendoza}
				set_temp_variable = { slot = token:army_chief}

				army_chief_on_add_effect = yes
			} 
			on_remove = {
				set_temp_variable = { character = token:URG_jorge_eloi_mendoza}
				set_temp_variable = { slot = token:army_chief}

				army_chief_on_remove_effect = yes
			} 
			allowed  = {
					original_tag  = URG
				}
				traits  = {
					army_chief_defensive_2 
				}
		}
		name="URG_jorge_eloi_mendoza"
		portraits={
			army={
				small="GFX_idea_generic_army_south_america_5"
			}
		}
	}
	URG_vittorio_amato_masso={
		advisor={
			slot = theorist
			idea_token = URG_vittorio_amato_masso_theorist
			on_add = {
				set_temp_variable = { character = token:URG_vittorio_amato_masso}
				set_temp_variable = { slot = token:theorist}

				theorist_on_add_effect = yes
			} 
			on_remove = {
				set_temp_variable = { character = token:URG_vittorio_amato_masso}
				set_temp_variable = { slot = token:theorist}

				theorist_on_remove_effect = yes
			} 
			allowed  = {
					original_tag  = URG
				}
				available  = {
					#has_country_flag = can_theorist_army
				}
				research_bonus  = {
					land_doctrine  = 0.070
				}
				traits  = {
					military_theorist 
				}
				ledger  = army 
		}
		name="URG_vittorio_amato_masso"
		portraits={
			army={
				small="GFX_idea_generic_political_advisor_south_america_5"
			}
		}
	}
	URG_carlos_jackson_urribe={
		advisor={
			slot = high_command
			idea_token = URG_carlos_jackson_urribe_high_command
			on_add = {
				set_temp_variable = { character = token:URG_carlos_jackson_urribe}
				set_temp_variable = { slot = token:high_command}

				high_command_on_add_effect = yes
			} 
			on_remove = {
				set_temp_variable = { character = token:URG_carlos_jackson_urribe}
				set_temp_variable = { slot = token:high_command}

				high_command_on_remove_effect = yes
			} 
			allowed  = {
					original_tag  = URG
				}
				available  = {
					#has_country_flag = can_high_command_navy 
				}
				traits  = {
					navy_screen_2 
				}
				ledger  = navy 
		}
		name="URG_carlos_jackson_urribe"
		portraits={
			army={
				small="GFX_idea_generic_navy_south_america_3"
			}
		}
	}
	URG_teo_bucardi_ramos={
		advisor={
			slot = high_command
			idea_token = URG_teo_bucardi_ramos_high_command
			on_add = {
				set_temp_variable = { character = token:URG_teo_bucardi_ramos}
				set_temp_variable = { slot = token:high_command}

				high_command_on_add_effect = yes
			} 
			on_remove = {
				set_temp_variable = { character = token:URG_teo_bucardi_ramos}
				set_temp_variable = { slot = token:high_command}

				high_command_on_remove_effect = yes
			} 
			allowed  = {
					original_tag  = URG
				}
				available  = {
					#has_country_flag = can_high_command_army 
				}
				traits  = {
					army_commando_2 
				}
				ledger  = army 
		}
		name="URG_teo_bucardi_ramos"
		portraits={
			army={
				small="GFX_idea_generic_army_south_america_4"
			}
		}
	}
	URG_eleazar_diaz_caminate={
		advisor={
			slot = high_command
			idea_token = URG_eleazar_diaz_caminate_high_command
			on_add = {
				set_temp_variable = { character = token:URG_eleazar_diaz_caminate}
				set_temp_variable = { slot = token:high_command}

				high_command_on_add_effect = yes
			} 
			on_remove = {
				set_temp_variable = { character = token:URG_eleazar_diaz_caminate}
				set_temp_variable = { slot = token:high_command}

				high_command_on_remove_effect = yes
			} 
			allowed  = {
					original_tag  = URG
				}
				available  = {
					#has_country_flag = can_high_command_army 
				}
				traits  = {
					army_concealment_2 
				}
				ledger  = army 
		}
		name="URG_eleazar_diaz_caminate"
		portraits={
			army={
				small="GFX_idea_generic_army_south_america_1"
			}
		}
	}
	URG_manuel_heinz_azpurua={
		advisor={
			slot = air_chief
			idea_token = URG_manuel_heinz_azpurua_air_chief
			on_add = {
				set_temp_variable = { character = token:URG_manuel_heinz_azpurua}
				set_temp_variable = { slot = token:air_chief}

				air_chief_on_add_effect = yes
			} 
			on_remove = {
				set_temp_variable = { character = token:URG_manuel_heinz_azpurua}
				set_temp_variable = { slot = token:air_chief}

				air_chief_on_remove_effect = yes
			} 
			allowed  = {
					original_tag  = URG
				}
				traits  = {
					air_chief_ground_support_2 
				}
		}
		name="URG_manuel_heinz_azpurua"
		portraits={
			army={
				small="GFX_idea_generic_air_south_america_3"
			}
		}
	}
#manually migrated ministers
	URG_horacio_arredondo = {
		name = URG_horacio_arredondo
		portraits = {
			#civilian={
			#	large = generic_political_advisor_south_america_1
			#}
		}
		advisor = {
			slot = head_of_state
			idea_token = URG_horacio_arredondo_head_of_state
			on_add = {
				set_temp_variable = { character = token:URG_horacio_arredondo}
				set_temp_variable = { slot = token:head_of_state}

				head_of_state_on_add_effect = yes
			} 
			on_remove = {
				set_temp_variable = { character = token:URG_horacio_arredondo}
				set_temp_variable = { slot = token:head_of_state}

				head_of_state_on_remove_effect = yes
			} 
			
			allowed = {
				original_tag = URG
			}
			
			traits = { popular_figurehead }
		}
	}
	URG_emilio_frugoni = {
		name = URG_emilio_frugoni
		portraits = {
			civilian={
				small = GFX_idea_generic_political_advisor_south_america_3
			}
		}
		advisor = {
			slot = foreign_minister
			idea_token = URG_emilio_frugoni_foreign_minister
			on_add = {
				set_temp_variable = { character = token:URG_emilio_frugoni}
				set_temp_variable = { slot = token:foreign_minister}

				foreign_minister_on_add_effect = yes
			} 
			on_remove = {
				set_temp_variable = { character = token:URG_emilio_frugoni}
				set_temp_variable = { slot = token:foreign_minister}

				foreign_minister_on_remove_effect = yes
			} 
			
			allowed = {
				original_tag = URG
			}
			
			traits = { smooth_talking_charmer }
				
		}
	}
	URG_paulo_ortega_frusci = {
		name = URG_paulo_ortega_frusci
		portraits = {
			civilian={
				small = GFX_idea_generic_political_advisor_south_america_3
			}
		}
		advisor = {
			slot = foreign_minister
			idea_token = URG_paulo_ortega_frusci_foreign_minister
			on_add = {
				set_temp_variable = { character = token:URG_paulo_ortega_frusci}
				set_temp_variable = { slot = token:foreign_minister}

				foreign_minister_on_add_effect = yes
			} 
			on_remove = {
				set_temp_variable = { character = token:URG_paulo_ortega_frusci}
				set_temp_variable = { slot = token:foreign_minister}

				foreign_minister_on_remove_effect = yes
			} 
			
			allowed = {
				original_tag = URG
			}
			
			traits = { backroom_backstabber }
			
				
		}
	}
}
