characters={
	XIA_he_jian={
		name = XIA_he_jian
		portraits={
			civilian={
				large="gfx/leaders/Asia/Portrait_Asia_Generic_land_3.dds"
				small = GFX_idea_generic_political_advisor_asia_1
			}
		}
		country_leader={
			desc="POLITICS_HE_JIAN_DESC"
			ideology=despotism
			expire="1965.1.1.1"
			id=-1
		}
		advisor = {
			slot = political_advisor
			idea_token = XIA_he_jian_political_advisor
			on_add = {
				set_temp_variable = { character = token:XIA_he_jian}
				set_temp_variable = { slot = token:political_advisor}

				political_advisor_on_add_effect = yes
			} 
			on_remove = {
				set_temp_variable = { character = token:XIA_he_jian}
				set_temp_variable = { slot = token:political_advisor}

				political_advisor_on_remove_effect = yes
			} 
			allowed = {
				original_tag = XIA
			}
			
			traits = { prince_of_terror  }
		}
	}
	XIA_cheng_qian={
		name = XIA_cheng_qian
		portraits={
			# army={
			# 	small="gfx/interface/ideas/idea_generic_army_asia_1.dds"
			# }
			# army={
			# 	large="gfx/leaders/kmt_mod/Portrait_Cheng_Qian.dds"
			# }
		}
		field_marshal={
			skill=2
			attack_skill=2
			defense_skill=2
			planning_skill=2
			logistics_skill=1
			legacy_id=1026
		}
		country_leader={
			desc="POLITICS_CHENG_QIAN_DESC"
			ideology=despotism
			traits={ neutral }
			expire="1965.1.1.1"
			id=-1
		}
		advisor = {
			slot = army_chief
			idea_token = XIA_cheng_qian_army_chief
			on_add = {
				set_temp_variable = { character = token:XIA_cheng_qian}
				set_temp_variable = { slot = token:army_chief}

				army_chief_on_add_effect = yes
			} 
			on_remove = {
				set_temp_variable = { character = token:XIA_cheng_qian}
				set_temp_variable = { slot = token:army_chief}

				army_chief_on_remove_effect = yes
			} 
			
			allowed = {
				original_tag = XIA
			}
			
			traits = { army_chief_offensive_2 }
			
		}
	}
	XIA_tang_shengzhi={
		name = XIA_tang_shengzhi
		portraits={
			# army={
			# 	small="gfx/interface/ideas/idea_generic_army_asia_2.dds"
			# }
			# army={
			# 	large="gfx/leaders/kmt_mod/Portrait_Tang_Shengzhi.dds"
			# }
		}
		corps_commander={
			traits={ old_guard inflexible_strategist }
			skill=2
			attack_skill=2
			defense_skill=2
			planning_skill=1
			logistics_skill=2
			legacy_id=1025
		}
		advisor = {
			slot = army_chief
			idea_token = XIA_tang_shengzhi_army_chief
			on_add = {
				set_temp_variable = { character = token:XIA_tang_shengzhi}
				set_temp_variable = { slot = token:army_chief}

				army_chief_on_add_effect = yes
			} 
			on_remove = {
				set_temp_variable = { character = token:XIA_tang_shengzhi}
				set_temp_variable = { slot = token:army_chief}

				army_chief_on_remove_effect = yes
			} 
			
			allowed = {
				original_tag = XIA
			}
			
			traits = { army_entrenchment_2 }
			
		}
	}
	XIA_zhang_zizhong={
		name = XIA_zhang_zizhong
		portraits={
			army={
				small="gfx/interface/ideas/idea_asia_generic_land_4.dds"
			}
			army={
				large="gfx/leaders/Asia/Portrait_Asia_Generic_land_4.dds"
			}
		}
		corps_commander={
			traits={ infantry_officer }
			skill=1
			attack_skill=1
			defense_skill=1
			planning_skill=1
			logistics_skill=1
			legacy_id=10211
		}
	}
	XIA_zou_guan={
		name = XIA_zou_guan
		portraits={
			civilian={
				large="gfx/leaders/Asia/Portrait_Asia_Generic_2.dds"
			}
		}
		country_leader={
			ideology=rep_party_us
			traits={ technical_especialist naval_builder }
			expire="1947.1.1.12"
			id=-1
		}
	}
	XIA_jiang_chen={
		name = XIA_jiang_chen
		portraits={
			civilian={
				large="gfx/leaders/Asia/Portrait_Asia_Generic_2.dds"
			}
		}
		country_leader={
			ideology=centerright
			expire="1945.1.1.12"
			id=-1
		}
	}
	XIA_ding_guan={
		name = XIA_ding_guan
		portraits={
			civilian={
				large="gfx/leaders/Asia/Portrait_Asia_Generic_2.dds"
			}
		}
		country_leader={
			ideology=syndicalism
			traits={ smooth_talking_charmer communist industrial_planner }
			expire="1943.1.1.12"
			id=-1
		}
	}
	XIA_xia_chen={
		name = XIA_xia_chen
		portraits={
			civilian={
				large="gfx/leaders/Europe/Portrait_Europe_Generic_2.dds"
			}
		}
		country_leader={
			ideology=agrarian_socialism
			traits={ elder_statesman }
			expire="1941.1.1.12"
			id=-1
		}
	}
	XIA_fang_kong={
		name = XIA_fang_kong
		portraits={
			civilian={
				large="GFX_portrait_asia_generic_4"
			}
		}
		country_leader={
			ideology=national_communism
			expire="1956.1.1.12"
			id=-1
		}
	}
	XIA_yi_bing={
		name = XIA_yi_bing
		portraits={
			civilian={
				large="GFX_portrait_asia_generic_4"
			}
		}
		country_leader={
			ideology=fascism_ideology
			traits={ coalition_builder }
			expire="1954.1.1.12"
			id=-1
		}
	}
	XIA_peng_jun={
		name = XIA_peng_jun
		portraits={
			civilian={
				large="gfx/leaders/Europe/Portrait_Europe_Generic_3.dds"
			}
		}
		country_leader={
			ideology=theocracie
			traits={ ineffective_politician compassionate_gentleman }
			expire="1952.1.1.12"
			id=-1
		}
	}
#manually migrated ministers
	XIA_zhao_hengti = {
		name = XIA_zhao_hengti
		portraits = {
			civilian={
				small = GFX_idea_generic_political_advisor_asia_2
			}
		}
		advisor = {
			slot = political_advisor
			idea_token = XIA_zhao_hengti_political_advisor
			on_add = {
				set_temp_variable = { character = token:XIA_zhao_hengti}
				set_temp_variable = { slot = token:political_advisor}

				political_advisor_on_add_effect = yes
			} 
			on_remove = {
				set_temp_variable = { character = token:XIA_zhao_hengti}
				set_temp_variable = { slot = token:political_advisor}

				political_advisor_on_remove_effect = yes
			} 
			
			allowed = {
				original_tag = XIA
			}
			
			
			
			traits = { 
				silent_workhorse 
			}
			
		}
	}
	XIA_liu_fei = {
		name = XIA_liu_fei
		portraits = {
			civilian={
				small = GFX_idea_generic_political_advisor_asia_2
			}
		}
		advisor = {
			slot = foreign_minister
			idea_token = XIA_liu_fei_foreign_minister
			on_add = {
				set_temp_variable = { character = token:XIA_liu_fei}
				set_temp_variable = { slot = token:foreign_minister}

				foreign_minister_on_add_effect = yes
			} 
			on_remove = {
				set_temp_variable = { character = token:XIA_liu_fei}
				set_temp_variable = { slot = token:foreign_minister}

				foreign_minister_on_remove_effect = yes
			} 
			
			allowed = {
				original_tag = XIA
			}
			
			traits = { smooth_talking_charmer  }
		}
	}
	XIA_zhou_lan = {
		name = XIA_zhou_lan
		portraits = {
			civilian={
				small = GFX_idea_generic_political_advisor_asia_2
			}
		}
		advisor = {
			slot = foreign_minister
			idea_token = XIA_zhou_lan_foreign_minister
			on_add = {
				set_temp_variable = { character = token:XIA_zhou_lan}
				set_temp_variable = { slot = token:foreign_minister}

				foreign_minister_on_add_effect = yes
			} 
			on_remove = {
				set_temp_variable = { character = token:XIA_zhou_lan}
				set_temp_variable = { slot = token:foreign_minister}

				foreign_minister_on_remove_effect = yes
			} 
			
			allowed = {
				original_tag = XIA
			}
			
			traits = { compassionate_gentleman  }
		}
	}
	XIA_liu_xing = {
		name = XIA_liu_xing
		portraits = {
			army = {
				small = GFX_idea_generic_army_asia_6
			}
		}
		advisor = {
			slot = theorist
			idea_token = XIA_liu_xing_theorist
			on_add = {
				set_temp_variable = { character = token:XIA_liu_xing}
				set_temp_variable = { slot = token:theorist}

				theorist_on_add_effect = yes
			} 
			on_remove = {
				set_temp_variable = { character = token:XIA_liu_xing}
				set_temp_variable = { slot = token:theorist}

				theorist_on_remove_effect = yes
			} 
			
			available = {
				#has_country_flag = can_theorist_army
			}
			
			research_bonus = {
				land_doctrine = 0.07
			}
			
			traits = { military_theorist }
			
			ledger = army
			
			
		}
	}
	XIA_zhang_zhizhong = {
		name = XIA_zhang_zhizhong
		portraits = {
			army = {
				small = GFX_idea_generic_air_asia_2
			}
		}
		advisor = {
			slot = high_command
			idea_token = XIA_zhang_zhizhong_high_command
			on_add = {
				set_temp_variable = { character = token:XIA_zhang_zhizhong}
				set_temp_variable = { slot = token:high_command}

				high_command_on_add_effect = yes
			} 
			on_remove = {
				set_temp_variable = { character = token:XIA_zhang_zhizhong}
				set_temp_variable = { slot = token:high_command}

				high_command_on_remove_effect = yes
			} 
			
			allowed = {
				original_tag = XIA
			}
			
			traits = { army_chief_reform_2  }
			
			ledger = army
			

			available = {
				#has_country_flag = can_high_command_army
			}		
			
		}
	}
	XIA_chen_mingren = {
		name = XIA_chen_mingren
		portraits = {
			army = {
				small = GFX_idea_generic_army_asia_6
			}
		}
		advisor = {
			slot = high_command
			idea_token = XIA_chen_mingren_high_command
			on_add = {
				set_temp_variable = { character = token:XIA_chen_mingren}
				set_temp_variable = { slot = token:high_command}

				high_command_on_add_effect = yes
			} 
			on_remove = {
				set_temp_variable = { character = token:XIA_chen_mingren}
				set_temp_variable = { slot = token:high_command}

				high_command_on_remove_effect = yes
			} 
			
			allowed = {
				original_tag = XIA
			}
			available = {
				#has_country_flag = can_high_command_army
			}			
			
			traits = { army_infantry_2  }
			
			ledger = army
			
			
		}
	}
	XIA_liu_jianxu = {
		name = XIA_liu_jianxu
		portraits = {
			army = {
				small = GFX_idea_generic_navy_asia_2
			}
		}
		advisor = {
			slot = high_command
			idea_token = XIA_liu_jianxu_high_command
			on_add = {
				set_temp_variable = { character = token:XIA_liu_jianxu}
				set_temp_variable = { slot = token:high_command}

				high_command_on_add_effect = yes
			} 
			on_remove = {
				set_temp_variable = { character = token:XIA_liu_jianxu}
				set_temp_variable = { slot = token:high_command}

				high_command_on_remove_effect = yes
			} 
			
			allowed = {
				original_tag = XIA
			}
			available = {
				#has_country_flag = can_high_command_army
			}			
			
			traits = { army_artillery_2  }
			
			ledger = army
			
			
		}
	}
	XIA_tao_guang = {
		name = XIA_tao_guang
		portraits = {
			army = {
				small = GFX_idea_generic_army_asia_6
			}
		}
		advisor = {
			slot = high_command
			idea_token = XIA_tao_guang_high_command
			on_add = {
				set_temp_variable = { character = token:XIA_tao_guang}
				set_temp_variable = { slot = token:high_command}

				high_command_on_add_effect = yes
			} 
			on_remove = {
				set_temp_variable = { character = token:XIA_tao_guang}
				set_temp_variable = { slot = token:high_command}

				high_command_on_remove_effect = yes
			} 
			
			allowed = {
				original_tag = XIA
			}
			available = {
				#has_country_flag = can_high_command_army
			}			
			
			traits = { army_commando_2  }
			
			ledger = army
			
			
		}
	}
	XIA_li_jue = {
		name = XIA_li_jue
		portraits = {
			army = {
				small = GFX_idea_generic_army_asia_6
			}
		}
		advisor = {
			slot = high_command
			idea_token = XIA_li_jue_high_command
			on_add = {
				set_temp_variable = { character = token:XIA_li_jue}
				set_temp_variable = { slot = token:high_command}

				high_command_on_add_effect = yes
			} 
			on_remove = {
				set_temp_variable = { character = token:XIA_li_jue}
				set_temp_variable = { slot = token:high_command}

				high_command_on_remove_effect = yes
			} 
			
			allowed = {
				original_tag = XIA
			}
			available = {
				#has_country_flag = can_high_command_army
			}			
			
			traits = { army_concealment_1  }
			
			ledger = army
			

		}
	}
	XIA_air_chief = {
		name = XIA_air_chief
		portraits = {
			#army = {
			#	small = generic_air_asia_1
			#}
		}
		advisor = {
			slot = air_chief
			idea_token = XIA_air_chief_air_chief
			on_add = {
				set_temp_variable = { character = token:XIA_air_chief}
				set_temp_variable = { slot = token:air_chief}

				air_chief_on_add_effect = yes
			} 
			on_remove = {
				set_temp_variable = { character = token:XIA_air_chief}
				set_temp_variable = { slot = token:air_chief}

				air_chief_on_remove_effect = yes
			} 
			
			allowed = {
				original_tag = XIA
			}
			
			
			
			traits = { air_chief_safety_1  }
			
		}
	}
	XIA_navy_chief = {
		name = XIA_navy_chief
		portraits = {
			#army = {
			#	small = generic_navy_asia_1
			#}
		}
		advisor = {
			slot = navy_chief
			idea_token = XIA_navy_chief_navy_chief
			on_add = {
				set_temp_variable = { character = token:XIA_navy_chief}
				set_temp_variable = { slot = token:navy_chief}

				navy_chief_on_add_effect = yes
			} 
			on_remove = {
				set_temp_variable = { character = token:XIA_navy_chief}
				set_temp_variable = { slot = token:navy_chief}

				navy_chief_on_remove_effect = yes
			} 
			
			allowed = {
				original_tag = XIA
			}
					
			traits = { navy_chief_reform_1  }
			
		}
	}
}
