characters={
	XSM_ma_hongkui={
		name = XSM_ma_hongkui
		advisor={
			slot = theorist
			idea_token = XSM_ma_hongkui_theorist
			on_add = {
				set_temp_variable = { character = token:XSM_ma_hongkui}
				set_temp_variable = { slot = token:theorist}

				theorist_on_add_effect = yes
			} 
			on_remove = {
				set_temp_variable = { character = token:XSM_ma_hongkui}
				set_temp_variable = { slot = token:theorist}

				theorist_on_remove_effect = yes
			} 
			allowed  = {
					original_tag  = XSM
				}
				available  = {
					#has_country_flag = can_theorist_air 
				}
				research_bonus  = {
					air_doctrine  = 0.070
				}
				traits  = {
					air_warfare_theorist  
				}
				ledger  = air 
		}
		portraits={
			army={
				small="GFX_idea_generic_air_asia_2"
			}
			army={
				large="gfx/leaders/Asia/Portrait_Asia_Generic_land_5.dds"
			}
		}
		corps_commander={
			traits={ logistics_wizard_CC }
			skill=2
			attack_skill=1
			defense_skill=2
			planning_skill=2
			logistics_skill=2
			legacy_id=-1
		}
	}
	XSM_ma_bufang={
		name = XSM_ma_bufang
		portraits={
			civilian={
				large="gfx/leaders/XSM/portrait_xsm_ma_bufang.dds"
			}
			army = {
				small = gfx/interface/ideas/idea_generic_army_asia_3.dds
			}
		}
		country_leader={
			ideology=despotism
			traits={ neutral }
			expire="1965.1.1.1"
			id=-1
		}
		advisor={
			slot = high_command
			idea_token = XSM_ma_bufang_high_command
			on_add = {
				set_temp_variable = { character = token:XSM_ma_bufang}
				set_temp_variable = { slot = token:high_command}

				high_command_on_add_effect = yes
			} 
			on_remove = {
				set_temp_variable = { character = token:XSM_ma_bufang}
				set_temp_variable = { slot = token:high_command}

				high_command_on_remove_effect = yes
			} 

			available = {
				#has_country_flag = can_high_command_army
			}
			#cancel_if_invalid = no
					
			traits = { army_cavalry_2  }
			
			ledger = army
			
			
		}
	}
	XSM_zhang_genzhou={
		name = XSM_zhang_genzhou
		portraits={
			civilian={
				large="gfx/leaders/Asia/Portrait_Asia_Generic_2.dds"
			}
		}
		country_leader={
			ideology=social_conservatism
			traits={ economist econ_interventionist }
			expire="1946.1.1.12"
			id=-1
		}
	}
	XSM_tian_wu={
		name = XSM_tian_wu
		portraits={
			civilian={
				large="gfx/leaders/Asia/Portrait_Asia_Generic_2.dds"
			}
		}
		country_leader={
			ideology=centerright
			traits={ appeaser naive_appeaser }
			expire="1942.1.1.12"
			id=-1
		}
	}
	XSM_liao_an={
		name = XSM_liao_an
		portraits={
			civilian={
				large="gfx/leaders/Asia/Portrait_Asia_Generic_2.dds"
			}
		}
		country_leader={
			ideology=syndicalism
			expire="1954.1.1.12"
			id=-1
		}
	}
	XSM_duan_manzu={
		name = XSM_duan_manzu
		portraits={
			civilian={
				large="gfx/leaders/Europe/Portrait_Europe_Generic_2.dds"
			}
		}
		country_leader={
			ideology=industrial_farmers
			expire="1949.1.1.12"
			id=-1
		}
	}
	XSM_lai_gan={
		name = XSM_lai_gan
		portraits={
			civilian={
				large="GFX_portrait_asia_generic_4"
			}
		}
		country_leader={
			ideology=titoism
			traits={ naval_builder }
			expire="1945.1.1.12"
			id=-1
		}
	}
	XSM_gao_manzu={
		name = XSM_gao_manzu
		portraits={
			civilian={
				large="GFX_portrait_asia_generic_4"
			}
		}
		country_leader={
			ideology=hungarism
			traits={ communist industrial_planner inexperienced_naval }
			expire="1941.1.1.12"
			id=-1
		}
	}
	XSM_yuan_xingfu={
		name = XSM_yuan_xingfu
		portraits={
			civilian={
				large="gfx/leaders/Europe/Portrait_Europe_Generic_3.dds"
			}
		}
		country_leader={
			ideology=theocracie
			traits={ armaments_organizer }
			expire="1953.1.1.12"
			id=-1
		}
	}
	XSM_au_yongrui={
		advisor={
			slot = high_command
			idea_token = XSM_au_yongrui_high_command
			on_add = {
				set_temp_variable = { character = token:XSM_au_yongrui}
				set_temp_variable = { slot = token:high_command}

				high_command_on_add_effect = yes
			} 
			on_remove = {
				set_temp_variable = { character = token:XSM_au_yongrui}
				set_temp_variable = { slot = token:high_command}

				high_command_on_remove_effect = yes
			} 
			allowed  = {
					original_tag  = XSM
				}
				available  = {
					#has_country_flag = can_high_command_army 
				}
				traits  = {
					army_commando_2 
				}
				ledger  = army 
		}
		name=XSM_au_yongrui
		portraits={
			army={
				small="GFX_idea_generic_army_asia_2"
			}
		}
	}
	XSM_lian_zenguang={
		advisor={
			slot = navy_chief
			idea_token = XSM_lian_zenguang_navy_chief
			on_add = {
				set_temp_variable = { character = token:XSM_lian_zenguang}
				set_temp_variable = { slot = token:navy_chief}

				navy_chief_on_add_effect = yes
			} 
			on_remove = {
				set_temp_variable = { character = token:XSM_lian_zenguang}
				set_temp_variable = { slot = token:navy_chief}

				navy_chief_on_remove_effect = yes
			} 
			allowed  = {
					original_tag  = XSM
				}
				available  = {
					has_country_flag  = coastal_state 
				}
				traits  = {
					navy_chief_maneuver_2 
				}
		}
		name=XSM_lian_zenguang
		portraits={
			army={
				small="GFX_idea_generic_navy_asia_1"
			}
		}
	}
	XSM_ho_tengfei={
		advisor={
			slot = high_command
			idea_token = XSM_ho_tengfei_high_command
			on_add = {
				set_temp_variable = { character = token:XSM_ho_tengfei}
				set_temp_variable = { slot = token:high_command}

				high_command_on_add_effect = yes
			} 
			on_remove = {
				set_temp_variable = { character = token:XSM_ho_tengfei}
				set_temp_variable = { slot = token:high_command}

				high_command_on_remove_effect = yes
			} 
			allowed  = {
					original_tag  = XSM
				}
				available  = {
					#has_country_flag = can_high_command_navy 
				}
				traits  = {
					navy_fleet_logistics_2 
				}
				ledger  = navy 
		}
		name=XSM_ho_tengfei
		portraits={
			army={
				small="GFX_idea_generic_navy_asia_2"
			}
		}
	}
	XSM_chun_minsheng={
		advisor={
			slot = air_chief
			idea_token = XSM_chun_minsheng_air_chief
			on_add = {
				set_temp_variable = { character = token:XSM_chun_minsheng}
				set_temp_variable = { slot = token:air_chief}

				air_chief_on_add_effect = yes
			} 
			on_remove = {
				set_temp_variable = { character = token:XSM_chun_minsheng}
				set_temp_variable = { slot = token:air_chief}

				air_chief_on_remove_effect = yes
			} 
			allowed  = {
					original_tag  = XSM
				}
				traits  = {
					air_chief_night_operations_2 
				}
		}
		name=XSM_chun_minsheng
		portraits={
			army={
				small="GFX_idea_generic_air_asia_2"
			}
		}
	}
	XSM_ma_donghai={
		advisor={
			slot = high_command
			idea_token = XSM_ma_donghai_high_command
			on_add = {
				set_temp_variable = { character = token:XSM_ma_donghai}
				set_temp_variable = { slot = token:high_command}

				high_command_on_add_effect = yes
			} 
			on_remove = {
				set_temp_variable = { character = token:XSM_ma_donghai}
				set_temp_variable = { slot = token:high_command}

				high_command_on_remove_effect = yes
			} 
			allowed  = {
					original_tag  = XSM
				}
				available  = {
					#has_country_flag = can_high_command_air 
				}
				traits  = {
					air_close_air_support_2 
				}
				ledger  = air 
		}
		name=XSM_ma_donghai
		portraits={
			army={
				small="GFX_idea_generic_air_asia_2"
			}
		}
	}
	XSM_keng_gui={
		advisor={
			slot = navy_chief
			idea_token = XSM_keng_gui_navy_chief
			on_add = {
				set_temp_variable = { character = token:XSM_keng_gui}
				set_temp_variable = { slot = token:navy_chief}

				navy_chief_on_add_effect = yes
			} 
			on_remove = {
				set_temp_variable = { character = token:XSM_keng_gui}
				set_temp_variable = { slot = token:navy_chief}

				navy_chief_on_remove_effect = yes
			} 
			allowed  = {
					original_tag  = XSM
				}
				available  = {
					has_country_flag  = coastal_state 
				}
				traits  = {
					navy_chief_decisive_battle_2 
				}
		}
		name=XSM_keng_gui
		portraits={
			army={
				small="GFX_idea_generic_navy_asia_3"
			}
		}
	}
	XSM_wu_qi={
		advisor={
			slot = high_command
			idea_token = XSM_wu_qi_high_command
			on_add = {
				set_temp_variable = { character = token:XSM_wu_qi}
				set_temp_variable = { slot = token:high_command}

				high_command_on_add_effect = yes
			} 
			on_remove = {
				set_temp_variable = { character = token:XSM_wu_qi}
				set_temp_variable = { slot = token:high_command}

				high_command_on_remove_effect = yes
			} 
			allowed  = {
					original_tag  = XSM
				}
				available  = {
					#has_country_flag = can_high_command_army 
				}
				traits  = {
					army_infantry_2
				}
				ledger  = army 
		}
		name=XSM_wu_qi
		portraits={
			army={
				small="GFX_idea_generic_army_asia_1"
			}
		}
	}
	XSM_may_chongan={
		advisor={
			slot = air_chief
			idea_token = XSM_may_chongan_air_chief
			on_add = {
				set_temp_variable = { character = token:XSM_may_chongan}
				set_temp_variable = { slot = token:air_chief}

				air_chief_on_add_effect = yes
			} 
			on_remove = {
				set_temp_variable = { character = token:XSM_may_chongan}
				set_temp_variable = { slot = token:air_chief}

				air_chief_on_remove_effect = yes
			} 
			allowed  = {
					original_tag  = XSM
				}
				traits  = {
					air_chief_reform_2 
				}
		}
		name=XSM_may_chongan
		portraits={
			army={
				small="GFX_idea_generic_air_asia_1"
			}
		}
	}
	XSM_ma_hongbin={
		advisor={
			slot = army_chief
			idea_token = XSM_ma_hongbin_army_chief
			on_add = {
				set_temp_variable = { character = token:XSM_ma_hongbin}
				set_temp_variable = { slot = token:army_chief}

				army_chief_on_add_effect = yes
			} 
			on_remove = {
				set_temp_variable = { character = token:XSM_ma_hongbin}
				set_temp_variable = { slot = token:army_chief}

				army_chief_on_remove_effect = yes
			} 
			allowed  = {
					original_tag  = XSM
				}
				traits  = {
					army_chief_defensive_2 
				}
		}
		name=XSM_ma_hongbin
		portraits={
			army={
				small="GFX_idea_generic_army_asia_3"
			}
		}
	}
	XSM_keng_shoushan={
		advisor={
			slot = theorist
			idea_token = XSM_keng_shoushan_theorist
			on_add = {
				set_temp_variable = { character = token:XSM_keng_shoushan}
				set_temp_variable = { slot = token:theorist}

				theorist_on_add_effect = yes
			} 
			on_remove = {
				set_temp_variable = { character = token:XSM_keng_shoushan}
				set_temp_variable = { slot = token:theorist}

				theorist_on_remove_effect = yes
			} 
			allowed  = {
					original_tag  = XSM
				}
				available  = {
					#has_country_flag = can_theorist_army
				}
				research_bonus  = {
					land_doctrine  = 0.070
				}
				traits  = {
					military_theorist 
				}
				ledger  = army 
		}
		name="XSM_keng_shoushan"
		portraits={
			army={
				small="GFX_idea_generic_army_asia_4"
			}
		}
	}
	XSM_ma_buqing={
		advisor={
			slot = army_chief
			idea_token = XSM_ma_buqing_army_chief
			on_add = {
				set_temp_variable = { character = token:XSM_ma_buqing}
				set_temp_variable = { slot = token:army_chief}

				army_chief_on_add_effect = yes
			} 
			on_remove = {
				set_temp_variable = { character = token:XSM_ma_buqing}
				set_temp_variable = { slot = token:army_chief}

				army_chief_on_remove_effect = yes
			} 
			allowed  = {
					original_tag  = XSM
				}
				traits  = {
					army_chief_reform_2 
				}
		}
		name=XSM_ma_buqing
		portraits={
			army={
				small="GFX_idea_generic_army_asia_1"
			}
		}
	}
#manually migrated ministers
	XSM_fang_jing = {
		name = XSM_fang_jing
		portraits = {
			#civilian={
			#	large = GFX_idea_generic_political_advisor_asia_1
			#}
		}
		advisor = {
			slot = foreign_minister
			idea_token = XSM_fang_jing_foreign_minister
			on_add = {
				set_temp_variable = { character = token:XSM_fang_jing}
				set_temp_variable = { slot = token:foreign_minister}

				foreign_minister_on_add_effect = yes
			} 
			on_remove = {
				set_temp_variable = { character = token:XSM_fang_jing}
				set_temp_variable = { slot = token:foreign_minister}

				foreign_minister_on_remove_effect = yes
			} 
			
			allowed = {
				original_tag = XSM
			}
			
			traits = { smooth_talking_charmer }
				
		}
	}
	XSM_zi_shen = {
		name = XSM_zi_shen
		portraits = {
			#civilian={
			#	large = GFX_idea_generic_political_advisor_asia_2
			#}
		}
		advisor = {
			slot = foreign_minister
			idea_token = XSM_zi_shen_foreign_minister
			on_add = {
				set_temp_variable = { character = token:XSM_zi_shen}
				set_temp_variable = { slot = token:foreign_minister}

				foreign_minister_on_add_effect = yes
			} 
			on_remove = {
				set_temp_variable = { character = token:XSM_zi_shen}
				set_temp_variable = { slot = token:foreign_minister}

				foreign_minister_on_remove_effect = yes
			} 
			
			allowed = {
				original_tag = XSM
			}
			
			traits = { backroom_backstabber }
			
				
		}
	}
	XSM_li_shiqun = {
		name = XSM_li_shiqun
		portraits = {
			#civilian={
			#	large = generic_political_advisor_asia_3
			#}
		}
		advisor = {
			slot = interior_minister
			idea_token = XSM_li_shiqun_interior_minister
			on_add = {
				set_temp_variable = { character = token:XSM_li_shiqun}
				set_temp_variable = { slot = token:interior_minister}

				interior_minister_on_add_effect = yes
			} 
			on_remove = {
				set_temp_variable = { character = token:XSM_li_shiqun}
				set_temp_variable = { slot = token:interior_minister}

				interior_minister_on_remove_effect = yes
			} 
			
			allowed = {
				original_tag = XSM
			}
			
			traits = { prince_of_terror }
		}
	}
}
