leader_traits = {

	#Political leader traits
	


	foreign_leader = {
		random = no
		stability_factor = -0.10

		ai_will_do = {
			factor = 0
		}
	}

	former_ace_pilot = {
		random = no
		experience_gain_air = 0.05

		ai_will_do = {
			factor = 0
		}
	}

	italian_royalty = {
		random = no
		stability_factor = 0.02
		experience_gain_navy_factor = 0.05
		ai_strategy = {
			type = befriend
			id = "ITA"
			value = 200
		}

		ai_will_do = {
			factor = 0
		}
	}

	german_royalty = {
		random = no
		stability_factor = 0.02
		political_power_factor = 0.1
		ai_strategy = {
			type = befriend
			id = "GER"		
			value = 200
		}

		ai_will_do = {
			factor = 0
		}
	}
	
	#Manufacturers
	
	mediterranean_fleet_naval_manufacturer = { #Shorter range (since the fleet is designed to move in the Mediterranean only), but greater emphasis on speed and armor
		random = no
		equipment_bonus = {
			screen_ship = {
				naval_range = -0.10
				armor_value = 0.10
				naval_speed = 0.10
			}
			light_cruiser = {
				naval_range = -0.10
				armor_value = 0.10
				naval_speed = 0.10
			}
		}
		
		ai_will_do = {
			factor = 0
		}
	}
	
	jet_scientist = {
		random = no
		sprite = 14
		experience_gain_air = 0.007
		
		ai_will_do = {
			factor = 0
		}
	}
}