leader_traits = {
	siege_expert = { #this is a theorist trait, eeeeeh, shouldnt really give much soft attack bonuses
		sprite = 14
		experience_gain_army = 0.05
		planning_speed = -0.1
		command_power_gain_mult = -0.2
		
		equipment_bonus = {
			railartillery_equipment = {
				instant = yes
				soft_attack = 0.05
			}
			Hvartillery_equipment = {
				instant = yes
				soft_attack = 0.05
			}
		}
		
		
		ai_will_do = {
			factor = 0
		}
	}
}
### EOF ###