#custom_trigger_tooltip = { tooltip = STABILITY_DECLINE check_variable = { Root.modifier@stability_weekly < 0 } }
#custom_trigger_tooltip = { tooltip = WAR_SUPPORT_DECLINE check_variable = { Root.modifier@war_support_weekly < 0 } }
#Code is optimized, except the the Chinese Road decisions and the building slots. need to think of something for it first. 

political_actions = {
	EAI_diplomacy_ignore_borders_DECISION = {
		allowed = {}
    
		available = {

		}
    
		visible = {
			is_ai = no
			
			NOT = { has_global_flag = EAI_ignore_borders_@ROOT }
			
			any_allied_country = { is_ai = yes }
		}
    
		cost = 0
    
		days_re_enable = 0
    
		complete_effect = {
			hidden_effect = {
				set_global_flag = EAI_ignore_borders_@ROOT
			}
		}
    
		ai_will_do = {
			factor = 0
		}
	}
	USA_allied_factories = {
		icon = generic_political_discourse
		
		allowed = {
			#always = no 
		}

		available = {
			is_in_faction_with = USA 
		}

		visible = {
			is_in_faction_with = USA 
			USA = { has_war = yes }
			has_war = yes 
		}

		fire_only_once = no

		days_remove = -1
		

		cost = 5
		
		modifier = {
			consumer_goods_factor = 0.05
		}
		
		complete_effect = {
			set_variable = { amount_offmap_factories = USA.num_of_military_factories }
			multiply_variable = { amount_offmap_factories = 0.1 } #give 10% of US MIC
			
			add_offsite_building = { type = arms_factory level = amount_offmap_factories }
		}
		
		remove_effect = {
			multiply_variable = { amount_offmap_factories = -1 } 
			add_offsite_building = { type = arms_factory level = amount_offmap_factories }
			clear_variable = amount_offmap_factories
		}

		ai_will_do = {
			base = 1000
		}
	}
	
	war_moving_the_capital = {
		icon = generic_political_discourse
		
		allowed = {
			always = no 
		}

		available = {
			capital_scope = {
				any_neighbor_state = {
					ROOT = {
						any_enemy_country = {
							divisions_in_state = {
								size > 0
								state = PREV.PREV
							}
						}
					}
				}
			}
		}

		visible = {
			
		}

		fire_only_once = no

		days_remove = 0

		cost = 5
		
		complete_effect = {
			move_capital = yes
		}

		ai_will_do = {
			base = 1000
		}
	}
	
	targeted_race_for_the_bomb = {
		icon = generic_research

		allowed = {
			always = no
		}

		available = {
			#Target is FROM
			has_tech = atomic_research
			NOT = { 
				has_global_flag = first_nuke_dropped 
				has_idea = race_for_the_bomb
			}
		}

		#target_trigger = {
		#	#Target is FROM
		#	FROM = {
		# 		NOT = { is_in_faction_with = ROOT }
		#		has_tech = nuclear_reactor
		#		nuclear_reactor > 0
		#	}
		#}

		visible = {
            #Target is FROM
            has_tech = atomic_research
			NOT = { 
				has_global_flag = first_nuke_dropped 
				has_idea = race_for_the_bomb
			}
            FROM = {
        		NOT = { is_in_faction_with = ROOT }
				has_tech = nuclear_reactor
				nuclear_reactor > 0
			}
		}

		complete_effect = {
			set_country_flag = racing_for_the_bomb
			add_ideas = race_for_the_bomb
		}

		ai_will_do = {
			factor = 1
			modifier = {
				factor = 0
				any_other_country = { has_tech = nukes }
			}
		}
	}
	
	prevent_government_collapse_at_any_cost = {# ST recovery when ST < 0.3
		icon = decision_revolt

		available = {
			has_stability < 0.4	
			has_war = no
		}

		visible = {
			has_stability < 0.4	
			has_war = no
		}

		fire_only_once = no

		modifier = {
			stability_weekly = 0.02
			consumer_goods_factor = 0.08
			industrial_capacity_factory = -0.1
			political_power_gain = -1
			production_factory_max_efficiency_factor = -0.04
			production_factory_efficiency_gain_factor = -0.04
		}

		days_remove = 70
		days_re_enable = 100

		cost = 50

		complete_effect = {
			add_stability = 0.05
		}

		ai_will_do = {
			base = 0
			modifier = {
				add = 400
				has_stability < 0.25
			}
		}
	}
	
	promises_of_peace = {# Conversion WS to ST.
		icon = generic_political_discourse

		available = {
			has_war = no
			has_war_support > 0.3
		}

		visible = {
			has_war = no
			has_war_support > 0.3
		}

		remove_trigger = {
			has_war = yes
		}

		fire_only_once = no

		modifier = {
			stability_weekly = 0.01
			war_support_weekly = -0.01
			political_power_gain = -0.10
		}

		days_remove = 90
		days_re_enable = 120

		cost = 50

		complete_effect = {

		}

		ai_will_do = {
			base = 0
			modifier = {
				add = 400
				has_stability < 0.65
				has_war_support > 0.3
			}
		}
	}

	focus_on_peoples_problems = {# Short time ST maintain
		icon = generic_political_discourse

		available = {
			has_war = no
			has_stability > 0.3
		}

		visible = {
			has_war = no
			has_stability > 0.3
		}

		remove_trigger = {
			OR = {
				has_stability > 0.90
				has_war = yes
			}
		}

		fire_only_once = no

		modifier = {
			stability_weekly = 0.01
			political_power_gain = -0.1
		}

		days_remove = 70
		days_re_enable = 180

		cost = 50

		complete_effect = {

		}

		ai_will_do = {
			base = 0
			modifier = {
				add = 400
				has_stability < 0.65

			}
		}
	}
	POL_go_allies_again = {
	
		icon = generic_industry

		allowed = {
			original_tag = POL
		}

		available = {
			has_war = yes
			surrender_progress > 0.7
			#num_of_controlled_states < 2
		}
		
		activation = {
			original_tag = POL
			#num_of_controlled_states < 2
			has_war_with = GER
			surrender_progress > 0.7
			ENG = { has_war_with = GER }
		}
		
		is_good = yes

		visible = {
			
		}
		
		days_remove = 1
		days_mission_timeout = 1
		
		complete_effect = {
			ENG = { add_to_faction = POL }
			POL = { remove_ideas = POL_never_surrender }
		}
	}
	
	AI_mobilization = {
		icon = generic_political_discourse

		available = {
			is_ai = yes
		}

		visible = {
			always = no
		}

		fire_only_once = no

		days_remove = 30

		cost = 0
		
		modifier = {
			mobilization_speed = 0.5
		}

		complete_effect = {
			add_manpower = 10000
		}

		ai_will_do = {
			base = 500
		}
	}
	
	AI_repair = {
		icon = generic_political_discourse

		available = {
			is_ai = yes
			has_damaged_buildings = yes
			has_civil_war = no
		}

		visible = {
			is_ai = yes
			has_damaged_buildings = yes
			has_civil_war = no
		}

		fire_only_once = no

		days_remove = 90

		cost = 0
		
		modifier = {
			industry_free_repair_factor = 2
			industry_repair_factor = 2
		}

		complete_effect = {
			
		}

		ai_will_do = {
			base = 500
		}
	}
	
}

economy_decisions = {

	dismantle_maginot = {
		icon = generic_construction

		allowed = {
			NOT = { OR = { tag = GER tag = FRA } }
		}

		cost = 50
		fire_only_once = yes

		days_remove = 200

		available = {
			controls_state = 28
			if = {
				limit = {
					FRA = { has_completed_focus = FRA_extend_the_maginot_line }
				}
				controls_state = 18
				controls_state = 29
			}
		}

		visible = {
			28 = { OWNER = { has_war_with = ROOT } }
			NOT = { is_in_faction_with = FRA }
		}

		modifier = {
			consumer_goods_factor = 0.05
		}

		complete_effect = {
			28 = {
				set_building_level = {
					type = bunker
					level = 2
					province = {
						all_provinces = yes
						level > 2
					}
				}
			}
			if = {
				limit = {
					FRA = { has_completed_focus = FRA_extend_the_maginot_line }
				}
				18 = {
					set_building_level = {
						type = bunker
						level = 2
						province = {
							all_provinces = yes
							level > 2
						}
					}
				}
				29 = {
					set_building_level = {
						type = bunker
						level = 2
						province = {
							all_provinces = yes
							level > 2
						}
					}
				}
			}
		}
	}		
}

propaganda_efforts = {

	bravado_hold = {
		icon = generic_prepare_civil_war

		available = {
			NOT = { has_country_flag = war_propaganda_campaign_running }
			#has_offensive_war = no
		}
		visible = {
			surrender_progress > 0.0
		}
		ai_will_do = {
			base = 0
		}

		modifier = {
			#command_power_gain = -0.5
			army_org_factor = -0.05 
		}

		complete_effect = {
			hidden_effect = {
				add_command_power = -75 
				set_country_flag = no_loss_bravado
			}
		}
		custom_cost_trigger = {
			command_power > 74.9
		}
		custom_cost_text = cp_atleast_75
		
		days_remove = 90
		
		remove_effect = { 
			clr_country_flag = no_loss_bravado
		}
	}

		
	war_propaganda = {
		icon = generic_prepare_civil_war

		available = {
			NOT = { has_country_flag = war_propaganda_campaign_running }
			threat > 0.3
			has_offensive_war = no
		}

		visible = {
			threat > 0.3
			has_offensive_war = no
		}

		fire_only_once = no
		cost = 100
		
		days_remove = 90
		days_re_enable = 270

		modifier = {
			war_support_weekly = 0.01
			stability_weekly = 0.003
		}

		complete_effect = {
			set_country_flag = war_propaganda_campaign_running
		}
		
		remove_effect = {
			clr_country_flag = war_propaganda_campaign_running
		}
		
		remove_trigger = {
			has_war_support > 0.89
		}

		ai_will_do = {
			base = 0
			modifier = {
				add = 200
				has_war_support < 0.5
				has_war = yes
			}
		}
	}
	
	we_fight_united = {# +WS if in war and have high ST
		icon = generic_prepare_civil_war

		available = {
			NOT = { has_country_flag = we_fight_united }
			has_stability > 0.3
			has_war = yes
		}

		visible = {
			has_war = yes
			has_war_support < 1
		}

		fire_only_once = no
		cost = 100
		
		days_remove = 90
		days_re_enable = 180

		modifier = {
			war_support_weekly = 0.01
			political_power_factor = 0.15
			stability_weekly = 0.005
		}

		complete_effect = {
			set_country_flag = we_fight_united
		}
		remove_effect = {
			clr_country_flag = we_fight_united
		}

		ai_will_do = {
			base = 0
			modifier = {
				add = 400
				has_war = yes
				is_major = yes
				has_stability < 0.70
			}
		}
	}
	

	preliminary_war_propaganda = {	# Preliminary war propaganda, while threat is small, no war
		icon = generic_prepare_civil_war

		available = {
			NOT = { has_country_flag = preliminary_war_propaganda }
			has_war = no
			has_war_support < 0.3
		}

		visible = {
			threat > 0.02
			threat < 0.3
			has_war = no
		}

		fire_only_once = no
		cost = 50
		
		days_remove = 135
		days_re_enable = 225

		modifier = {
			war_support_weekly = 0.005
			political_power_factor = -0.05
		}

		complete_effect = {
			set_country_flag = preliminary_war_propaganda
		}
		remove_effect = {
			clr_country_flag = preliminary_war_propaganda
		}
		remove_trigger = {
			has_war_support > 0.89
		}

		ai_will_do = {
			base = 0
			modifier = {
				add = 400
				has_war_support < 0.4
				has_war = no
			}
		}
	}

	#Justify our war, if offensive war and low WS
	justify_our_war = {
		icon = generic_prepare_civil_war

		available = {
			NOT = { has_country_flag = justify_our_war }
			has_war = yes
			has_offensive_war = yes
			has_war_support < 0.5
		}

		visible = {
			has_offensive_war = yes
			has_war_support < 0.5
		}

		fire_only_once = no
		cost = 150
		
		days_remove = 70
		days_re_enable = 140

		modifier = {
			war_support_weekly = 0.01
			political_power_factor = -0.15
			stability_weekly = -0.01
		}

		complete_effect = {
			set_country_flag = justify_our_war
		}
		
		remove_effect = {
			clr_country_flag = justify_our_war
		}
		
		remove_trigger = {
			has_war_support > 0.89
		}

		ai_will_do = {
			base = 0
			modifier = {
				add = 200
				has_offensive_war = yes
				has_war_support < 0.3
			}
		}
	}
	
	#Propaganda campaign against a country in offensive that has caused a lot of tension and started a war
	war_propaganda_against_warmonger = {
		icon = generic_prepare_civil_war
		
		available = {
			NOT = { has_country_flag = war_propaganda_campaign_running }
			FROM = {
				OR = {
					has_offensive_war = yes
					is_justifying_wargoal_against = ROOT
				}
			}
		}

		visible = {
			FROM = {
				NOT = { 
					is_neighbor_of = ROOT 
					has_government = ROOT
				}
				OR = {
					AND = {
						NOT = { has_government = ROOT }
						has_offensive_war = yes
						has_added_tension_amount > 15
					}
					is_justifying_wargoal_against = ROOT
					has_offensive_war_with = ROOT
				}
			}
		}

		#target_trigger = {
		#	FROM = {
		#		NOT = { 
		#			is_neighbor_of = ROOT 
		#			has_government = ROOT
		#		}
		#		OR = {
		#			AND = {
		#				NOT = { has_government = ROOT }
		#				has_offensive_war = yes
		#				has_added_tension_amount > 15
		#			}
		#			is_justifying_wargoal_against = ROOT
		#			has_offensive_war_with = ROOT
		#		}
		#	}
		#}

		days_remove = 90

		fire_only_once = yes
		cost = 75

		modifier = {
			war_support_weekly = 0.008
		}

		complete_effect = {
			set_country_flag = war_propaganda_campaign_running
		}
		
		remove_effect = {
			clr_country_flag = war_propaganda_campaign_running
			
			set_temp_variable = { FROM_ws_amount = 0 }
			
			#Amount of damage done
			add_to_temp_variable = { FROM_ws_amount = From.num_occupied_states }
			
			#Tension created
			set_temp_variable = { tempvar = From.has_added_tension_amount }
			if = {
				limit = { 
					check_variable = { tempvar > 99 }
				}
				set_temp_variable = { tempvar = 100 }
			}
			add_to_temp_variable = { FROM_ws_amount = tempvar }
			
			#Size
			add_to_temp_variable = { FROM_ws_amount = From.num_core_states }
			
			divide_temp_variable = { FROM_ws_amount = 2000 }	
			
			custom_effect_tooltip = FROM_PROPAGANDA_AMOUNT
			add_war_support = FROM_ws_amount
		}
		
		remove_trigger = {
			has_war_support > 0.89
		}

		ai_will_do = {
			base = 0
			modifier = {
				add = 200
				has_war_support < 0.45
			}
		}
	}
	
	#Propaganda campaign against a neighbor
	war_propaganda_against_warmonger_neighbor = {
		icon = generic_prepare_civil_war

		available = {
			NOT = { has_country_flag = war_propaganda_campaign_running }
			FROM = {
				OR = {
					has_offensive_war = yes 
					is_justifying_wargoal_against = ROOT
					has_war_with = ROOT
				}
			}
		}

		visible = {
			FROM = {
				NOT = { 
					tag = ROOT
					tag = OVERLORD
					has_government = ROOT 
					is_in_faction_with = ROOT
				} 
				is_neighbor_of = ROOT
				if = {
					limit = {
						is_puppet = yes 
					}
					compare_autonomy_state > autonomy_puppet
				}
				OR = {
					AND = {
						NOT = { has_government = ROOT }
						has_offensive_war = yes
					}
					is_justifying_wargoal_against = ROOT
					has_war_with = ROOT
				}
				has_added_tension_amount > 5
			}
		}

		#target_trigger = {
		#	FROM = {
		#		NOT = { is_in_faction_with = ROOT }
		#		is_neighbor_of = ROOT
		#		OR = {
		#			AND = {
		#				NOT = { has_government = ROOT }
		#				has_offensive_war = yes
		#			}
		#			is_justifying_wargoal_against = ROOT
		#			has_war_with = ROOT
		#		}
		#		has_added_tension_amount > 5
		#	}
		#}

		days_remove = 90
		days_re_enable = 180

		cost = 50

		modifier = {
			war_support_weekly = 0.008
		}

		complete_effect = {
			set_country_flag = war_propaganda_campaign_running
		}
		
		remove_effect = {
			clr_country_flag = war_propaganda_campaign_running
			
			set_temp_variable = { FROM_ws_amount = 0 }
			
			#Amount of damage done
			add_to_temp_variable = { FROM_ws_amount = From.num_occupied_states }
			
			#Tension created
			set_temp_variable = { tempvar = From.has_added_tension_amount }
			if = {
				limit = { 
					check_variable = { tempvar > 99 }
				}
				set_temp_variable = { tempvar = 100 }
			}
			add_to_temp_variable = { FROM_ws_amount = tempvar }
			
			#Size
			add_to_temp_variable = { FROM_ws_amount = From.num_core_states }
			
			divide_temp_variable = { FROM_ws_amount = 2000 }	
			
			custom_effect_tooltip = FROM_PROPAGANDA_AMOUNT
			add_war_support = FROM_ws_amount
		}
		
		remove_trigger = {
			has_war_support > 0.89
		}
		ai_will_do = {
			base = 0
			modifier = {
				add = 400
				has_war_support < 0.6
			}
		}
	}
	
	#Clash of gods
	manifest_our_destiny  = {
		icon = generic_prepare_civil_war

		available = {
			NOT = { has_country_flag = manifest_our_destiny  }
			has_stability > 0.7
			has_war_support > 0.7
			has_war = yes
			is_major = yes
			any_enemy_country = { is_major = yes }
		}

		visible = {
			has_war_support > 0.7
			has_stability > 0.7
			has_war = yes
			is_major = yes
			any_enemy_country = { is_major = yes }
		}

		fire_only_once = no
		cost = 175
		
		days_remove = 90
		days_re_enable = 180 #Changed from THIRTY

		modifier = {
			army_core_attack_factor = 0.05
			army_core_defence_factor = 0.05
			war_support_weekly = 0.001
			stability_weekly = 0.001
		}

		complete_effect = {
			set_country_flag = manifest_our_destiny 
		}
		
		remove_effect = {
			clr_country_flag = manifest_our_destiny 
		}

		ai_will_do = {
			base = 0
			modifier = {
			add = 40
				has_stability > 0.7
				has_war_support > 0.7
				has_war = yes
				is_major = yes
				any_enemy_country = { is_major = yes }
			}
		}
	}
	
	Military_Parade = {
		icon = GFX_decision_generic_tank
		
		available = {
			custom_trigger_tooltip = {
				tooltip = Military_Parade_tt 
				Capital_scope = {
					OWNER = {
						divisions_in_state = {
							size > 0
							state = PREV
						}
					}
				}
			
			}
			hidden_trigger = {
				command_power > 49.9		
			}
		}
		fixed_random_seed = no
		remove_trigger = {
		}

		fire_only_once = no
		cost = 0
		
		days_remove = 30
		days_re_enable = 50
		
		modifier = {
			civilian_factory_use = 3
			command_power_gain = -0.25
		}

		complete_effect = {
			hidden_effect = {
				add_command_power = -50 
			}
		}
		
		remove_effect = { 
			add_political_power = 50
			custom_effect_tooltip = Military_Effect_tt
			hidden_effect = {
### We might want the political swing to not impact these ideologies, my thought is authoritarian ideologies will tend to use military might to gain power, it also represents a small cost in taking the action			  
				random_list = {
					30 = {
						add_popularity = {
							ideology = fascism
							popularity = 0.02
						}
					}
					20 = { #communism and jingoism are NOT best buds and communists simply weren't excited by military might, unless they were in power
						if = {
							limit = { has_government = communism }
							add_popularity = {
								ideology = communism
								popularity = 0.02
							}
						}
						else = {
							add_popularity = {
								ideology = communism
								popularity = -0.02
							}								
						}							
					}
					20 = {
						add_popularity = {
							ideology = neutrality
							popularity = 0.02
						}
					}
					5 = {
						if = {
							limit = { NOT = { has_government = communism } }
							add_popularity = {
								ideology = monarchism
								popularity = 0.02
							}
						}
					}
					5 = {
						add_war_support = 0.01
					}
					5 = {
						add_war_support = 0.02
					}
					5 = {
						add_war_support = 0.03
					}
					5 = {
						add_war_support = 0.04
					}
					5 = {
						add_war_support = 0.05
					}
				}
			}
		}
		
		ai_will_do = {
			base = 25 ## lowered so the AI takes some smaller operations
			modifier = {
				factor = 0
				num_of_civilian_factories < 10
			}
			modifier = {
				add = -20
				has_political_power > 150
			}			
		}
		
		custom_cost_trigger = {
			command_power > 49.9
		}
		custom_cost_text = cp_atleast_50
	}
}

operations = {
	HUN_slovak_war = {
		icon = generic_prepare_civil_war
		
		allowed = {
			always = no 
		}

		available = {
			SLO = {
				exists = yes 
				owns_state = 73 
				controls_state = 73
			}
		}

		visible = {
			
		}

		fire_only_once = yes

		days_remove = 1

		cost = 15
		
		complete_effect = {
			start_border_war = {
				change_state_after_war = yes
				attacker = {
					state = 154
					num_provinces = 1
					#on_win = japan_border_conflict.2
					#on_lose = japan_border_conflict.3
					#on_cancel = japan_border_conflict.4
				}
							
				defender = {
					state = 73
					num_provinces = 2
					#on_win = japan_border_conflict.3
					#on_lose = japan_border_conflict.2
					#on_cancel = japan_border_conflict.4
				}
			}
		}

		ai_will_do = {
			base = 500
		}
	}
	blow_suez_canal = {
		icon = GFX_decision_generic_ignite_civil_war

		available = {
			853 = { 
				is_fully_controlled_by = ROOT 
				has_ROOT_at_least_1_div_in_current_state_scope = yes 
			}
		}
	
		visible = {
			has_war = yes
			NOT = { has_global_flag = SUEZ_CANAL_BLOCKED }
			853 = { OWNER = { has_war_with = ROOT } }
		}
	
		fire_only_once = no
		cost = 75
		
		days_remove = 30
	
		modifier = {
			civilian_factory_use = 5
		}

		complete_effect = {
			hidden_effect = {
				if = {
					limit = {
						NOT = {
							owns_state = 853
						}
					}
					random_other_country = {
						limit = {
							owns_state = 853
						}
						country_event = { id = generic.12 days = 1 }
					}
				}
			}
		}
	
		remove_effect = {
			if = {
				limit = {
					853 = { 
						is_fully_controlled_by = ROOT 
						has_ROOT_at_least_1_div_in_current_state_scope = yes 
					}
				}
				set_country_flag = blew_up_suez
				set_global_flag = SUEZ_CANAL_BLOCKED
				country_event = { id = wtt_news.40 hours = 6}
			}
			effect_tooltip = {
				if = {
					limit = {
						ENG = {
							owns_state = 853
						}
					}
					add_war_support = -0.05
					add_stability = -0.05
				}
			}
		}
		
		ai_will_do = {
			factor = 1
			modifier = {
				factor = 200
				tag = ENG
				452 = {
					CONTROLLER = {
						has_war_with = ROOT 
					}
				}
				OR = {
					447 = {
						CONTROLLER = {
							has_war_with = ROOT 
						}
					}
					446 = {
						CONTROLLER = {
							has_war_with = ROOT 
						}
					}
				}
			}
		}
	}

	blow_panama_canal = {
		icon = GFX_decision_generic_ignite_civil_war

		available = {
			685 = { 
				is_fully_controlled_by = ROOT 
				has_ROOT_at_least_1_div_in_current_state_scope = yes 
			}
		}
	
		visible = {
			has_war = yes
			NOT = { has_global_flag = PANAMA_CANAL_BLOCKED }
			685 = { OWNER = { has_war_with = ROOT } }
		}
	
		fire_only_once = no
		cost = 75
		
		days_remove = 30
	
		modifier = {
			civilian_factory_use = 5
		}

		complete_effect = {
			hidden_effect = {
				if = {
					limit = {
						NOT = {
							owns_state = 685
						}
					}
					random_country = {
						limit = {
							owns_state = 685
						}
						country_event = { id = generic.13 days = 1 }
					}
				}
			}
		}
	
		remove_effect = {
			if = {
				limit = {
					has_full_control_of_state = 685
				}
				set_country_flag = blew_up_panama
				set_global_flag = PANAMA_CANAL_BLOCKED
				country_event = { id = wtt_news.41 hours = 6}
			}
			effect_tooltip = {
				if = {
					limit = {
						USA = { owns_state = 685 }
					}
					add_war_support = -0.05
					add_stability = -0.05
				}
			}
		}
		
		ai_will_do = {
			factor = 1
		}
	}
	
	War_games_navy = {
		icon = GFX_decision_generic_naval
		fixed_random_seed = no
		available = {
			hidden_trigger = { command_power > 74.9 }
			has_war = no
			has_navy_size = { size > 0 }
		}

		visible = {
			has_war = no
			any_owned_state = { is_coastal = yes }
		}

		remove_trigger = {
			has_war = yes
		}

		fire_only_once = no
		#cost = 25
		
		days_remove = 70
		days_re_enable = 50
		
		modifier = {
			experience_gain_navy = 0.14
			command_power_gain = -0.5
		}

		complete_effect = {
			hidden_effect = {
				add_command_power = -75 
			}
		}
		
		remove_effect = { 
			navy_experience = 5
			random_navy_leader = {
				if = {
					limit = {
						is_assigned = yes
						not = { has_trait = Master_theoretician }
					}
					add_unit_leader_trait = Master_theoretician
				}
				else_if = {
					limit = {
						not = { has_trait = Master_theoretician }
					}
					add_unit_leader_trait = Master_theoretician
				}
			}
		}
		custom_cost_trigger = {
			command_power > 74.9
		}
		custom_cost_text = cp_atleast_75
	}
	
	War_games_Airforce = {
		icon = GFX_decision_generic_air
		fixed_random_seed = no
		available = {
			hidden_trigger = { command_power > 49.9 }
			has_war = no
			has_deployed_air_force_size = { size > 0 }
		}

		visible = {
			has_war = no
		}

		remove_trigger = {
			has_war = yes
		}

		fire_only_once = no
		#cost = 25
		
		days_remove = 70
		days_re_enable = 50
		
		modifier = {
			experience_gain_air = 0.14
			command_power_gain = -0.5
		}

		complete_effect = {
			hidden_effect = {
				add_command_power = -50 
			}
		}
		
		remove_effect = { 
			air_experience = 5
			custom_effect_tooltip = War_games_Airforce_tt
			hidden_effect = {
				random_list = {
					10 = {
						add_ace = {
							name = Wing
							surname = "alpha"
							callsign = Leader
							type = gamer_ace
							is_female = no
						}
					}
					10 = {
						add_ace = {
							name = Wing
							surname = "Beta"
							callsign = Leader
							type = gamer_ace
							is_female = no
						}
					}
					10 = {
						add_ace = {
							name = Wing
							surname = "Delta"
							callsign = Leader
							type = gamer_ace
							is_female = no
						}
					}
					10 = {
						add_ace = {
							name = Wing
							surname = "Gamma"
							callsign = Leader
							type = gamer_ace
							is_female = no
						}
					}
					10 = {
						add_ace = {
							name = Wing
							surname = "Theta"
							callsign = Leader
							type = gamer_ace
							is_female = no
						}
					}
					## no ace for you
					50 = { } 
				}
			}
		}
		custom_cost_trigger = {
			command_power > 49.9
		}
		custom_cost_text = cp_atleast_50
	}
	War_games_Army = {
		icon = GFX_decision_generic_tank
		
		available = {
			hidden_trigger = { command_power > 99.9 }
			has_war = no
			num_divisions > 0
		}
		fixed_random_seed = no
		visible = {
			has_war = no
			any_unit_leader = {
				OR = {
					has_trait = Bad_General
					has_trait = Terrible_General
					has_trait = Incompetent_General
					has_trait = Mindless_General
				}
			}
		}

		remove_trigger = {
			has_war = yes
		}

		fire_only_once = no
		#cost = 25
		
		days_remove = 70
		days_re_enable = 50
		
		modifier = {
			experience_gain_army = 0.14
			command_power_gain = -0.5
		}

		complete_effect = {
			hidden_effect = {
				add_command_power = -100 
			}
		}
		
		remove_effect = { 
			army_experience = 5
			random_army_leader = {
				limit = {
					OR = {
						has_trait = Bad_General
						has_trait = Terrible_General
						has_trait = Incompetent_General
						has_trait = Mindless_General
					}
				}
				if = {
					limit = {
						is_assigned = yes
						OR = {
							has_trait = Bad_General
							has_trait = Terrible_General
							has_trait = Incompetent_General
							has_trait = Mindless_General
						}
					}					
					if = {
						limit = {
							has_trait = Bad_General
						}
						remove_unit_leader_trait = Bad_General
						add_unit_leader_trait = Decent_General
					}
					else_if = {
						limit = {
							has_trait = Terrible_General
						}
						remove_unit_leader_trait = Terrible_General
						add_unit_leader_trait = Bad_General
					}
					else_if = {
						limit = {
							has_trait = Incompetent_General
						}
						remove_unit_leader_trait = Incompetent_General
						add_unit_leader_trait = Terrible_General
					}					
					else_if = {
						limit = {
							has_trait = Mindless_General
						}
						remove_unit_leader_trait = Mindless_General
						add_unit_leader_trait = Incompetent_General
					}	
				}
				else_if = {
					limit = {
						OR = {
							has_trait = Bad_General
							has_trait = Terrible_General
							has_trait = Incompetent_General
							has_trait = Mindless_General
						}
					}				
					if = {
						limit = {
							has_trait = Bad_General
						}
						remove_unit_leader_trait = Bad_General
						add_unit_leader_trait = Decent_General
					}
					else_if = {
						limit = {
							has_trait = Terrible_General
						}
						remove_unit_leader_trait = Terrible_General
						add_unit_leader_trait = Bad_General
					}
					else_if = {
						limit = {
							has_trait = Incompetent_General
						}
						remove_unit_leader_trait = Incompetent_General
						add_unit_leader_trait = Terrible_General
					}				
					else_if = {
						limit = {
							has_trait = Mindless_General
						}
						remove_unit_leader_trait = Mindless_General
						add_unit_leader_trait = Incompetent_General
					}		
				}
			}
		}
		custom_cost_trigger = {
			command_power > 99.9
		}
		custom_cost_text = cp_atleast_100
	}
	train_command = {
		icon = generic_prepare_civil_war
		ai_will_do = {
			factor = 1
		}
		available = {
			hidden_trigger = {  
				has_army_experience > 74.9 
				OR = {
					has_air_experience > 29.9
					has_navy_experience > 29.9
				}
			}			
		}

		visible = {
			not = { 
				has_idea = CHI_incompetent_officers 
				has_idea = cmd_increase10
			}
		}

		remove_trigger = {
		}

		fire_only_once = no		
		
		days_remove = 25
		days_re_enable = 100
		
		modifier = {
			training_time_army_factor = 0.25
			planning_speed = -0.10
			military_leader_cost_factor = 0.50 
		}

		complete_effect = {
			if = {
				limit = { has_air_experience > 29.9 }
				hidden_effect = {
					army_experience = -75
					air_experience = -30
				}
			}
			else = {
				hidden_effect = {
					army_experience = -75
					navy_experience = -30
				}
			}
		}
		remove_effect = {
			if = {
				limit = { has_idea = cmd_increase9 }
				swap_ideas = {
					add_idea = cmd_increase10
					remove_idea = cmd_increase9
				}
			}
			else_if = {
				limit = { has_idea = cmd_increase8 }
				swap_ideas = {
					add_idea = cmd_increase9
					remove_idea = cmd_increase8
				}
			}
			else_if = {
				limit = { has_idea = cmd_increase7 }
				swap_ideas = {
					add_idea = cmd_increase8
					remove_idea = cmd_increase7
				}
			}
			else_if = {
				limit = { has_idea = cmd_increase6 }
				swap_ideas = {
					add_idea = cmd_increase7
					remove_idea = cmd_increase6
				}
			}
			else_if = {
				limit = { has_idea = cmd_increase5 }
				swap_ideas = {
					add_idea = cmd_increase6
					remove_idea = cmd_increase5
				}
			}		
			else_if = {
				limit = { has_idea = cmd_increase4 }
				swap_ideas = {
					add_idea = cmd_increase5
					remove_idea = cmd_increase4
				}
			}
			else_if = {
				limit = { has_idea = cmd_increase3 }
				swap_ideas = {
					add_idea = cmd_increase4
					remove_idea = cmd_increase3
				}				
			}	
			else_if = {
				limit = { has_idea = cmd_increase2 }
				swap_ideas = {
					add_idea = cmd_increase3
					remove_idea = cmd_increase2
				}				
			}
			else_if = {
				limit = { has_idea = cmd_increase1 }
				swap_ideas = {
					add_idea = cmd_increase2
					remove_idea = cmd_increase1
				}				
			}
			else_if = {
				limit = { has_idea = cmd_increase }
				swap_ideas = {
					add_idea = cmd_increase1
					remove_idea = cmd_increase
				}				
			}
			else = {
				add_ideas = cmd_increase
			}
		}
		
		ai_will_do = {
			factor = 40
		}
		
		custom_cost_trigger = {
			has_army_experience > 74.9 
			OR = {
				has_air_experience > 29.9
				has_navy_experience > 29.9
			}
		}
		custom_cost_text = army_navy_air_xp
	}

}

special_projects = {

	rebuild_suez_canal = {
		icon = GFX_decision_generic_special_project

		available = {
			has_full_control_of_state = 853
			num_of_civilian_factories > 50
		}
	
		visible = {
			has_global_flag = SUEZ_CANAL_BLOCKED
		}
	
		fire_only_once = no
		cost = 250
		
		days_remove = 365

		modifier = {
			civilian_factory_use = 50
		}
	
		remove_effect = {
			if = {
				limit = {
					has_full_control_of_state = 853
				}
				set_country_flag = rebuilt_suez
				clr_global_flag = SUEZ_CANAL_BLOCKED
				country_event = { id = wtt_news.42 hours = 6}
			}
		}

		ai_will_do = {
			factor = 1
			modifier = {
				factor = 0
				has_navy_size = { size < 100 }
			}
			modifier = {
				factor = 200
				NOT = {
					OR = {
						has_full_control_of_state = 118
						any_other_country = {
							is_in_faction_with = ROOT
							has_full_control_of_state = 118
						}
					}
				}
				OR = {
					ITA = { surrender_progress < 0.1 }
					NOT = { tag = ENG }
				}
				has_full_control_of_state = 447
				has_full_control_of_state = 454
				has_full_control_of_state = 452
				has_full_control_of_state = 456
				has_full_control_of_state = 457
				NOT = { has_country_flag = blew_up_suez }
			}
		}
	}

	rebuild_panama_canal = {
		icon = GFX_decision_generic_special_project

		available = {
			has_full_control_of_state = 685
			304 = { CONTROLLER = { NOT = { has_war_with = ROOT } } }
			num_of_civilian_factories > 80
		}
	
		visible = {
			has_global_flag = PANAMA_CANAL_BLOCKED
		}
	
		fire_only_once = no
		cost = 400
		
		days_remove = 550

		modifier = {
			civilian_factory_use = 80
		}
	
		remove_effect = {
			if = {
				limit = {
					has_full_control_of_state = 685
					304 = { CONTROLLER = { NOT = { has_war_with = ROOT } } }
				}
				set_country_flag = rebuilt_panama
				clr_global_flag = PANAMA_CANAL_BLOCKED
				country_event = { id = wtt_news.43 hours = 6}
			}
		}
		
		ai_will_do = {
			factor = 1
			modifier = {
				factor = 0
				has_navy_size = { size < 100 }
			}
			modifier = {
				factor = 0
				has_country_flag = blew_up_panama
			}
		}
	}
}

war_measures = {

	unite_people_under_goverment = {	# Short time high ST gain if ST > 0.3, short, high cost
		icon = generic_prepare_civil_war

		available = {
			NOT = { has_country_flag = war_propaganda_campaign_running }
			has_stability > 0.3
			has_war = yes
		}

		visible = {
			has_stability > 0.3
			has_war = yes
			has_civil_war = no
		}

		fire_only_once = no
		cost = 30
		
		days_remove = 45
		days_re_enable = 270

		modifier = {
			war_support_weekly = 0.02
			stability_weekly = 0.02
			political_power_factor = 0.1
		}

		complete_effect = {
			set_country_flag = unite_people_under_goverment
		}
		
		remove_effect = {
			clr_country_flag = unite_people_under_goverment
		}

		ai_will_do = {
			base = 0
			modifier = {
				add = 400
				has_stability < 0.80
				has_war = yes
			}
		}
	}

	requisition_trucks = {
		#icon = generic_industry

		available = {
			has_war = yes
		}

		visible = {
			OR = {
				has_idea = war_economy
				has_war = yes
			}
		}

		fire_only_once = no

		days_re_enable = 180
		cost = 50
		
		days_remove = 90
		
		modifier = {
            production_factory_max_efficiency_factor = -0.04
			production_factory_efficiency_gain_factor = -0.04
			industrial_capacity_factory = -0.06
			political_power_factor = -0.05
        }

		complete_effect = {
			add_war_support = -0.07
		}
		
		remove_effect = {
            add_equipment_to_stockpile = {
				type = motorized_equipment_1
				amount = 1800
				producer = CIV
			}
        } 
		
		ai_will_do = {
			factor = 0
		}
	}
	
	requisition_cars = {
		#icon = generic_industry

		available = {
			has_war = yes
		}

		visible = {
			OR = {
				has_idea = war_economy
				has_war = yes
			}
		}

		fire_only_once = no
		cost = 50
		
		days_re_enable = 180
		days_remove = 90
		
		modifier = {
            production_factory_max_efficiency_factor = -0.04
			production_factory_efficiency_gain_factor = -0.04
			industrial_capacity_factory = -0.06
			political_power_factor = -0.05
        }

		complete_effect = {
			add_war_support = -0.07
		}
		
		remove_effect = {
           add_equipment_to_stockpile = {
				type = motorized_lia_equipment_01
				amount = 1500
				producer = CIV
			}
         }
		
		ai_will_do = {
			factor = 0
		}
	}
	
	requisition_motorcycles = {
		#icon = generic_industry

		available = {
			has_war = yes
		}

		visible = {
			OR = {
				has_idea = war_economy
				has_war = yes
			}
		}

		fire_only_once = no
		cost = 50
		
		days_re_enable = 180
		days_remove = 90
		
		modifier = {
            production_factory_max_efficiency_factor = -0.04
			production_factory_efficiency_gain_factor = -0.04
			industrial_capacity_factory = -0.06
			political_power_factor = -0.05
        }

		complete_effect = {
			add_war_support = -0.07
		}
		
		remove_effect = {
			add_equipment_to_stockpile = {
				type = mechanized_equipment_1
				amount = 600
				producer = CIV
			}
        }
		
		ai_will_do = {
			factor = 0	
		}
	}
	
	ration_civilian_petrol = {
		icon = oil
		fixed_random_seed = no
		available = {
			has_war = yes
		}

		visible = {
			OR = {
				has_idea = war_economy
				has_war = yes
			}
		}

		fire_only_once = no
		cost = 75
		
		days_re_enable = 420 #blaze it
		days_remove = 365
		
		modifier = {
            local_resources_factor = 0.02
			stability_weekly = -0.002
			war_support_weekly = -0.002
			political_power_factor = -0.1
        }

		complete_effect = {
			add_war_support = -0.07
			
			random_owned_controlled_state = {
				limit = { capital_scope = { state = PREV } }
				add_resource = {
					type = oil
					amount = 3
				}
			}
		}
		
		remove_effect = {
			random_owned_controlled_state = {
				limit = { is_core_of = ROOT }
				add_resource = {
					type = oil
					amount = 3
				}
			}
			random_owned_controlled_state = {
				limit = { is_core_of = ROOT }
				add_resource = {
					type = oil
					amount = 2
				}
			}
        }
		
		ai_will_do = {
			factor = 0
		}
	}
	
	collect_metals = {
		icon = tungsten
		fixed_random_seed = no
		available = {
			has_war = yes
		}

		visible = {
			OR = {
				has_idea = war_economy
				has_war = yes
			}
		}

		fire_only_once = no
		cost = 50
		
		days_re_enable = 420 #blaze it
		days_remove = 120
		
		modifier = {
            local_resources_factor = 0.02
			production_factory_max_efficiency_factor = -0.05
			production_factory_efficiency_gain_factor = -0.05
			industrial_capacity_factory = -0.05
			#stability_factor = -0.07
			#war_support_factor = -0.07
			#political_power_factor = -0.1
        }

		complete_effect = {
			#add_war_support = -0.05
		}
		
		remove_effect = {
			random_owned_controlled_state = {
				limit = { is_core_of = ROOT }
				add_resource = {
					type = steel
					amount = 26
				}
			}
			random_owned_controlled_state = {
				limit = { is_core_of = ROOT }
				add_resource = {
					type = tungsten
					amount = 2
				}
			}
			random_owned_controlled_state = {
				limit = { is_core_of = ROOT }
				add_resource = {
					type = tungsten
					amount = 3
				}
			}
			random_owned_controlled_state = {
				limit = { is_core_of = ROOT }
				add_resource = {
					type = chromium
					amount = 4
				}
			}
			random_owned_controlled_state = {
				limit = { is_core_of = ROOT }
				add_resource = {
					type = chromium
					amount = 3
				}
			}
        }
		
		ai_will_do = {
			base = 60
			modifier = {
				add = -60 #use as pp dump#
				has_political_power < 85
				is_major = no
				
			}
		}
	}
	
	round_up_horses = {
		icon = generic_industry

		available = {
			has_war = yes
		}

		visible = {
			OR = {
				has_idea = war_economy
				has_war = yes
			}
		}

		fire_only_once = no
		cost = 50
		
		days_re_enable = 180 #blaze it
		days_remove = 90
		
		modifier = {
			production_factory_max_efficiency_factor = -0.06
			production_factory_efficiency_gain_factor = -0.06
			industrial_capacity_factory = -0.06
        }

		complete_effect = {
			#add_war_support = -0.05
		}
		
		remove_effect = {
			add_equipment_to_stockpile = {
				type = horse_equipment_0
				amount = 1000
				producer = CIV
			}
        }
		
		ai_will_do = {
			factor = 0
		}
	}
	
	emergency_factory_conversion_defensive = {
		icon = generic_industry

		available = {
			num_of_civilian_factories > 5 #Change this if amount of factories change
		}

		visible = {
			has_defensive_war = yes
			has_offensive_war = no			
		}

		fire_only_once = no
		cost = 100

		days_re_enable = 90
		
		complete_effect = {
			replace_civ_with_arms_factories = yes
			add_war_support = -0.05
		}
		
		ai_will_do = {
			factor = 0
		}
	}

	emergency_factory_conversion_offensive = {
		icon = generic_industry

		available = {
			num_of_civilian_factories > 5 #Change this if amount of factories change
		}

		visible = {
			has_offensive_war = yes
		}

		fire_only_once = no
		cost = 100
		
		days_re_enable = 90

		complete_effect = {
			replace_civ_with_arms_factories = yes
			add_war_support = -0.05
			add_stability = -0.03
		}
		
		ai_will_do = {
			factor = 0
		}
	}

	desperate_defense = {
		icon = generic_prepare_civil_war

		available = {
			surrender_progress > 0.5
		}

		visible = {
			surrender_progress > 0
		}

		fire_only_once = no
		cost = 50
		
		days_remove = 45
		days_re_enable = 360
		
		ai_will_do = {
			factor = 1
			modifier = {
				surrender_progress > 0.6
				factor = 10
			}
		}

		modifier = {
			defence = 0.2
			dig_in_speed_factor = 0.5
		}

		complete_effect = {

		}
	}

	women_in_the_workforce = {
		icon = generic_industry

        allowed = {
            always = yes
        }

        available = {
            has_war = yes
			OR = {
				has_idea = war_economy
				has_idea = tot_economic_mobilisation
			}
            OR = {
            	has_idea = labor_none 
            	has_idea = labor_allowed
            }
            OR = {
                AND = {
                    democratic_govt = yes
                    has_war_support > 0.79
                }
                AND = {
                    has_government = communism
                    has_war_support > 0.79
                }
                AND = {
                    has_government = fascism
                    OR = {
                        has_war_support > 0.89
                        surrender_progress > 0
                    }
                }
                AND = {
                    has_government = neutrality
                    has_war_support > 0.84
                    has_stability > 0.7
                }
            }
        }
		
        visible = {
            has_war = yes
            OR = {
            	has_idea = labor_none 
            	has_idea = labor_allowed
            }
        }
		
        cost = 100
		
        days_remove = -1
        
        modifier = {
        }
		
		complete_effect = {
			if = {
				limit = {
					tag = CAN
				}
				country_event = { id = canada_vanilla.1 hours = 6 } # Ronnie the Bren Gun Girl
			}
			add_ideas = labor_encouraged
        }
		
		remove_trigger = {
            has_war = no
        }
		
		ai_will_do = {
			factor = 40
		}
	}

    war_bonds = {
    	icon = generic_industry

    	allowed = {
            always = yes
        }

        available = {
            has_war = yes
			
			OR = {
				has_idea = bonds_peace
				has_idea = bonds_basic
				has_idea = bonds_war_domestic
				has_idea = bonds_war_international
			}
			
			if = {
				limit = {
					democratic_govt = yes
				}
				has_war_support > 0.79
			}
			if = {
				limit = {
					has_government = communism
				}
				has_war_support > 0.79
			}
			if = {
				limit = {
					has_government = fascism
				}
				OR = {
					has_war_support > 0.89
					surrender_progress > 0
                }
			}
			if = {
				limit = {
					has_government = neutrality
				}
				has_war_support > 0.84
                has_stability > 0.7
			}
        }
		
        visible = {
            has_war = yes
			
			OR = {
				has_idea = bonds_peace
				has_idea = bonds_basic
				has_idea = bonds_war_domestic
				has_idea = bonds_war_international
			}
        }

        fire_only_once = no
		cost = 75
		
		days_remove = 90
		
		days_re_enable = 360

		modifier = {
			consumer_goods_factor = -0.03
		}

		remove_effect = {
		}

		complete_effect = {
			if = {
				limit = {
					OR = {
						has_idea = bonds_peace
						has_idea = bonds_basic
						has_idea = bonds_war_domestic
						has_idea = bonds_war_international
					}
				}
				add_ideas = bonds_war_public
			}
		}
		
		ai_will_do = {
			base = 72
			modifier = {
				add = -72 #use as pp dump#
				has_political_power < 85
				
			}
			modifier = {
				add = 2
				check_variable = { num_of_available_civilian_factories < 1 }
			}
		}
	}
}

foreign_politics = {
	object_to_attaches = {

		allowed = {
            always = yes
        }
        
        fire_only_once = no
		cost = 50
		
        days_re_enable = 30

        available = {
        }

        visible = {
        	has_war = yes
        	has_capitulated = no
        	NOT = { has_war_with = FROM }
			FROM = {
        		NOT = { has_country_flag = rejected_withdrawing_attache }
        		NOT = { has_country_flag = rejected_withdrawing_attache@ROOT }
        		NOT = { has_country_flag = object_attache_going_on }
        	}
        	any_enemy_country = {
				has_attache_from = FROM
			}
		}

		#target_trigger = {
		#	NOT = { has_war_with = FROM }
		#	#FROM = { has_sent_attache = yes } # Make such trigger to optimize if it becomes a performance problem again.
		#	any_enemy_country = {
		#		has_attache_from = FROM
		#	}				
		#}

        complete_effect = {
			FROM = { country_event = { id = generic.14 hours = 6 } }
			hidden_effect = {
				FROM = { set_country_flag = object_attache_going_on }
			}
		}
		
		ai_will_do = {
			factor = 1
		}
	}
	#From is licensing to ROOT
	seek_closer_bonds_to_license_owner = {

		allowed = {
            always = no
        }
        
        fire_only_once = no
		cost = 50
		
		days_remove = 100 
		
        days_re_enable = 180

        available = {
			FROM = {
				is_licensing_any_to = ROOT
				has_opinion = {
					target = ROOT
					value > 19.9
				}
			}
        }

        visible = {
        	FROM = {
				is_licensing_any_to = ROOT
				NOT = { has_country_flag = closer_license_@ROOT }
        	}
		}

		#target_trigger = {
		#	FROM = {
		#		is_licensing_any_to = ROOT
		#		NOT = { has_country_flag = closer_license_@ROOT }
        #	}			
		#}

        complete_effect = {
			FROM = {
				country_event = { id = licenses.4 days = 1 }
				custom_effect_tooltip = needs_approval
				effect_tooltip = {
					add_opinion_modifier = {
						target = FROM
						modifier = license_cooperation
					}
					add_relation_modifier = {
						target = FROM
						modifier = close_cooperation
					}
				}
				set_country_flag = closer_license_@ROOT
			}
		}
		
		remove_effect = {
			remove_relation_modifier = {
				target = FROM
				modifier = close_cooperation
			}
			FROM = { clr_country_flag = closer_license_@ROOT }
		}
		
		ai_will_do = {
			factor = 0
		}
	}
}

economy_decisions = {

	army_construction = {# Use the Army to help build as a minor
		icon = generic_construction


		visible = {
			num_of_civilian_factories < 21
			has_war = no
		}

		fire_only_once = no
        available = {
			command_power > 24.9
			num_divisions > 0
			threat < 0.99
        }
		
		custom_cost_trigger = {
			command_power > 24.9
		}
		custom_cost_text = cp_atleast_25
		
		remove_trigger = {
			has_war = yes
		}		
		modifier = {
			mobilization_speed = -0.75
			production_speed_buildings_factor = 0.1
		}

		days_remove = 100
		days_re_enable = 100

		complete_effect = {
			hidden_effect = {
				add_command_power = -25
			}
		}
		
		ai_will_do = {
			base = 0
			modifier = {
				add = 1
				is_subject = yes
			}
			modifier = {
				add = 5
				is_subject = yes
				OVERLORD = { is_ai = no }
			}
		}
	}
	
	decrease_unemployment = {# Long time ST if ST < 0.4, cheap
		icon = consumer_goods

		available = {
			has_stability < 0.6	
		}

		visible = {
			has_stability < 0.6
			has_civil_war = no
			not = {
				has_idea = FRA_inflation3
				has_idea = FRA_inflation2
				has_idea = FRA_inflation1
				has_idea = Arab_hyper_inflation_5
			}
		}

		fire_only_once = no
		cost = 25
		
		modifier = {
			stability_weekly = 0.01
			consumer_goods_factor = 0.02
		}

		days_remove = 140
		days_re_enable = 140

		complete_effect = {

		}
		remove_effect = {
		}
		
		remove_trigger = {
			has_stability > 0.90
		}
		
		ai_will_do = {
			base = 0
			modifier = {
				add = 400
				has_stability < 0.55
			}
		}
	}

	improve_worker_insurance = {
		#icon = generic_construction

        allowed = {
            always = no
        }

        fire_only_once = no
		cost = 25
		
        days_re_enable = 180

        available = {
			has_tech = hospital_work
            num_of_available_civilian_factories > 14
        }

        visible = {
			
		}
		
		days_remove = 90
		
		modifier = {
			consumer_goods_factor = 0.03
			political_power_factor = -0.06
			industrial_capacity_factory = 0.06
		}

        remove_effect = {
			add_to_variable = { worker_mood = -2 tooltip = minus_2_workmood }
			ruling_pop_plus_2 = yes
		}
		
		ai_will_do = {
			base = 0
		}
    }
	
	increase_working_hours = {
		#icon = generic_construction

        allowed = {
            always = no
        }

        fire_only_once = no
		cost = 100
		
        days_re_enable = 1

        available = {
            
        }
		
		modifier = {
			production_speed_dummy_2_factor = -0.1
		}

        visible = {
			NOT = { has_country_flag = increase_working_hours } 
		}
		
		days_remove = -1 
		
		cancel_trigger = {
			NOT = { has_country_flag = increase_working_hours }
		}
		
		modifier = {
			industrial_capacity_factory = 0.05
			political_power_factor = -0.05
		}

        complete_effect = {
			set_country_flag = increase_working_hours 
			add_to_variable = { worker_mood = 4 tooltip = plus_4_workmood }
			ruling_pop_minus_3 = yes
		}
		
		ai_will_do = {
			base = 0
		}
    }
	
	lower_working_hours = {
		#icon = generic_construction

        allowed = {
            always = no
        }

        fire_only_once = no
		cost = 100
		
		days_remove = -1
		
        days_re_enable = 1

        available = {
            
        }
		
		modifier = {
			production_speed_dummy_2_factor = 0.1
		}

        visible = {
			has_country_flag = increase_working_hours
		}
		
		remove_trigger = { has_country_flag = increase_working_hours }

        complete_effect = {
			clr_country_flag = increase_working_hours
			add_to_variable = { worker_mood = -2 tooltip = minus_2_workmood }
			ruling_pop_plus_2 = yes
		}
		
		ai_will_do = {
			base = 0
		}
    }
	
	improve_worker_conditions = {# ST solid gain, cheap, long
		icon = generic_industry

		available = {
			has_stability < 0.8
		}

		visible = {
			has_stability < 0.81
			has_civil_war = no
		}

		fire_only_once = no

		modifier = {
			stability_weekly = 0.01
			consumer_goods_factor = 0.03
			industrial_capacity_factory = -0.06
		}

		days_remove = 140
		days_re_enable = 60

		cost = 75

		remove_effect = {
			#add_to_variable = { worker_mood = -3 tooltip = minus_3_workmood }
			ruling_pop_plus_2 = yes
		}

		ai_will_do = {
			base = 0
			modifier = {
				add = 400
				has_stability < 0.5
			}
		}
	}
	
	raise_the_wages = {
		icon = consumer_goods

        allowed = {
            always = no
        }

        fire_only_once = no
		cost = 90
		
        days_re_enable = 200

        available = {
			num_of_available_civilian_factories > 14
        }

        visible = {
			
		}
		
		days_remove = 70
		
		modifier = {
			stability_weekly = 0.004
			production_speed_dummy_2_factor = 0.30
			consumer_goods_factor = 0.05
		}

        complete_effect = {
			add_to_variable = { worker_mood = -5 tooltip = minus_5_workmood }
			ruling_pop_plus_5 = yes
		}
		
		ai_will_do = {
			base = 0
		}
    }
	
	train_the_workforce = {
		icon = generic_research

        allowed = {
            #always = no
        }

        fire_only_once = no
		cost = 75
		
        days_re_enable = 360

        available = {
			has_tech = schools_work
        }

        visible = {
            num_of_civilian_factories > 14
			num_of_controlled_states > 4
		}
		
		days_remove = 90
		
		modifier = {
			production_factory_efficiency_gain_factor = 0.1
			production_factory_max_efficiency_factor = 0.06
			research_speed_factor = 0.03
		}
		
		complete_effect = {
			if = {
				limit = {
					has_decision = labor_laws
				}
				custom_effect_tooltip = remove_labor_laws
						
				set_country_flag = { flag = train_the_workforce value = 1 days = 2 }
			}
		}

        remove_effect = {
			#add_to_variable = { worker_mood = -3 tooltip = minus_3_workmood }
			#ruling_pop_plus_2 = yes
			
			add_stability = 0.05
			add_war_support = 0.05
		}
		
		ai_will_do = {
			base = 0
		}
    }
	
	indoctrinate_working_population = {
		icon = generic_army_support

        allowed = {
            always = no
        }

        fire_only_once = no
		cost = 100
		
        days_re_enable = 30

        available = {
            OR = {
				has_government = fascism
				has_government = communism
			}
        }

        visible = {
			#OR = {
			#	has_government = fascism
			#	has_government = communism
			#}
		}
		
		days_remove = 120
		
		modifier = {
			drift_defence_factor = 0.15
			production_speed_dummy_2_factor = 0.15
			consumer_goods_factor = 0.01
			#production_speed_dummy_1_factor = 0.1
		}

        complete_effect = {
			add_to_variable = { worker_mood = -3 tooltip = minus_3_workmood }
			ruling_pop_plus_2 = yes
		}
		remove_effect = {
		}
		
		ai_will_do = {
			base = 0
		}
    }
	
	
	
	allow_labor_unions = {
		icon = generic_civil_support

        allowed = {
            #always = no
        }

        fire_only_once = no
		cost = 100
		
        days_re_enable = 1
		days_remove = -1

        available = {
            
        }
		
		modifier = {
			stability_weekly = 0.005
			production_speed_dummy_2_factor = -0.1
			political_power_factor = -0.08
		}
		
		cancel_trigger = {
			has_country_flag = ban_labor_unions
		}

        visible = {
			has_country_flag = ban_labor_unions
		}

        complete_effect = {
			clr_country_flag = ban_labor_unions
		}
		
		ai_will_do = {
			base = 0
		}
    }
	
	ban_labor_unions = {
		icon = generic_construction

        allowed = {
           #always = no
        }

        fire_only_once = no
		cost = 100
		
        days_re_enable = 1
		days_remove = -1
		
		cancel_trigger = {
			NOT = { has_country_flag = ban_labor_unions }
		}
		
		modifier = {
			stability_weekly = -0.005
			production_speed_dummy_2_factor = 0.15
			political_power_factor = -0.05
		}

        available = {
            
        }

        visible = {
			NOT = { has_country_flag = ban_labor_unions }
		}

        complete_effect = {
			set_country_flag = ban_labor_unions
		}
		
		ai_will_do = {
			base = 0
		}
    }
	
	improve_worker_settlements = {
		icon = generic_construction

        allowed = {
            #always = no
        }

        fire_only_once = no
		cost = 40
		
        days_re_enable = 180

        available = {
			has_tech = housing_work
            num_of_available_civilian_factories > 14
			num_of_controlled_states > 4
        }

        visible = {
			
		}
		
		days_remove = 90
		
		modifier = {
			production_speed_buildings_factor = 0.05
		}

        remove_effect = {
			random_owned_controlled_state = {
				limit = {
					industrial_complex > 0 
				}
				remove_building = {
					type = industrial_complex
					level = 1
				}
				add_extra_state_shared_building_slots = 1
			}
			
			add_to_variable = { worker_mood = -3 tooltip = minus_3_workmood }
			ruling_pop_plus_2 = yes
		}
		
		ai_will_do = {
			base = 0
		}
    }
	
	infrastructure_building_slot = {
		icon = generic_construction

        allowed = {
            always = yes
        }

        fire_only_once = no
		cost = 100
		
        days_re_enable = 30

        available = {
            #Always true if visible is also true
        }

        visible = {
			any_state = {
            	NOT = { has_state_flag = infrastructure_building_slot_flag }
            	is_fully_controlled_by = ROOT
            	is_owned_by = ROOT
				free_building_slots = {
					building = infrastructure
					size < 1
				}
            }
		}

        complete_effect = {
			random_owned_state = {
				limit = {
					is_fully_controlled_by = ROOT
					is_owned_by = ROOT
            		free_building_slots = {
						building = industrial_complex
						size > 1
						include_locked = yes
					}
					free_building_slots = {
						building = infrastructure
						size < 1
					}
					NOT = { has_state_flag = infrastructure_building_slot_flag }
				}
				add_extra_state_shared_building_slots = 1
				set_state_flag = infrastructure_building_slot_flag
			}
		}
		
		ai_will_do = {
			base = 0
			modifier = {
				add = 10
				any_owned_state = { free_building_slots = { building = industrial_complex size < 1 include_locked = no } }
				has_stability > 0.80
			}
		}
    }

    war_building_slot = {
    	icon = generic_construction

        allowed = {
            always = yes
        }

        fire_only_once = no
		cost = 50
		
        available = {
           #Always true if visible is true
        }

        visible = {
        	any_state = {
            	NOT = { has_state_flag = war_building_slot_flag }
            	is_fully_controlled_by = ROOT
            	is_owned_by = ROOT
            }
            has_war = yes
		}

        complete_effect = {
			random_owned_controlled_state = {
				limit = {
            		free_building_slots = {
						building = industrial_complex
						size > 1
						include_locked = yes
					}
					NOT = { has_state_flag = war_building_slot_flag }
				}
				add_extra_state_shared_building_slots = 2
				set_state_flag = war_building_slot_flag
			}
		}
		
		ai_will_do = {
			base = 0
			modifier = {
				add = 10
				any_owned_state = { free_building_slots = { building = industrial_complex size < 1 include_locked = no } }
				has_stability > 0.80
			}
		}
    }
}

foreign_support = {

###  #  # ###  #   #  ##      ###   ##   ##  ###  
#  # #  # #  # ## ## #  #     #  # #  # #  # #  # 
###  #  # ###  # # # ####     ###  #  # #### #  # 
#  # #  # #  # #   # #  #     #  # #  # #  # #  # 
###   ##  #  # #   # #  #     #  #  ##  #  # ###  

	 ##  #    ##   ## ### 
	#  # #   #  # #   #   
	#    #   #  #  #  ##  
	#  # #   #  #   # #   
	 ##  ###  ##  ##  ###
	CHI_close_burma_road = {
		allowed = {
			#Everyone
		}

		available = {
			OR = {
				784 = { is_controlled_by_ROOT_or_subject = yes has_state_flag = CHI_needed_for_burma_road } #Mengzi
				785 = { is_controlled_by_ROOT_or_subject = yes has_state_flag = CHI_needed_for_burma_road } #Puer
				
				288 = { is_controlled_by_ROOT_or_subject = yes has_state_flag = CHI_needed_for_burma_road } #Burma
				919 = { is_controlled_by_ROOT_or_subject = yes has_state_flag = CHI_needed_for_burma_road } #Rakhine State
				
				640 = { is_controlled_by_ROOT_or_subject = yes has_state_flag = CHI_needed_for_burma_road } #Mandalay
				872 = { is_controlled_by_ROOT_or_subject = yes has_state_flag = CHI_needed_for_burma_road } #Northern Burma
			}			
		}

		visible = {
			is_subject = no
			OR = {
				784 = { is_controlled_by_ROOT_or_subject = yes has_state_flag = CHI_needed_for_burma_road } #Mengzi
				785 = { is_controlled_by_ROOT_or_subject = yes has_state_flag = CHI_needed_for_burma_road } #Puer
				
				288 = { is_controlled_by_ROOT_or_subject = yes has_state_flag = CHI_needed_for_burma_road } #Burma
				919 = { is_controlled_by_ROOT_or_subject = yes has_state_flag = CHI_needed_for_burma_road } #Rakhine State
				
				640 = { is_controlled_by_ROOT_or_subject = yes has_state_flag = CHI_needed_for_burma_road } #Mandalay
				872 = { is_controlled_by_ROOT_or_subject = yes has_state_flag = CHI_needed_for_burma_road } #Northern Burma
			}
			any_other_country = {
				check_variable = { CHI_burma_road_current_level > 0 }
				NOT = { is_in_faction_with = ROOT } 
			}
			#any_state = {
			#	OR = {
			#		is_controlled_by = ROOT
			#		CONTROLLER = { is_subject_of = ROOT }
			#	}
			#	has_state_flag = CHI_needed_for_burma_road
			#}
		}

		fire_only_once = no
		cost = 0

		modifier = {
		}

		ai_will_do = {
			factor = 1
			modifier = {
				factor = 0
				any_country = {
					check_variable = { CHI_burma_road_current_level > 0 }
					OR = {
						is_subject = no
						is_subject_of = ROOT
						is_in_faction_with = ROOT
					}
					NOT = { has_war_with = ROOT }
				}
			}
			modifier = {
				factor = 200
				any_country = {
					check_variable = { CHI_burma_road_current_level > 0 }
					OR = {
						has_war_with = ROOT
						AND = {
							is_subject = yes
							NOT = { is_subject_of = ROOT }
							NOT = { is_in_faction_with = ROOT }
						}
					}
				}
			}
		}

		complete_effect = {
			hidden_effect = {
				every_state = {
					limit = {
						has_state_flag = CHI_needed_for_burma_road
						OR = {
							is_controlled_by = ROOT
							CONTROLLER = { is_subject_of = ROOT }
						}
					}
					set_state_flag = CHI_burma_road_closed_state
				}
			}
			random_country = {
				#Country that had the route
				limit = { check_variable = { CHI_burma_road_current_level > 0 } }
				hidden_effect = {					
					set_variable = { tempvar = 0 }
					subtract_from_variable = { var = tempvar value = CHI_burma_road_current_level }

					add_offsite_building = { type = arms_factory level = tempvar }
					#In case we need to reopen
					set_variable = { CHI_burma_road_closed_level = CHI_burma_road_current_level }
					set_variable = { CHI_burma_road_current_level = 0 }
					clear_variable = tempvar
				}
				country_event = { id = wtt_burma_road.2 }
				custom_effect_tooltip = close_burma_road_explanation # Prints the contents of the CHI_burma_road_current_level variable
			}
		}
	}
	###  ###  ##  ###  ### #  # 
	#  # #   #  # #  # #   ## # 
	###  ##  #  # ###  ##  # ## 
	#  # #   #  # #    #   #  # 
	#  # ###  ##  #    ### #  # 
	CHI_reopen_burma_road = {
		allowed = {
			#Everyone
		}

		available = {
			OR = {
				784 = { is_controlled_by_ROOT_or_subject = yes has_state_flag = CHI_burma_road_closed_state } #Mengzi
				785 = { is_controlled_by_ROOT_or_subject = yes has_state_flag = CHI_burma_road_closed_state } #Puer
				
				288 = { is_controlled_by_ROOT_or_subject = yes has_state_flag = CHI_burma_road_closed_state } #Burma
				919 = { is_controlled_by_ROOT_or_subject = yes has_state_flag = CHI_burma_road_closed_state } #Rakhine State
				
				640 = { is_controlled_by_ROOT_or_subject = yes has_state_flag = CHI_burma_road_closed_state } #Mandalay
				872 = { is_controlled_by_ROOT_or_subject = yes has_state_flag = CHI_burma_road_closed_state } #Northern Burma
			}
		}

		visible = {
			is_subject = no
			OR = {
				784 = { OR = { CONTROLLER = { check_variable = { CHI_burma_road_closed_level > 0 } } is_controlled_by_ROOT_or_subject = yes } has_state_flag = CHI_burma_road_closed_state } #Mengzi
				785 = { OR = { CONTROLLER = { check_variable = { CHI_burma_road_closed_level > 0 } } is_controlled_by_ROOT_or_subject = yes } has_state_flag = CHI_burma_road_closed_state } #Puer
				
				288 = { OR = { CONTROLLER = { check_variable = { CHI_burma_road_closed_level > 0 } } is_controlled_by_ROOT_or_subject = yes } has_state_flag = CHI_burma_road_closed_state } #Burma
				919 = { OR = { CONTROLLER = { check_variable = { CHI_burma_road_closed_level > 0 } } is_controlled_by_ROOT_or_subject = yes } has_state_flag = CHI_burma_road_closed_state } #Rakhine State
				
				640 = { OR = { CONTROLLER = { check_variable = { CHI_burma_road_closed_level > 0 } } is_controlled_by_ROOT_or_subject = yes } has_state_flag = CHI_burma_road_closed_state } #Mandalay
				872 = { OR = { CONTROLLER = { check_variable = { CHI_burma_road_closed_level > 0 } } is_controlled_by_ROOT_or_subject = yes } has_state_flag = CHI_burma_road_closed_state } #Northern Burma
			}
			any_country = {
				check_variable = { CHI_burma_road_closed_level > 0 }
				NOT = { has_war_with = ROOT }
			}
			#any_state = {
			#	has_state_flag = CHI_burma_road_closed_state
			#	OR = {
			#		is_controlled_by = ROOT
			#		CONTROLLER = {
			#			OR = {
			#				is_subject_of = ROOT
			#				check_variable = { CHI_burma_road_closed_level > 0 }
			#			}
			#		}
			#	}
			#}
		}

		fire_only_once = no
		cost = 0

		modifier = {
		}

		ai_will_do = {
			factor = 1
			modifier = {
				factor = 200
				any_country = {
					check_variable = { CHI_burma_road_closed_level > 0 }
					OR = {
						is_subject = no
						is_subject_of = ROOT
						is_in_faction_with = ROOT
					}
					NOT = { has_war_with = ROOT }
				}
			}
			modifier = {
				factor = 0
				any_country = {
					check_variable = { CHI_burma_road_closed_level > 0 }
					OR = {
						has_war_with = ROOT
						AND = {
							is_subject = yes
							NOT = { is_subject_of = ROOT }
							NOT = { is_in_faction_with = ROOT }
						}
					}
				}
			}
		}

		complete_effect = {
			every_state = {
				limit = {
					has_state_flag = CHI_burma_road_closed_state
					OR = {
						is_controlled_by = ROOT
						CONTROLLER = {
							OR = {
								is_subject_of = ROOT
								check_variable = { CHI_burma_road_closed_level > 0 }
							}
						}
					}
				}
				custom_effect_tooltip = CHI_burma_road_reopen_state
				clr_state_flag = CHI_burma_road_closed_state
			}

			random_country = {
				limit = { check_variable = { CHI_burma_road_closed_level > 0 } }
				if = {
					limit = {
						any_state = {
							has_state_flag = CHI_burma_road_closed_state							
							NOT = { is_controlled_by = ROOT }
							CONTROLLER = {
								NOT = { is_subject_of = ROOT }
								NOT = { check_variable = { CHI_burma_road_closed_level > 0 } }
							}
						}
					}
					country_event = { id = wtt_burma_road.3 } #We opened our part of the road
				}
				else = {
					#Road is fully reopened
					if = {
						limit = { NOT = { tag = ROOT } }
						country_event = { id = wtt_burma_road.4 }
					}
					hidden_effect = {					
						add_offsite_building = { type = arms_factory level = CHI_burma_road_closed_level }
						set_variable = { CHI_burma_road_current_level = CHI_burma_road_closed_level }
						clear_variable = CHI_burma_road_closed_level 
					}
					custom_effect_tooltip = reopen_burma_road_explanation # Prints the contents of the CHI_burma_road_closed_level variable
				}
			}
		}
	}
#   ### ###   ##      ###   ##   ##  ###  
#   #   #  # #  #     #  # #  # #  # #  # 
#   ##  #  # #  #     ###  #  # #### #  # 
#   #   #  # #  #     #  # #  # #  # #  # 
### ### ###   ##      #  #  ##  #  # ###  
	
	 ##  #    ##   ## ### 
	#  # #   #  # #   #   
	#    #   #  #  #  ##  
	#  # #   #  #   # #   
	 ##  ###  ##  ##  ###
	CHI_close_ledo_road = {
		allowed = {
			#Everyone
		}

		available = {
			OR = {
				784 = { is_controlled_by_ROOT_or_subject = yes has_state_flag = CHI_needed_for_ledo_road } #Mengzi
				785 = { is_controlled_by_ROOT_or_subject = yes has_state_flag = CHI_needed_for_ledo_road } #Puer
				
				432 = { is_controlled_by_ROOT_or_subject = yes has_state_flag = CHI_needed_for_ledo_road } #Assam
				
				640 = { is_controlled_by_ROOT_or_subject = yes has_state_flag = CHI_needed_for_ledo_road } #Mandalay
				872 = { is_controlled_by_ROOT_or_subject = yes has_state_flag = CHI_needed_for_ledo_road } #Northern Burma
			}		
		}

		visible = {
			is_subject = no
			OR = {
				784 = { is_controlled_by_ROOT_or_subject = yes has_state_flag = CHI_needed_for_ledo_road } #Mengzi
				785 = { is_controlled_by_ROOT_or_subject = yes has_state_flag = CHI_needed_for_ledo_road } #Puer
				
				432 = { is_controlled_by_ROOT_or_subject = yes has_state_flag = CHI_needed_for_ledo_road } #Assam
				
				640 = { is_controlled_by_ROOT_or_subject = yes has_state_flag = CHI_needed_for_ledo_road } #Mandalay
				872 = { is_controlled_by_ROOT_or_subject = yes has_state_flag = CHI_needed_for_ledo_road } #Northern Burma
			}
			any_country = {
				check_variable = { CHI_ledo_road_current_level > 0 }
				NOT = { is_in_faction_with = ROOT }
				NOT = { tag = ROOT }
			}
		}

		fire_only_once = no
		cost = 0

		modifier = {
		}

		ai_will_do = {
			factor = 1
			modifier = {
				factor = 0
				any_country = {
					check_variable = { CHI_ledo_road_current_level > 0 }
					OR = {
						is_subject = no
						is_subject_of = ROOT
						is_in_faction_with = ROOT
					}
					NOT = { has_war_with = ROOT }
				}
			}
			modifier = {
				factor = 200
				any_country = {
					check_variable = { CHI_ledo_road_current_level > 0 }
					OR = {
						has_war_with = ROOT
						AND = {
							is_subject = yes
							NOT = { is_subject_of = ROOT }
							NOT = { is_in_faction_with = ROOT }
						}
					}
				}
			}
		}

		complete_effect = {
			hidden_effect = {
				every_state = {
					limit = {
						has_state_flag = CHI_needed_for_ledo_road
						OR = {
							is_controlled_by = ROOT
							CONTROLLER = { is_subject_of = ROOT }
						}
					}
					set_state_flag = CHI_ledo_road_closed_state
				}
			}
			random_country = {
				#Country that had the route
				limit = { check_variable = { CHI_ledo_road_current_level > 0 } }
				hidden_effect = {					
					set_variable = { tempvar = 0 }
					subtract_from_variable = { var = tempvar value = CHI_ledo_road_current_level }

					add_offsite_building = { type = arms_factory level = tempvar }
					#In case we need to reopen
					set_variable = { CHI_ledo_road_closed_level = CHI_ledo_road_current_level }
					set_variable = { CHI_ledo_road_current_level = 0 }
					clear_variable = tempvar
				}
				country_event = { id = wtt_ledo_road.2 }
				custom_effect_tooltip = close_ledo_road_explanation # Prints the contents of the CHI_ledo_road_current_level variable
			}
		}
	}

	###  ###  ##  ###  ### #  # 
	#  # #   #  # #  # #   ## # 
	###  ##  #  # ###  ##  # ## 
	#  # #   #  # #    #   #  # 
	#  # ###  ##  #    ### #  # 
	CHI_reopen_ledo_road = {
		allowed = {
			#Everyone
		}

		available = {
			OR = {
				784 = { is_controlled_by_ROOT_or_subject = yes has_state_flag = CHI_ledo_road_closed_state } #Mengzi
				785 = { is_controlled_by_ROOT_or_subject = yes has_state_flag = CHI_ledo_road_closed_state } #Puer
				
				432 = { is_controlled_by_ROOT_or_subject = yes has_state_flag = CHI_ledo_road_closed_state } #Assam
				
				640 = { is_controlled_by_ROOT_or_subject = yes has_state_flag = CHI_ledo_road_closed_state } #Mandalay
				872 = { is_controlled_by_ROOT_or_subject = yes has_state_flag = CHI_ledo_road_closed_state } #Northern Burma
			}	
		}

		visible = {
			is_subject = no
			OR = {
				784 = { OR = { CONTROLLER = { check_variable = { CHI_burma_road_closed_level > 0 } } is_controlled_by_ROOT_or_subject = yes } has_state_flag = CHI_ledo_road_closed_state } #Mengzi
				785 = { OR = { CONTROLLER = { check_variable = { CHI_burma_road_closed_level > 0 } } is_controlled_by_ROOT_or_subject = yes } has_state_flag = CHI_ledo_road_closed_state } #Puer
				
				288 = { OR = { CONTROLLER = { check_variable = { CHI_burma_road_closed_level > 0 } } is_controlled_by_ROOT_or_subject = yes } has_state_flag = CHI_ledo_road_closed_state } #Burma
				919 = { OR = { CONTROLLER = { check_variable = { CHI_burma_road_closed_level > 0 } } is_controlled_by_ROOT_or_subject = yes } has_state_flag = CHI_ledo_road_closed_state } #Rakhine State
				
				640 = { OR = { CONTROLLER = { check_variable = { CHI_burma_road_closed_level > 0 } } is_controlled_by_ROOT_or_subject = yes } has_state_flag = CHI_ledo_road_closed_state } #Mandalay
				872 = { OR = { CONTROLLER = { check_variable = { CHI_burma_road_closed_level > 0 } } is_controlled_by_ROOT_or_subject = yes } has_state_flag = CHI_ledo_road_closed_state } #Northern Burma
			}
			any_country = {
				check_variable = { CHI_ledo_road_closed_level > 0 }
				NOT = { has_war_with = ROOT }
			}
			#any_state = {
			#	has_state_flag = CHI_ledo_road_closed_state
			#	OR = {
			#		is_controlled_by = ROOT
			#		CONTROLLER = {
			#			OR = {
			#				is_subject_of = ROOT
			#				check_variable = { CHI_ledo_road_closed_level > 0 }
			#			}
			#		}
			#	}
			#}
		}

		fire_only_once = no
		cost = 0

		modifier = {
		}

		ai_will_do = {
			factor = 1
			modifier = {
				factor = 200
				any_country = {
					check_variable = { CHI_ledo_road_closed_level > 0 }
					OR = {
						is_subject = no
						is_subject_of = ROOT
						is_in_faction_with = ROOT
					}
					NOT = { has_war_with = ROOT }
				}
			}
			modifier = {
				factor = 0
				any_country = {
					check_variable = { CHI_ledo_road_closed_level > 0 }
					OR = {
						has_war_with = ROOT
						AND = {
							is_subject = yes
							NOT = { is_subject_of = ROOT }
							NOT = { is_in_faction_with = ROOT }
						}
					}
				}
			}
		}

		complete_effect = {
			every_state = {
				limit = {
					has_state_flag = CHI_ledo_road_closed_state
					OR = {
						is_controlled_by = ROOT
						CONTROLLER = {
							OR = {
								is_subject_of = ROOT
								check_variable = { CHI_ledo_road_closed_level > 0 }
							}
						}
					}
				}
				custom_effect_tooltip = CHI_ledo_road_reopen_state
				clr_state_flag = CHI_ledo_road_closed_state
			}

			random_country = {
				limit = { check_variable = { CHI_ledo_road_closed_level > 0 } }
				if = {
					limit = {
						any_state = {
							has_state_flag = CHI_ledo_road_closed_state							
							NOT = { is_controlled_by = ROOT }
							CONTROLLER = {
								NOT = { is_subject_of = ROOT }
								NOT = { check_variable = { CHI_ledo_road_closed_level > 0 } }
							}
						}
					}
					country_event = { id = wtt_ledo_road.3 } #We opened our part of the road
				}
				else = {
					#Road is fully reopened
					if = {
						limit = { NOT = { tag = ROOT } }
						country_event = { id = wtt_ledo_road.4 }
					}
					hidden_effect = {					
						add_offsite_building = { type = arms_factory level = CHI_ledo_road_closed_level }
						set_variable = { CHI_ledo_road_current_level = CHI_ledo_road_closed_level }
						clear_variable = CHI_ledo_road_closed_level
					}
					custom_effect_tooltip = reopen_ledo_road_explanation # Prints the contents of the CHI_ledo_road_closed_level variable
				}
			}
		}
	}

### #  # ###     #  # #  # #   # ###  
 #  #  # #       #  # #  # ## ## #  # 
 #  #### ##      #### #  # # # # ###  
 #  #  # #       #  # #  # #   # #    
 #  #  # ###     #  #  ##  #   # #

	 ##  #    ##   ## ### 
	#  # #   #  # #   #   
	#    #   #  #  #  ##  
	#  # #   #  #   # #   
	 ##  ###  ##  ##  ### 
 	CHI_close_the_hump = {
 		allowed = {
 			#Everyone
 		}

 		available = {
			OR = {
				434 = { is_controlled_by_ROOT_or_subject = yes has_state_flag = CHI_needed_for_the_hump } #Arunachal Pradesh
				601 = { is_controlled_by_ROOT_or_subject = yes has_state_flag = CHI_needed_for_the_hump } #Xikang
			}		
 		}

 		visible = {
 			is_subject = no
			OR = {
				434 = { is_controlled_by_ROOT_or_subject = yes has_state_flag = CHI_needed_for_the_hump } #Arunachal Pradesh
				601 = { is_controlled_by_ROOT_or_subject = yes has_state_flag = CHI_needed_for_the_hump } #Xikang
			}
			any_country = {
 				check_variable = { CHI_the_hump_current_level > 0 }
 				NOT = { is_in_faction_with = ROOT }
 				NOT = { tag = ROOT }
 			}
 		}

 		fire_only_once = no
 		cost = 0

 		modifier = {
 		}

 		ai_will_do = {
 			factor = 1
			modifier = {
				factor = 0
				any_country = {
					check_variable = { CHI_the_hump_current_level > 0 }
					OR = {
						is_subject = no
						is_subject_of = ROOT
						is_in_faction_with = ROOT
					}
					NOT = { has_war_with = ROOT }
				}
			}
			modifier = {
				factor = 200
				any_country = {
					check_variable = { CHI_the_hump_current_level > 0 }
					OR = {
						has_war_with = ROOT
						AND = {
							is_subject = yes
							NOT = { is_subject_of = ROOT }
							NOT = { is_in_faction_with = ROOT }
						}
					}
				}
			}
 		}

 		complete_effect = {
 			hidden_effect = {
 				every_state = {
 					limit = {
 						has_state_flag = CHI_needed_for_the_hump
 						OR = {
 							is_controlled_by = ROOT
 							CONTROLLER = { is_subject_of = ROOT }
 						}
 					}
 					set_state_flag = CHI_the_hump_closed_state
 				}
 			}
 			random_country = {
 				#Country that had the route
 				limit = { check_variable = { CHI_the_hump_current_level > 0 } }
 				hidden_effect = {					
 					set_variable = { tempvar = 0 }
 					subtract_from_variable = { var = tempvar value = CHI_the_hump_current_level }

 					add_offsite_building = { type = arms_factory level = tempvar }
 					#In case we need to reopen
 					set_variable = { CHI_the_hump_closed_level = CHI_the_hump_current_level }
 					set_variable = { CHI_the_hump_current_level = 0 }
 					clear_variable = tempvar
 				}
 				country_event = { id = wtt_the_hump.2 }
				custom_effect_tooltip = close_the_hump_explanation # Prints the contents of the CHI_the_hump_current_level variable
 			}
 		}
 	}

 	###  ###  ##  ###  ### #  # 
 	#  # #   #  # #  # #   ## # 
 	###  ##  #  # ###  ##  # ## 
 	#  # #   #  # #    #   #  # 
 	#  # ###  ##  #    ### #  # 
 	CHI_reopen_the_hump = {
 		allowed = {
 			#Everyone
 		}

 		available = {
			OR = {
				434 = { is_controlled_by_ROOT_or_subject = yes has_state_flag = CHI_the_hump_closed_state } #Arunachal Pradesh
				601 = { is_controlled_by_ROOT_or_subject = yes has_state_flag = CHI_the_hump_closed_state } #Xikang
			}
 		}

 		visible = {
 			is_subject = no
			OR = {
				434 = { OR = { CONTROLLER = { check_variable = { CHI_the_hump_closed_level > 0 } } is_controlled_by_ROOT_or_subject = yes } has_state_flag = CHI_the_hump_closed_state } #Arunachal Pradesh
				601 = { OR = { CONTROLLER = { check_variable = { CHI_the_hump_closed_level > 0 } } is_controlled_by_ROOT_or_subject = yes } has_state_flag = CHI_the_hump_closed_state } #Xikang
			}
 			any_country = {
 				check_variable = { CHI_the_hump_closed_level > 0 }
 				NOT = { has_war_with = ROOT }
 			}
 			#any_state = {
 			#	has_state_flag = CHI_the_hump_closed_state
 			#	OR = {
 			#		is_controlled_by = ROOT
 			#		CONTROLLER = {
 			#			OR = {
 			#				is_subject_of = ROOT
 			#				check_variable = { CHI_the_hump_closed_level > 0 }
 			#			}
 			#		}
 			#	}
 			#}
 		}

 		fire_only_once = no
 		cost = 0

 		modifier = {
 		}

 		ai_will_do = {
 			factor = 1
			modifier = {
				factor = 200
				any_country = {
					check_variable = { CHI_the_hump_closed_level > 0 }
					OR = {
						is_subject = no
						is_subject_of = ROOT
						is_in_faction_with = ROOT
					}
					NOT = { has_war_with = ROOT }
				}
			}
			modifier = {
				factor = 0
				any_country = {
					check_variable = { CHI_the_hump_closed_level > 0 }
					OR = {
						has_war_with = ROOT
						AND = {
							is_subject = yes
							NOT = { is_subject_of = ROOT }
							NOT = { is_in_faction_with = ROOT }
						}
					}
				}
			}
 		}

 		complete_effect = {
 			every_state = {
 				limit = {
 					has_state_flag = CHI_the_hump_closed_state
 					OR = {
 						is_controlled_by = ROOT
 						CONTROLLER = {
 							OR = {
 								is_subject_of = ROOT
 								check_variable = { CHI_the_hump_closed_level > 0 }
 							}
 						}
 					}
 				}
 				custom_effect_tooltip = CHI_the_hump_reopen_state
 				clr_state_flag = CHI_the_hump_closed_state
 			}

 			random_country = {
 				limit = { check_variable = { CHI_the_hump_closed_level > 0 } }
 				if = {
 					limit = {
 						any_state = {
 							has_state_flag = CHI_the_hump_closed_state							
 							NOT = { is_controlled_by = ROOT }
 							CONTROLLER = {
 								NOT = { is_subject_of = ROOT }
 								NOT = { check_variable = { CHI_the_hump_closed_level > 0 } }
 							}
 						}
 					}
 					country_event = { id = wtt_the_hump.3 } #We opened our part of the road
 				}
 				else = {
 					#Road is fully reopened
 					if = {
 						limit = { NOT = { tag = ROOT } }
 						country_event = { id = wtt_the_hump.4 }
 					}
 					hidden_effect = {					
 						add_offsite_building = { type = arms_factory level = CHI_the_hump_closed_level }
 						set_variable = { CHI_the_hump_current_level = CHI_the_hump_closed_level }
 						clear_variable = CHI_the_hump_closed_level
 					}
					custom_effect_tooltip = reopen_the_hump_explanation # Prints the contents of the CHI_the_hump_closed_level variable
 				}
 			}
 		}
 	}

#  #  ##  #  #  ##  ###     ###   ##  #  # ### ### 
#  # #  # ## # #  #  #      #  # #  # #  #  #  #   
#### #### # ## #  #  #      ###  #  # #  #  #  ##  
#  # #  # #  # #  #  #      #  # #  # #  #  #  #   
#  # #  # #  #  ##  ###     #  #  ##   ##   #  ### 

	 ##  #    ##   ## ### 
	#  # #   #  # #   #   
	#    #   #  #  #  ##  
	#  # #   #  #   # #   
	 ##  ###  ##  ##  ###
	CHI_close_hanoi_route = {
		allowed = {
			#Everyone
		}

		available = {
			OR = {
				784 = { is_controlled_by_ROOT_or_subject = yes has_state_flag = CHI_needed_for_hanoi_route } #Mengzi
				671 = { is_controlled_by_ROOT_or_subject = yes has_state_flag = CHI_needed_for_hanoi_route } #Tonking
			}
		}

		visible = {
			is_subject = no
			OR = {
				784 = { is_controlled_by_ROOT_or_subject = yes has_state_flag = CHI_needed_for_hanoi_route } #Mengzi
				671 = { is_controlled_by_ROOT_or_subject = yes has_state_flag = CHI_needed_for_hanoi_route } #Tonking
			}
			any_country = {
				check_variable = { CHI_hanoi_route_current_level > 0 }
				NOT = { is_in_faction_with = ROOT }
				NOT = { tag = ROOT }
			}
		}

		fire_only_once = no
		cost = 0

		modifier = {
		}

		ai_will_do = {
			factor = 1
			modifier = {
				factor = 0
				any_country = {
					check_variable = { CHI_hanoi_route_current_level > 0 }
					OR = {
						is_subject = no
						is_subject_of = ROOT
						is_in_faction_with = ROOT
					}
					NOT = { has_war_with = ROOT }
				}
			}
			modifier = {
				factor = 200
				any_country = {
					check_variable = { CHI_hanoi_route_current_level > 0 }
					OR = {
						has_war_with = ROOT
						AND = {
							is_subject = yes
							NOT = { is_subject_of = ROOT }
							NOT = { is_in_faction_with = ROOT }
						}
					}
				}
			}
		}

		complete_effect = {
			hidden_effect = {
				every_state = {
					limit = {
						has_state_flag = CHI_needed_for_hanoi_route
						OR = {
							is_controlled_by = ROOT
							CONTROLLER = { is_subject_of = ROOT }
						}
					}
					set_state_flag = CHI_hanoi_route_closed_state
				}
			}
			random_country = {
				#Country that had the route
				limit = { check_variable = { CHI_hanoi_route_current_level > 0 } }
				hidden_effect = {					
					set_variable = { tempvar = 0 }
					subtract_from_variable = { var = tempvar value = CHI_hanoi_route_current_level }

					add_offsite_building = { type = arms_factory level = tempvar }
					#In case we need to reopen
					set_variable = { CHI_hanoi_route_closed_level = CHI_hanoi_route_current_level }
					set_variable = { CHI_hanoi_route_current_level = 0 }
					clear_variable = tempvar
				}
				country_event = { id = wtt_hanoi_route.2 }
				custom_effect_tooltip = close_hanoi_route_explanation # Prints the contents of the CHI_hanoi_route_current_level variable
			}
		}
	}
}

place_cores = {
	place_country_cores = {
		icon = generic_political_discourse
		
		allowed = {
			always = no 
		}

		available = {
			
		}

		visible = {
			
		}

		fire_only_once = no

		days_remove = 1
		
		#days_re_enable = 10000

		cost = 0
		
		complete_effect = {
			if = {
				limit = { 
					FROM = { 
						original_tag = WLL 
					}
				}
				WLL = { 
					add_state_core = 887
					add_state_core = 34
					#add_state_core = 6
					#add_state_core = 774
				}
				set_global_flag = placed_core_WLL
			}
			if = {
				limit = { 
					FROM = { 
						original_tag = VLA
					}
				}
				VLA = { 
					#add_state_core = 887
					#add_state_core = 34
					add_state_core = 6
					add_state_core = 774
				}
				set_global_flag = placed_core_VLA
			}
			else_if = {
				limit = { 
					FROM = { 
						original_tag = BLR 
					}
				}
				BLR = { 
					add_state_core = 194
					add_state_core = 241
					add_state_core = 204
					add_state_core = 206
					add_state_core = 207
					add_state_core = 95
					add_state_core = 96
					add_state_core = 840
					add_state_core = 94
					add_state_core = 97
					add_state_core = 842
				}
				set_global_flag = placed_core_BLR
			}
			else_if = {
				limit = { 
					FROM = { 
						original_tag = ISR 
					}
				}
				ISR = { 
					add_state_core = 454
				}
				set_global_flag = placed_core_ISR
			}
			else_if = {
				limit = { 
					FROM = { 
						original_tag = PAK 
					}
				}
				PAK = { 
					add_state_core = 444
					add_state_core = 445
					add_state_core = 443
					add_state_core = 442
					add_state_core = 440
				}
				set_global_flag = placed_core_PAK
			}
			else_if = {
				limit = { 
					FROM = { 
						original_tag = VIN 
					}
				}
				VIN = { 
					add_state_core = 671
					add_state_core = 750
					add_state_core = 912
					add_state_core = 442
					add_state_core = 911
					add_state_core = 286
				}
				set_global_flag = placed_core_VIN
			}
			else_if = {
				limit = { 
					FROM = { 
						original_tag = LAO 
					}
				}
				LAO = { 
					add_state_core = 670
				}
				set_global_flag = placed_core_LAO
			}
			else_if = {
				limit = { 
					FROM = { 
						original_tag = CAM 
					}
				}
				CAM = { 
					add_state_core = 741
				}
				set_global_flag = placed_core_CAM
			}
			else_if = {
				limit = { 
					FROM = { 
						original_tag = GEO 
					}
				}
				GEO = { 
					add_state_core = 231
				}
				set_global_flag = placed_core_GEO
			}
			else_if = {
				limit = { 
					FROM = { 
						original_tag = ARM 
					}
				}
				ARM = { 
					add_state_core = 230
				}
				set_global_flag = placed_core_ARM
			}
			else_if = {
				limit = { 
					FROM = { 
						original_tag = AZR 
					}
				}
				AZR = { 
					add_state_core = 229
				}
				set_global_flag = placed_core_AZR
			}
			else_if = {
				limit = { 
					FROM = { 
						original_tag = PAL 
					}
				}
				PAL = { 
					add_state_core = 454
					add_state_core = 943
					add_state_core = 838
				}
				set_global_flag = placed_core_PAL
			}	
			else_if = {
				limit = { 
					FROM = { 
						original_tag = ANG 
					}
				}
				ANG = { 
					add_state_core = 540
				}
				set_global_flag = placed_core_@FROM
			}	
			else_if = {
				limit = { 
					FROM = { 
						original_tag = MZB 
					}
				}
				MZB = { 
					add_state_core = 544
				}
				set_global_flag = placed_core_MZB
			}
			else_if = {
				limit = { 
					FROM = { 
						original_tag = ZIM 
					}
				}
				ZIM = { 
					add_state_core = 545
				}
				set_global_flag = placed_core_ZIM
			}
			else_if = {
				limit = { 
					FROM = { 
						original_tag = KEN 
					}
				}
				KEN = { 
					add_state_core = 546
					add_state_core = 547
					add_state_core = 548
				}
				set_global_flag = placed_core_KEN
			}
			else_if = {
				limit = { 
					FROM = { 
						original_tag = COG 
					}
				}
				COG = { 
					add_state_core = 295
					add_state_core = 538
					add_state_core = 718
				}
				set_global_flag = placed_core_COG
			}	
			else_if = {
				limit = { 
					FROM = { 
						original_tag = NEW 
					}
				}
				NEW = { 
					add_state_core = 331
					add_state_core = 332
				}
				set_global_flag = placed_core_NEW
			}	
			else_if = {
				limit = { 
					FROM = { 
						original_tag = ICE 
					}
				}
				NEW = { 
					add_state_core = 100
				}
				set_global_flag = placed_core_ICE
			}								
		}

		ai_will_do = {
			base = 0
		}
	}
}
 
### EOF ###