ideas = {
	hidden_ideas = {
		IEA_supply = {
			allowed = {
				always = no
			}
			removal_cost = -1
			modifier = {
				supply_node_range = -0.4
			}
		}
	}
	country = {
		IEA_command = {
			allowed = {
				always = no
			}
			picture = idea_general_staff
			removal_cost = -1
			modifier = {
				max_command_power = 15		
				mobilization_speed = 0.05				
			}
		}
		ETH_ancient_army = {
			name = ETH_ancient_army 
			picture = chi_wargaming_division
			allowed = {
				original_tag = ETH
				#NOT = {
					has_war_with = ITA
				#}
			}
			cancel = { 
				not = {
					has_war_with = ITA
				}
			}
			cancel_if_invalid = yes
			removal_cost = -1
			modifier = {
				army_attack_factor = -0.50
				army_defence_factor = -0.50
				army_org_factor = -0.20
				army_morale_factor = -0.50
				planning_speed = -0.20
				mobilization_speed = 0.2
			}
		}						
		
		IEA_Linea_idea = {
			picture = loire
			allowed = {
				always = no
			}
			modifier = {
				air_accidents_factor = -0.02
			}
			equipment_bonus = {
				transport_plane_equipment = {
					air_range = 0.1 
					reliability = 0.03 
					fuel_consumption_factor = -0.1 
					instant = yes
				}
			}
			removal_cost = -1
		}
		IEA_patrols = {
			picture =  prc_the_long_march2
			allowed = {
				always = no
			}
			modifier = {
				fascism_drift = 0.05
				stability_weekly = 0.001
				production_speed_buildings_factor = 0.1
			}
			removal_cost = -1
		}
		
		IEA_kings_men = {
			picture = chi_war_of_resistance3
			allowed = {
				always = no
			}
			removal_cost = -1
			modifier = {
				resources_factor = -0.10 		
				industrial_capacity_factory = -0.25
				industrial_capacity_dockyard = -0.10
				production_speed_buildings_factor = -0.25
				attrition = 0.1
				#enemy_##partisan_effect = 0.75
				monarchism_drift = 0.02
				conscription_factor = -0.32
			}
		}
		IEA_kings_men2 = {
			name = IEA_kings_men
			picture = chi_war_of_resistance2
			allowed = {
				always = no
			}
			removal_cost = -1
			modifier = {
				resources_factor = -0.05 		
				industrial_capacity_factory = -0.20
				industrial_capacity_dockyard = -0.05
				production_speed_buildings_factor = -0.20
				attrition = 0.07
				#enemy_##partisan_effect = 0.5
				monarchism_drift = 0.015
				conscription_factor = -0.24
			}
		}
		IEA_kings_men3 = {
			name = IEA_kings_men
			picture = chi_war_of_resistance2
			allowed = {
				always = no
			}
			removal_cost = -1
			modifier = {
				resources_factor = -0.03 		
				industrial_capacity_factory = -0.15
				industrial_capacity_dockyard = -0.02
				production_speed_buildings_factor = -0.12
				attrition = 0.04
				#enemy_##partisan_effect = 0.25
				monarchism_drift = 0.01
				conscription_factor = -0.16
			}
		}
		IEA_kings_men4 = { 
			name = IEA_kings_men
			picture = chi_war_of_resistance
			allowed = {
				always = no
			}
			removal_cost = -1
			modifier = {
				resources_factor = -0.01 		
				industrial_capacity_factory = -0.05
				production_speed_buildings_factor = -0.05
				attrition = 0.02
				#enemy_##partisan_effect = 0.25
				monarchism_drift = 0.005
				conscription_factor = -0.08
			}
		}
		IEA_coffee_trade = {
			name = IEA_coffee_trade
			picture = GFX_idea_USA_land_rehab
			allowed = {
				always = no
			}
			removal_cost = -1
			modifier = {
				consumer_goods_expected_value = -0.03
			}
		}
		IEA_coffee_trade2 = {
			name = IEA_coffee_trade
			picture = GFX_idea_USA_land_rehab
			allowed = {
				always = no
			}
			removal_cost = -1
			modifier = {
				consumer_goods_expected_value = -0.05
			}
		}
	}
	industrial_concern = {
		IEA_Rail_company = {
			
			picture = generic_build_infrastructure
			
							
			available = {
				has_completed_focus = IEA_Road
			}
			allowed = {
				original_tag = ETH
			}
			
			research_bonus = {			
				construction_tech = 0.10			
			}
			
			traits = { industrial_concern  industrial_concern_trait }
			
			modifier = { 
				production_speed_rail_way_factor = 0.10
			}
			
			cost = 100
		}
	}
}
### EOF ###

