ideas = {
	
	country = {
		HUN_integration = {
				
			allowed = {
				always = no
			}

			allowed_civil_war = {
				always = yes
			}

			removal_cost = -1

			picture = HUN_air
			
			modifier = {
				compliance_growth = 0.05
			}
		}
		HUN_integration2 = {
			name = HUN_integration
			allowed = {
				always = no
			}

			allowed_civil_war = {
				always = yes
			}

			removal_cost = -1

			picture = HUN_air
			
			modifier = {
				compliance_growth = 0.05
				compliance_gain = 0.02
			}
		}
		HUN_suppression = {
			allowed = {
				always = no
			}

			allowed_civil_war = {
				always = yes
			}

			removal_cost = -1

			picture = HUN_air
			
			modifier = {
				compliance_growth = -0.01
				non_core_manpower = 0.02
			}
		}
		HUN_suppression2 = {
			name = HUN_suppression
			allowed = {
				always = no
			}

			allowed_civil_war = {
				always = yes
			}

			removal_cost = -1

			picture = HUN_air
			
			modifier = {
				no_compliance_gain = 1
				non_core_manpower = 0.02
				required_garrison_factor = 0.05
				resistance_target = -0.07
			}
		} 
		HUN_air_malus = {
				
			allowed = {
				always = no
			}

			allowed_civil_war = {
				always = yes
			}

			removal_cost = -1

			picture = HUN_air
			
			modifier = {
				license_air_purchase_cost = 0.12
				license_production_speed = -0.06
			}
		}
		HUN_air_malus_1 = {
			name = HUN_air_malus
			allowed = {
				always = no
			}

			allowed_civil_war = {
				always = yes
			}

			removal_cost = -1

			picture = HUN_air
			
			modifier = {
				license_air_purchase_cost = 0.08
				license_production_speed = -0.04
			}
		}
		sending_supplies_to_hungary = {
				
			allowed = {
				always = no
			}

			allowed_civil_war = {
				always = yes
			}

			removal_cost = -1

			picture = generic_goods_red_bonus
			
			modifier = {
				consumer_goods_expected_value = 0.05
			}
		}
		support_from_hungary = {
				
			allowed = {
				always = no
			}

			allowed_civil_war = {
				always = yes
			}

			removal_cost = -1

			picture = generic_intel_bonus
			
			modifier = {
				political_power_gain = 0.1
			}
		}
		
		loan_payments_from_hungary = {
				
			allowed = {
				always = no
			}

			allowed_civil_war = {
				always = yes
			}

			removal_cost = -1

			picture = generic_foreign_capital
			
			modifier = {
				political_power_gain = 0.05
			}
		}
		revisionist_spirit = {
				
			
			allowed = { always = no }

			allowed_civil_war = {
				OR = {
					has_government = fascism
					has_government = neutrality
				}
			}

			removal_cost = -1

			#picture = generic_morale_bonus
			
			modifier = {
				war_support_factor = 0.10
				drift_defence_factor = 0.25
				war_support_weekly = 0.001
			}
		}
		revisionist_spirit_fascism = {
				
			
			allowed = { always = no }

			allowed_civil_war = {
				has_government = fascism
			}

			removal_cost = -1

			picture = revisionist_spirit
			
			modifier = {
				war_support_factor = 0.10
				war_support_weekly = 0.001
			}
		}
		revisionist_spirit_neutrality = {
				
			allowed = { always = no }

			allowed_civil_war = {
				has_government = fascism
			}

			removal_cost = -1

			picture = revisionist_spirit
			
			modifier = {
				war_support_factor = 0.10
				war_support_weekly = 0.001
				drift_defence_factor = 0.50
			}
		}
		
		successful_revision = {
				
			allowed = { always = no }

			allowed_civil_war = {
				OR = {
					has_government = fascism
					has_government = neutrality
				}
			}

			removal_cost = -1

			picture = successful_revision
			
			modifier = {
				stability_factor = 0.10
				political_power_gain = 0.5
				army_core_attack_factor = 0.1
				army_core_defence_factor = 0.1
			}
		}
		
		united_hungarian_lands = {
				
			allowed = { always = no }

			allowed_civil_war = {
				has_government = fascism
			}

			removal_cost = -1

			picture = revisionist_spirit
			
			modifier = {
				stability_factor = 0.10
				political_power_gain = 0.25
				army_core_attack_factor = 0.1
				army_core_defence_factor = 0.1
				conscription_factor = 0.05
			}
		}
		
		fascism_losing_popularity = {
				
			allowed = { always = no }

			allowed_civil_war = {
				always = no
			}

			removal_cost = -1

			picture = generic_fascism_banned
			
			modifier = {
				fascism_drift = -0.05
				neutrality_drift = -0.05
				drift_defence_factor = -0.25
			}
		}
		
		reformed_conscription = {
				
			allowed = { always = no }

			allowed_civil_war = {
				always = yes
			}

			removal_cost = -1

			picture = generic_manpower_bonus
			
			modifier = {
				conscription = 0.01
			}
		}
		
		spread_of_liberalism = {
				
			allowed = { always = no }

			allowed_civil_war = {
				always = no
			}

			removal_cost = -1

			picture = generic_democratic_drift_bonus
			
			modifier = {
				liberalism_drift = 0.05
			}
		}

		scientific_spirit = {
			removal_cost = -1
				
			allowed = { always = no }

			allowed_civil_war = {
				democratic_govt = yes
			}
			
			picture = generic_research_bonus
			
			modifier = {
				research_speed_factor = 0.03
			}
		}
		
		spread_of_communism = {
				
			allowed = { always = no }

			allowed_civil_war = {
				always = no
			}

			removal_cost = -1

			picture = generic_communism_drift_bonus
			
			modifier = {
				communism_drift = 0.05
			}
		}
		
		rakosi_administration = {
				
			allowed = { always = no }

			allowed_civil_war = {
				has_government = communism
			}

			removal_cost = -1

			#picture = generic_intel_bonus
			
			modifier = {
				political_power_gain = 0.1
				stability_factor = -0.05
				war_support_factor = -0.05
			}
		}
		
		avo = {
				
			allowed = { always = no }

			allowed_civil_war = {
				has_government = communism
			}

			removal_cost = -1

			picture = generic_intel_bonus
			
			modifier = {
				foreign_subversive_activites = -0.50
				subversive_activites_upkeep = -0.1
			}
		}
		
		hungarian_five_year_plan = {
				
			allowed = { always = no }

			allowed_civil_war = {
				has_government = communism
			}

			removal_cost = -1

			picture = generic_production_bonus
			
			modifier = {
				industrial_capacity_factory = 0.05
			}
		}
		
		kadar_administration = {
				
			allowed = { always = no }

			allowed_civil_war = {
				has_government = communism
			}

			removal_cost = -1

			#picture = generic_intel_bonus
			
			modifier = {
				political_power_gain = 0.1
				consumer_goods_expected_value = 0.05
			}
		}
		
		goulash_communism = {
				
			allowed = { always = no }

			allowed_civil_war = {
				has_government = communism
			}

			removal_cost = -1

			picture = generic_goods_red_bonus
			
			modifier = {
				industrial_capacity_factory = 0.05
				consumer_goods_expected_value = 0.02
			}
		}
		
		single_party_system = {
				
			allowed = {
				always = no
			}

			allowed_civil_war = {
				has_government = communism
			}

			removal_cost = -1

			picture = generic_communism_drift_bonus
			
			modifier = {
				drift_defence_factor = 1
			}
		}
		
		worker_spirit = {
				
			allowed = { always = no }

			allowed_civil_war = {
				has_government = communism
			}

			removal_cost = -1

			picture = generic_production_bonus
			
			modifier = {
				production_speed_arms_factory_factor = 0.06
				production_speed_industrial_complex_factor = 0.06
				conversion_cost_civ_to_mil_factor = -0.2
			}
		}
		
		underground_communism = {
				
			allowed = {
				always = no
			}

			allowed_civil_war = {
				always = no
			}

			removal_cost = -1

			picture = generic_communism_drift_bonus
			
			modifier = {
				communism_drift = 0.03
			}
		}
		
		spreading_the_revolution = {
				
			allowed = { always = no }

			allowed_civil_war = {
				has_government = communism
			}

			removal_cost = -1

			picture = FRA_scw_intervention_republicans_focus
			
			modifier = {
				subversive_activites_upkeep = -0.5
			}
		}
		
		war_preparation = {
				
			allowed = {
				always = no
			}

			allowed_civil_war = {
				always = yes
			}

			removal_cost = -1

			picture = FRA_national_mobilization_focus
			
			modifier = {
				lend_lease_tension = -0.20
				send_volunteers_tension = -0.20
				send_volunteer_divisions_required = -0.25
				consumer_goods_expected_value = -0.02
				conscription_factor = 0.05
			}
		}
		
		spread_of_nationalism = {
				
			allowed = { always = no }

			allowed_civil_war = {
				has_government = fascism
			}

			removal_cost = -1

			picture = generic_fascism_drift_bonus
			
			modifier = {
				fascism_drift = 0.03
				stability_factor = -0.05
			}
		}
		
		szalasi_social_reforms = {
				
			allowed = { always = no }

			allowed_civil_war = {
				has_government = fascism
			}

			removal_cost = -1

			picture = generic_pp_unity_bonus
			
			modifier = {
				political_power_gain = 0.05
			}
		}
		
		domestic_focus = {
				
			allowed = { always = no }

			allowed_civil_war = {
				has_government = fascism
			}

			removal_cost = -1

			picture = generic_morale_bonus
			
			modifier = {
				production_speed_buildings_factor = 0.05
				trade_opinion_factor = -0.25
				foreign_subversive_activites = -0.50
			}
		}
		
		industrial_agrarian_state = {
				
			allowed = { always = no }

			allowed_civil_war = {
				has_government = fascism
			}

			removal_cost = -1

			picture = generic_agrarian_reform
			
			modifier = {
				conscription_factor = -0.10
				industrial_capacity_factory = 0.10
				fascism_drift = 0.01
			}
		}
		
		levente_movement = {
				
			allowed = { always = no }

			allowed_civil_war = {
				always = yes
			}

			removal_cost = -1

			picture = generic_manpower_bonus
			
			modifier = {
				conscription = 0.005
				training_time_army_factor = -0.05
			}
		}
		
		levente_movement_2 = {
				
			allowed = { always = no }

			allowed_civil_war = {
				always = yes
			}

			removal_cost = -1

			picture = generic_manpower_bonus
			
			modifier = {
				conscription = 0.01
				training_time_army_factor = -0.07
			}
		}
		
		arrow_cross_party_banned = {
				
			allowed = { always = no }

			allowed_civil_war = {
				always = yes
			}

			removal_cost = -1

			picture = generic_fascism_banned
			
			modifier = {
				fascism_drift = -0.05
			}
		}
		
		revisionist_education = {
				
			allowed = { always = no }

			allowed_civil_war = {
				has_government = fascism
			}

			removal_cost = -1

			picture = generic_research_bonus
			
			modifier = {
				war_support_weekly = 0.0010
				conscription_factor = 0.05
			}
		}
		
		supporting_italy = {
				
			allowed = { always = no }

			allowed_civil_war = {
				has_government = fascism
			}

			removal_cost = -1

			picture = generic_political_support
			
			modifier = {
				political_power_gain = -0.1
			}
		}
		
		fortification_effort = {
				
			allowed = { always = no }

			allowed_civil_war = {
				always = yes
			}

			removal_cost = -1

			picture = generic_wall_line
			
			modifier = {
				production_speed_bunker_factor = 0.3
				production_speed_coastal_bunker_factor = 0.3
				production_speed_anti_air_building_factor = 0.3
			}
		}
		
		fortification_effort_realism = {
				
			allowed = { always = no }

			allowed_civil_war = {
				always = yes
			}

			removal_cost = -1

			picture = generic_wall_line
			
			modifier = {
				production_speed_bunker_factor = 0.15
				production_speed_coastal_bunker_factor = 0.15
				production_speed_anti_air_building_factor = 0.15
			}
		}
		
		industrial_effort = {
				
			allowed = { always = no }

			allowed_civil_war = {
				always = yes
			}

			removal_cost = -1

			picture = generic_production_bonus
			
			modifier = {
				production_speed_arms_factory_factor = 0.2
				production_speed_industrial_complex_factor = 0.2
				production_speed_dockyard_factor = 0.2
				production_speed_naval_base_factor = 0.2
			}
		}
		
		industrial_effort_realism = {
				
			allowed = { always = no }

			allowed_civil_war = {
				always = yes
			}

			removal_cost = -1

			picture = generic_production_bonus
			
			modifier = {
				production_speed_arms_factory_factor = 0.1
				production_speed_industrial_complex_factor = 0.1
				production_speed_dockyard_factor = 0.1
			}
		}
		
		fighter_production_innovations = {
				
			allowed = { always = no }

			allowed_civil_war = {
				always = yes
			}

			removal_cost = -1

			picture = generic_air_bonus
			
			equipment_bonus = {
				fighter_equipment = {
					build_cost_ic = -0.02 instant = yes
				}
				fighter_alt_equipment = {
					build_cost_ic = -0.02 instant = yes
				}
				interceptor_equipment = {
					build_cost_ic = -0.02 instant = yes
				}
				mr_fighter_equipment = {
					build_cost_ic = -0.02 instant = yes
				}
			}
		}
		
		bomber_production_innovations = {
				
			allowed = { always = no }

			allowed_civil_war = {
				always = yes
			}

			removal_cost = -1

			picture = generic_air_bonus
			
			equipment_bonus = {
				light_bomber_equipment = {
					build_cost_ic = -0.02 instant = yes
				}
				tac_bomber_equipment = {
					build_cost_ic = -0.02 instant = yes
				}
				fast_bomber_equipment = {
					build_cost_ic = -0.02 instant = yes
				}
			}
		}
		
		naval_rearmament = {
				
			allowed = { always = no }

			allowed_civil_war = {
				always = yes
			}

			removal_cost = -1

			picture = generic_navy_bonus
			
			modifier = {
				production_speed_dockyard_factor = 0.05
				production_speed_naval_base_factor = 0.1
			}
		}
		
		naval_defense = {
				
			allowed = { always = no }

			allowed_civil_war = {
				always = yes
			}

			removal_cost = -1

			picture = generic_navy_bonus
			
			modifier = {
				production_speed_coastal_bunker_factor = 0.4
			}
		}
		
		funding_the_gyori_program = {
				
			allowed = { always = no }

			allowed_civil_war = {
				always = yes
			}

			removal_cost = -1

			picture = great_depression
			
			modifier = {
				political_power_gain = -0.15
				consumer_goods_expected_value = 0.03
			}
		}
		
		gyori_program_research = {
				
			allowed = { always = no }

			allowed_civil_war = {
				always = yes
			}

			removal_cost = -1

			picture = generic_research_bonus
			
			modifier = {
				research_speed_factor = 0.05
			}
		}
		
		gyori_program_industry = {
				
			allowed = { always = no }

			allowed_civil_war = {
				always = yes
			}

			removal_cost = -1

			picture = man_five_year_plan_industry
			
			modifier = {
				production_speed_arms_factory_factor = 0.15
				production_speed_industrial_complex_factor = 0.15
				conversion_cost_civ_to_mil_factor = -0.2
			}
		}
		
		gyori_program_army_research = {
				
			allowed = { always = no }

			allowed_civil_war = {
				always = yes
			}

			removal_cost = -1

			picture = generic_intel_bonus
			
			research_bonus = {
				land_doctrine = 0.10
				infantry_weapons = 0.10
				motorized_equipment = 0.10
				artillery = 0.10
				armor_tech = 0.10
			}
		}
		
		gyori_program_defense = {
				
			allowed = { always = no }

			allowed_civil_war = {
				always = yes
			}

			removal_cost = -1

			picture = generic_wall_line
			
			modifier = {
				production_speed_bunker_factor = 0.3
				production_speed_coastal_bunker_factor = 0.3
				production_speed_anti_air_building_factor = 0.3	
			}
		}
		
		gyori_program_air_research = {
				
			allowed = { always = no }

			allowed_civil_war = {
				always = yes
			}

			removal_cost = -1

			picture = generic_air_bonus
			
			research_bonus = {
				light_air = 0.10
				medium_air = 0.10
				heavy_air = 0.10
				air_doctrine = 0.10
			}
		}
		
		gyori_program_air_production = {
				
			allowed = { always = no }

			allowed_civil_war = {
				always = yes
			}

			removal_cost = -1

			picture = man_five_year_plan_air
			
			equipment_bonus = {
				fighter_equipment = {
					build_cost_ic = -0.04 instant = yes
				}
				fighter_alt_equipment = {
					build_cost_ic = -0.04 instant = yes
				}
				interceptor_equipment = {
					build_cost_ic = -0.04 instant = yes
				}
				mr_fighter_equipment = {
					build_cost_ic = -0.04 instant = yes
				}
				CAS_equipment = {
					build_cost_ic = -0.04 instant = yes
				}
				twin_cas_equipment = {
					build_cost_ic = -0.04 instant = yes
				}
				light_bomber_equipment = {
					build_cost_ic = -0.04 instant = yes
				}
				fast_bomber_equipment = {
					build_cost_ic = -0.04 instant = yes
				}
				tac_bomber_equipment = {
					build_cost_ic = -0.04 instant = yes
				}
			}
		}
		
		gyori_program_navy_research = {
				
			allowed = { always = no }

			allowed_civil_war = {
				always = yes
			}

			removal_cost = -1

			picture = generic_navy_bonus
			
			research_bonus = {
				naval_equipment = 0.05
				naval_doctrine = 0.05
			}
		}
		
		gyori_program_navy_production = {
				
			allowed = { always = no }

			allowed_civil_war = {
				always = yes
			}

			removal_cost = -1

			picture = escort_effort_focus
			
			modifier = {
				industrial_capacity_dockyard = 0.05
			}
		}
		
		assistance_from_german_general_staff = {
				
			allowed = { always = no }

			allowed_civil_war = {
				always = yes
			}

			removal_cost = -1

			picture = german_advisors		
			
			modifier = {
				planning_speed = 0.10
			}
			
			research_bonus = {
				land_doctrine = 0.04
			}
		}
		
		trianon_restrictions = {
				
			allowed = { always = no }

			allowed_civil_war = {
				always = yes
			}

			removal_cost = -1

			picture = trianon_restrictions		
			
			modifier = {
				join_faction_tension = 0.20
				conscription_factor = -0.1
				industrial_capacity_factory = -0.15
				production_speed_arms_factory_factor = -0.10
			}
			#cancel_if_invalid = yes
			cancel = {
				num_of_factories > 99
			}
			research_bonus = {
				artillery = -0.07
				armor_tech = -0.07
				air_equipment = -0.07
				land_doctrine = -0.05
			}
		}
		
		trianon_restrictions_bled_agreement = {
				
			allowed = { always = no }

			allowed_civil_war = {
				always = yes
			}
			cancel = {
				num_of_factories > 99
			}
			removal_cost = -1

			picture = trianon_restrictions		
			
			modifier = {
				join_faction_tension = 0.20	
				industrial_capacity_factory = -0.10
				production_speed_arms_factory_factor = -0.05				
			}
		}
		
		visegrad_military_council = {
				
			allowed = {
				always = no
			}

			allowed_civil_war = {
				always = no
			}

			removal_cost = -1

			picture = partial_economic_mobilisation
			
			modifier = {
				political_power_gain = -0.05
				planning_speed = 0.20
				army_org_Factor = 0.05
			}
			
			research_bonus = {
				land_doctrine = 0.05
			}
		}
		
		democracy_gaining_ground = {
				
			allowed = {
				always = no
			}

			allowed_civil_war = {
				always = no
			}

			removal_cost = -1

			picture = generic_democratic_drift_bonus
			
			modifier = {
				socialism_drift = 0.02
				conservatism_drift = 0.02
				liberalism_drift = 0.02
			}
		}
		
		german_subsidized_armor_production = {
				
			allowed = { always = no }

			allowed_civil_war = {
				always = yes
				has_government = fascism
			}

			removal_cost = -1

			picture = idea_man_five_year_plan_tank
			
			equipment_bonus = {
				trm_light_tank_chassis = { #TODO_MINOR_TANK used to be heavy_tank_equipment
					build_cost_ic = -0.10 instant = yes
				}
			}
		}
		
		conservative_ideas = {
				
			allowed = { always = no }

			allowed_civil_war = {
				always = yes
				has_government = neutrality
			}

			removal_cost = -1

			picture = generic_neutrality_drift_bonus
			
			modifier = {
				stability_factor = 0.02
				neutrality_drift = 0.04
				conservatism_drift = 0.01
				monarchism_drift = 0.02
			}
		}

		hungarian_expansionism = {
		
			allowed = { always = no }

			allowed_civil_war = {
				always = yes
			}

			removal_cost = -1

			picture = generic_intel_bonus
			
			modifier = {		
				justify_war_goal_time = -0.25
				generate_wargoal_tension = -0.4
			}
		}

		volunteers_for_finland = {
		
			allowed = { always = no }

			allowed_civil_war = {
				always = yes
			}

			removal_cost = -1

			picture = generic_manpower_bonus
			
			modifier = {		
				send_volunteer_divisions_required = -0.8
				send_volunteers_tension = -0.5
			}
		}

		foreign_service = {
		
			allowed = { always = no }

			allowed_civil_war = {
				always = yes
			}

			removal_cost = -1

			picture = generic_volunteer_expedition_bonus
			
			modifier = {		
				send_volunteer_divisions_required = -0.1
				send_volunteers_tension = -0.1
			}
		}

		convertible_factories = {
		
			allowed = { always = no }

			allowed_civil_war = {
				always = yes
			}

			removal_cost = -1

			picture = generic_goods_red_bonus
			
			modifier = {		
				production_speed_arms_factory_factor = 0.05
				conversion_cost_civ_to_mil_factor = -0.4
			}
		}

		rongyos_garda = {
		
			allowed = { always = no }

			allowed_civil_war = {
				always = yes
			}

			removal_cost = -1

			picture = ast_volunteer_defence_corps
			
			modifier = {		
				subversive_activites_upkeep = -0.25
				war_support_factor = 0.05
				non_core_manpower = 0.01
			}
		}
		
		military_land_survey = {
				
			allowed = { always = no }

			allowed_civil_war = {
				always = yes
			}

			removal_cost = -1

			picture = CZE_planning_bonus
			
			modifier = {
				army_core_defence_factor = 0.07
				recon_factor = 0.05
			}
		}

		leaning_towards_germany_fascism = {

			allowed = {
				always = no
			}

			allowed_civil_war = {
				has_government = fascism
			}

			removal_cost = -1

			picture = generic_fascism_drift_bonus
			
			modifier = {
				fascism_drift = 0.02
				fascism_acceptance = 20
			}
		}
		
		ubag_submarine_factory = {
				
			allowed = { always = no }

			allowed_civil_war = {
				always = yes
				owns_state = 474	# Fiume
			}

			removal_cost = -1

			picture = the_long_lance
			
			equipment_bonus = {
				nrm_ship_hull_submarine = {
					build_cost_ic = -0.05 instant = yes
				}
			}
		}

		german_licenses = {

			picture = generic_license_production

			allowed = {
				always = no
			}
			
			modifier = {
				license_air_purchase_cost = -0.5
				license_armor_purchase_cost = -0.25
			}
		}

		kuk_army = {

			picture = YUG_federal_defense_council

			allowed = { original_tag = HUN }
			
			modifier = {
				army_morale_factor = 0.02
				non_core_manpower = 0.15
			}
		}

		depleted_reserves = {

			picture = scraping_the_barrel

			allowed = {
				always = no
			}
			
			modifier = {
				MONTHLY_POPULATION = -0.50
				#conscription_factor = -0.60
			}
		}
		
		the_iron_curtain = {

			picture = iron_curtain

			allowed_civil_war = {
				has_government = communism
			}
			allowed = {
				always = no
			}
			
			modifier = {
				drift_defence_factor = 0.6
			}
		}
		
		move = {

			picture = generic_reserve_divisions

			allowed_civil_war = {
				democratic_govt = yes
			}

			allowed = {
				always = no
			}
			
			modifier = {
				conscription_factor = 0.03
				war_support_factor = 0.10
				training_time_army_factor = -0.05
			}
		}
		
		land_reform = {

			picture = generic_agrarian_reform

			allowed_civil_war = {
				democratic_govt = yes
			}

			allowed = {
				always = no
			}
			
			modifier = {
				consumer_goods_expected_value = -0.025
			}
		}
		
		espirit_de_corps = {

			picture = espirit_de_corps

			allowed_civil_war = {
				democratic_govt = yes
			}

			allowed = {
				always = no
			}
			
			modifier = {
				army_morale_factor = 0.05
				army_core_attack_factor = 0.05
				army_core_defence_factor = 0.05
			}
		}
		
		soviet_officer_training = {

			picture = saf_soviet_advisers

			allowed_civil_war = {
				has_government = communism
			}

			allowed = {
				always = no
			}
			
			modifier = {
				army_leader_start_defense_level = 1
			}
		}

		aerotechnics_institute = {

			picture = generic_air_research

			allowed = {
				always = no
			}
			
			research_bonus = {
				air_equipment = 0.05
			}
		}

		kingdom_without_a_king = {

			picture = HUN_hungarian_monarchy

			allowed = {
				always = no
			}
			
			modifier = {
				stability_factor = -0.05
				political_advisor_cost_factor = 0.20
				
			}
		}

		stockpiling_equipment_25 = {

			picture = stockpiling_equipment

			allowed = {
				always = no
			}
			
			modifier = {
				industrial_capacity_factory = -0.25
			}
		}

		stockpiling_equipment_50 = {

			picture = stockpiling_equipment

			allowed = {
				always = no
			}
			
			modifier = {
				industrial_capacity_factory = -0.50
			}
		}

		secret_agents_occupied = {

			picture = generic_secret_police

			allowed = {
				always = no
			}
			
			modifier = {
				#decryption_factor = -0.2
				drift_defence_factor = -0.25
				political_power_gain = -0.1
			}
		}
		
		infantry_tactics = {

			picture = generic_infantry_bonus

			allowed = {
				always = no
			}
			
			modifier = {
				army_infantry_attack_factor = 0.02
				army_infantry_defence_factor = 0.02
			}
		}
		
		armament_unification = {
			allowed = {
				always = no
			}
			picture = generic_war_preparation
			
			modifier = {
				industrial_capacity_factory = 0.05
			}
		}
		
		gendarmerie = {

			picture = generic_reserve_divisions

			allowed = {
				always = no
			}
			
			modifier = {
				drift_defence_factor = 0.25
				foreign_subversive_activites = -0.30
				resistance_activity = -0.10
			}
		}
		
		regional_elections = {

			picture = generic_constitutional_guarantees

			allowed = {
				always = no
			}
			
			modifier = {
				political_power_gain = 0.10
			}
		}
		
		cooperative_nationalities = {

			picture = generic_morale_bonus
			
			allowed_civil_war = {
				
			}

			allowed = {
				always = no
			}
			
			modifier = {
				non_core_manpower = 0.15
			}
		}
		
		kun_administration = {
		
			picture = trotskyite_plot_purged
			
			allowed_civil_war = {
				has_government = communism
			}

			allowed = {
				always = no
			}
			
			modifier = {
				stability_factor = -0.15
				political_power_gain = 0.10
				communism_drift = 0.10
				foreign_subversive_activites = -0.50
			}
		}
		
		kun_administration_2 = {

			picture = trotskyite_plot_purged
			
			allowed_civil_war = {
				has_government = communism
			}

			allowed = {
				always = no
			}
			
			modifier = {
				stability_factor = -0.10
				political_power_gain = 0.10
				communism_drift = 0.10
				foreign_subversive_activites = -0.50
				army_core_defence_factor = 0.05
				land_reinforce_rate = 0.1
			}
		}
		
		federal_reserve_guard = {

			picture = generic_reserve_divisions
			allowed = {
				always = no
			}			
			modifier = {
				training_time_army_factor = -0.10
				conscription_factor = 0.05
			}
		}
		
		federal_construction_effort = {

			picture = tot_economic_mobilisation
			allowed = {
				always = no
			}			
			modifier = {
				production_speed_buildings_factor = 0.25
			}
		}
		
		comittee_for_federal_security = {

			picture = generic_secret_police
			allowed = {
				always = no
			}			
			modifier = {
				experience_gain_army = 0.02
				foreign_subversive_activites = -0.50
				enemy_justify_war_goal_time = 0.1
				fascism_acceptance = -50
			}
		}
		
		armed_neutrality = {

			allowed = {
				always = no
			}
			
			modifier = {
				production_speed_buildings_factor = 0.1
				industrial_capacity_factory = 0.1
				join_faction_tension = 0.50
				justify_war_goal_time = 0.50
				ai_badass_factor = 0.01    # Will receive 1% of the threat from others
				ai_get_ally_desire_factor = -100
			}
		}
		
		women_in_the_army = {
			
			picture = generic_victors_of_ww1

			allowed = {
				always = no
			}
			
			modifier = {
				stability_factor = -0.05
				conscription = 0.01
			}
		}
		
		paying_reparations = {
			
			picture = great_depression
			allowed = {
				always = no
			}			
			modifier = {
				consumer_goods_expected_value = 0.20
			}
		}
		
		reparations_from_hungary = {
			
			picture = generic_foreign_capital
			allowed = {
				always = no
			}			
			modifier = {
				consumer_goods_expected_value = -0.20
			}
		}
		
		social_reconciliation = {
			
			picture = generic_disjointed_gov

			allowed = {
				always = no
			}

			removal_cost = -1

			modifier = {
				stability_factor = 0.10
				military_leader_cost_factor = -0.10
				drift_defence_factor = -0.25
			}
		}
		
		tax_reform = {
			
			picture = generic_constitutional_guarantees

			allowed = {
				always = no
			}

			removal_cost = -1

			modifier = {
				conservatism_drift = 0.01
				socialism_drift = 0.02
				consumer_goods_expected_value = -0.02
				political_power_gain = -0.05
			}
		}
		
		education_reform = {
			
			picture = jap_supremacy_of_will

			allowed_civil_war = {
				always = yes
			}

			allowed = {
				always = no
			}

			removal_cost = -1

			modifier = {
				research_speed_factor = 0.05
			}
		}
		
		receiving_supplies_from_slovakia = {
			
			picture = generic_foreign_capital
			allowed = {
				always = no
			}			
			modifier = {
				consumer_goods_expected_value = -0.03
			}
		}
		
		french_plane_components = {
			
			picture = generic_fighter_production_diverted
			allowed = {
				always = no
			}		
			equipment_bonus = {
				fighter_equipment = {
					build_cost_ic = -0.04 instant = yes
				}
				fighter_alt_equipment = {
					build_cost_ic = -0.04 instant = yes
				}
				interceptor_equipment = {
					build_cost_ic = -0.04 instant = yes
				}
				mr_fighter_equipment = {
					build_cost_ic = -0.04 instant = yes
				}
				CAS_equipment = {
					build_cost_ic = -0.04 instant = yes
				}
				twin_cas_equipment = {
					build_cost_ic = -0.04 instant = yes
				}
				light_bomber_equipment = {
					build_cost_ic = -0.04 instant = yes
				}
				fast_bomber_equipment = {
					build_cost_ic = -0.04 instant = yes
				}
				tac_bomber_equipment = {
					build_cost_ic = -0.04 instant = yes
				}
			}
		}
		
		ludovica_academy = {
			
			picture = generic_army_war_college

			allowed_civil_war = {
				always = yes
			}

			allowed = {
				always = no
			}

			removal_cost = -1

			modifier = {
				military_leader_cost_factor = -0.10
				army_leader_start_attack_level = 1
				army_leader_start_planning_level = 1
			}
		}
		
		supporting_worker_revolt_abroad = {
			
			picture = ast_abandon_the_westminster_system

			allowed_civil_war = {
				has_government = communism
			}

			allowed = {
				always = no
			}

			removal_cost = -1

			modifier = {
				political_power_gain = -0.20
			}
		}

		danubian_saboteurs = {

			allowed_civil_war = {
				always = yes
			}
			allowed = {
				always = no
			}			
			removal_cost = -1

			picture = generic_purge
			
			targeted_modifier = {
				tag = HUN
				attack_bonus_against = -0.05
				defense_bonus_against = -0.15
			}
		}

		emergency_industrial_measures = {
			
			picture = tot_economic_mobilisation

			allowed_civil_war = {
				always = yes
			}

			allowed = {
				always = no
			}

			removal_cost = -1

			modifier = {
				MONTHLY_POPULATION = -0.20
				conscription = -0.02
				industrial_capacity_factory = 0.2
			}
		}

		italian_armament_loan = {
			
			picture = generic_foreign_capital

			allowed_civil_war = {
				always = yes
			}

			allowed = {
				always = no
			}

			removal_cost = -1

			modifier = {
				political_power_gain = -0.05
				industrial_capacity_factory = 0.05
			}
		}
		
		italian_hungarian_naval_academy = {
			
			picture = escort_effort_focus
			allowed = {
				always = no
			}
			allowed_civil_war = {
				always = yes
			}

			removal_cost = -1

			modifier = {
				experience_gain_navy = 0.05
			}
			
			research_bonus = {
				naval_doctrine = 0.05
			}
		}
		
		home_defense_law = {
			
			picture = generic_constitutional_guarantees

			allowed_civil_war = {
				has_government = neutrality
			}

			allowed = {
				always = no
			}

			removal_cost = -1

			modifier = {
				planning_speed = 0.01
				army_core_defence_factor = 0.03
			}
		}
		
		gyor_artillery = {
			
			picture = generic_artillery_regiments

			allowed_civil_war = {
				always = yes
			}

			allowed = {
				always = no
			}

			removal_cost = -1

			equipment_bonus = {
				artillery_equipment = {
					build_cost_ic = -0.05
				}
			}
		}
		
		hindenburg_plan = {
			
			picture = generic_goods_red_bonus

			allowed_civil_war = {
				always = yes
			}

			allowed = {
				always = no
			}

			removal_cost = -1

			modifier = {
				consumer_goods_expected_value = -0.01
				resources_factor = 0.05
			}
		}
		
		production_control = {
			
			picture = generic_central_management

			allowed_civil_war = {
				always = yes
			}

			allowed = {
				always = no
			}

			removal_cost = -1

			modifier = {
				consumer_goods_expected_value = -0.02
			}
		}
		
		production_distrubance = {
			
			picture = generic_army_problems

			allowed_civil_war = {
				always = yes
			}

			allowed = {
				always = no
			}

			removal_cost = -1

			modifier = {
				industrial_capacity_factory = -0.1
			}
		}
		
		foreign_military_mission = {
			
			picture = SOV_scientist_defect

			allowed_civil_war = {
				always = yes
			}

			allowed = {
				always = no
			}

			removal_cost = -1

			modifier = {
				max_command_power = 10
				experience_gain_army = 0.02
				experience_gain_navy = 0.02
				experience_gain_air = 0.02
				political_power_gain = -0.2
			}
		}
		
		disciplinary_regiments = {
			
			picture = ast_classify_aliens

			allowed_civil_war = {
				has_government = fascism
			}

			allowed = {
				always = no
			}

			removal_cost = -1

			modifier = {
				production_speed_infrastructure_factor = 0.1
				production_speed_rail_way_factor = 0.05
				production_speed_bunker_factor = 0.1
			}
		}
		
		home_defense_comittee = {
			
			picture = send_attache

			allowed_civil_war = {
				has_government = communism
			}
			allowed = {
				always = no
			}

			removal_cost = -1

			modifier = {
				production_speed_arms_factory_factor = 0.1
			}
		}
		
		dual_profile_factories = {
			
			picture = generic_local_self_management

			allowed_civil_war = {
				has_government = communism
			}

			allowed = {
				always = no
			}

			removal_cost = -1

			modifier = {
				conversion_cost_civ_to_mil_factor = -0.2
			}
			
			equipment_bonus = {
				infantry_equipment = {
					build_cost_ic = -0.1 instant = yes
				}
			}
		}
		
		foreign_investments = {
			
			picture = generic_foreign_capital

			allowed_civil_war = {
				always = yes
			}

			allowed = {
				always = no
			}

			removal_cost = -1

			modifier = {
				stability_factor = -0.05	
				production_speed_buildings_factor = 0.1
			}
		}
		
		german_economic_connections = {
			
			picture = can_wartime_prices_and_trade_board

			allowed_civil_war = {
				is_in_faction_with = GER
			}

			allowed = {
				always = no
			}

			removal_cost = -1

			modifier = {
				fuel_gain_from_states = 2.0
			}
		}
		
		military_cooperation_with_germany = {
			
			picture = generic_fascism_drift_2

			allowed_civil_war = {
				is_in_faction_with = GER
			}

			allowed = {
				always = no
			}

			removal_cost = -1

			modifier = {
				max_command_power = 25
				max_planning = 0.03
				defence = 0.01
			}
		}
		
		anti_government_protests = {
			
			picture = FRA_matignon_agreements

			allowed_civil_war = {
				always = no
			}

			allowed = {
				always = no
			}

			removal_cost = -1

			modifier = {
				stability_factor = -0.15
				opposition_party_drift = 0.15
				production_speed_buildings_factor = -0.1
				industrial_capacity_factory = -0.1
				industrial_capacity_dockyard = -0.1
			}
		}
		
		shaky_government = {
			
			picture = generic_disjointed_gov

			allowed_civil_war = {
				democratic_govt = yes
			}

			allowed = {
				always = no
			}

			removal_cost = -1

			modifier = {
				stability_factor = -0.20
				political_power_factor = -0.5
				political_advisor_cost_factor = 0.5
				opposition_party_drift = 0.04
			}
		}
		
		purge_of_communism = {
			
			picture = anti_soviet_pact

			allowed_civil_war = {
				NOT = { has_government = communism }
			}

			allowed = {
				always = no
			}

			removal_cost = -1

			modifier = {
				stability_factor = -0.10
				socialism_drift = -0.02
				communism_drift = -0.15
			}
		}
		
		# King national spirits
		
		king_horthy = {

			allowed_civil_war = {
				NOT = { has_government = communism }
			}
			allowed = {
				always = no
			}
			removal_cost = -1

			#picture = king_horthy
			
			modifier = {
				stability_factor = 0.05
			}
		}

		king_otto_von_habsburg = {

			allowed_civil_war = {
				NOT = { has_government = communism }
			}
			allowed = {
				always = no
			}			
			modifier = {
				opinion_gain_monthly_factor = 0.15
				trade_opinion_factor = 0.25
				monarchism_drift = 0.02
			}
		}

		king_franz_albrecht_von_habsburg = {

			allowed_civil_war = {
				NOT = { has_government = communism }
			}
			allowed = {
				always = no
			}			
			modifier = {
				fascism_acceptance = 50
				fascism_drift = 0.03
				justify_war_goal_time = -0.20
			}
		}

		king_edward_of_windsor = {

			allowed_civil_war = {
				NOT = { has_government = communism }
			}
			allowed = {
				always = no
			}			
			modifier = {
				conservatism_acceptance = 50
				conservatism_drift = 0.03
			}
		}

		king_carl_wilhelm = {

			allowed_civil_war = {
				NOT = { has_government = communism }
			}
			allowed = {
				always = no
			}			
			modifier = {
				socialism_acceptance = 50
				socialism_drift = 0.03
			}
		}
		
		#Austro-Hungarian multinationality
		
		multinational_state1 = {
			name = multinational_state
				
			allowed = { always = no }

			allowed_civil_war = { always = yes }

			removal_cost = -1

			picture = multinational_state
			
			modifier = { 
				stability_factor = -0.10
				political_power_gain = -0.10
			}
		}
		
		multinational_state2 = {
			name = multinational_state
				
			allowed = { always = no }

			allowed_civil_war = { always = yes }

			removal_cost = -1

			picture = multinational_state
			
			modifier = { 
				stability_factor = -0.15
				army_morale_factor = -0.02
				political_power_gain = -0.12
			}
		}
		
		multinational_state3 = {
			name = multinational_state
				
			allowed = { always = no }

			allowed_civil_war = { always = yes }

			removal_cost = -1

			picture = multinational_state
			
			modifier = { 
				stability_factor = -0.20
				army_morale_factor = -0.04
				political_power_gain = -0.14
			}
		}
		
		multinational_state4 = {
			name = multinational_state
				
			allowed = { always = no }

			allowed_civil_war = { always = yes }

			removal_cost = -1

			picture = multinational_state
			
			modifier = { 
				stability_factor = -0.25
				army_morale_factor = -0.07
				political_power_gain = -0.17
			}
		}
		
		multinational_state5 = {
			name = multinational_state
				
			allowed = { always = no }

			allowed_civil_war = { always = yes }

			removal_cost = -1

			picture = multinational_state
			
			modifier = { 
				stability_factor = -0.30
				army_morale_factor = -0.10
				political_power_gain = -0.20
			}
		}
		
		multinational_state6 = {
			name = multinational_state
				
			allowed = { always = no }

			allowed_civil_war = { always = yes }

			removal_cost = -1

			picture = multinational_state
			
			modifier = { 
				stability_factor = -0.35
				army_morale_factor = -0.12
				political_power_gain = -0.23
			}
		}
		
		multinational_state7= {
			name = multinational_state
				
			allowed = { always = no }

			allowed_civil_war = { always = yes }

			removal_cost = -1

			picture = multinational_state
			
			modifier = { 
				stability_factor = -0.40
				army_morale_factor = -0.14
				political_power_gain = -0.27
			}
		}
		
		multinational_state8= {
			name = multinational_state
				
			allowed = { always = no }

			allowed_civil_war = { always = yes }

			removal_cost = -1

			picture = multinational_state
			
			modifier = { 
				stability_factor = -0.45
				army_morale_factor = -0.16
				political_power_gain = -0.32
			}
		}
		
		multinational_state9= {
			name = multinational_state
				
			allowed = { always = no }

			allowed_civil_war = { always = yes }

			removal_cost = -1

			picture = multinational_state
			
			modifier = { 
				stability_factor = -0.50
				army_morale_factor = -0.18
				political_power_gain = -0.40
			}
		}
		
		multinational_state10= {
			name = multinational_state
				
			allowed = { always = no }

			allowed_civil_war = { always = yes }

			removal_cost = -1

			picture = multinational_state
			
			modifier = { 
				stability_factor = -0.50
				army_morale_factor = -0.20
				political_power_gain = -0.50
			}
		}
		
		multinational_state_trialism = {
				
			allowed = { always = no }

			allowed_civil_war = { always = yes }

			removal_cost = -1

			picture = multinational_state
			
			modifier = { 
				stability_factor = -0.15 
				army_morale_factor = -0.05
				political_power_gain = -0.20
			}
		}
		
		multinational_state_trialism_compromise = {
				
			allowed = { always = no }

			allowed_civil_war = { always = yes }

			removal_cost = -1

			picture = multinational_state
			
			modifier = {
				stability_factor = -0.10
				political_power_gain = -0.15
			}
		}
		
		multinational_state_federation = {
				
			allowed = { always = no }

			allowed_civil_war = { always = yes }

			removal_cost = -1

			picture = multinational_state
			
			modifier = { 
				stability_factor = -0.15 
				army_morale_factor = -0.05
				political_power_gain = -0.10
			}
		}
		
		multinational_state_federation_elections = {
				
			allowed = { always = no }

			allowed_civil_war = { always = yes }

			removal_cost = -1

			picture = multinational_state
			
			modifier = { 
				stability_factor = -0.05
				army_morale_factor = 0.05
				mobilization_speed = 0.2
				political_power_gain = -0.10
			}
		}
		HUN_treaty_of_triannon = {
			allowed = { always = no }
			available = {
				has_war = no
			}

			modifier = {
				conscription = -0.005
				production_speed_arms_factory_factor = -0.5
				political_power_gain = -0.20
				opposition_party_drift = 0.02
			}
		}
		HUN_treaty_of_triannon_2 = {
			allowed = { always = no }
			picture = HUN_treaty_of_triannon

			available = {
				has_war = no
			}

			modifier = {
				production_speed_arms_factory_factor = -0.15
				political_power_gain = -0.10
				opposition_party_drift = 0.01				
			}
		}
		HUN_treaty_of_triannon_3 = {
			allowed = { always = no }
			picture = HUN_treaty_of_triannon

			available = {
				has_war = no
			}

			modifier = {
				opposition_party_drift = 0.01
			}
		}
		HUN_war_preparation = {
			allowed = { always = no }
			picture = generic_war_preparation

			modifier = {
				justify_war_goal_time = -0.5
				planning_speed = 0.2
				generate_wargoal_tension = -0.5
			}
		}
		HUN_hungarian_monarchy = {
			allowed = { always = no }

			allowed_civil_war = {
				has_government = monarchism
			}
			
			modifier = {
				monarchism_drift = 0.02
			}
		}
		HUN_hungarian_monarchy_2 = {
			allowed = { always = no }
			picture = HUN_hungarian_monarchy

			allowed_civil_war = {
				has_government = monarchism
			}
			
			modifier = {
				monarchism_drift = 0.02
				stability_factor = 0.1
			}
		}
		HUN_hungarian_monarchy_democratic = {
			allowed = { always = no }
			allowed_civil_war = {
				democratic_govt = yes
			}
			
			modifier = {
				conservatism_drift = 0.01
				socialism_drift = 0.01
				liberalism_drift = 0.01
				stability_factor = 0.1
			}
		}
		HUN_hungarian_monarchy_fascism = {
			allowed = { always = no }
			allowed_civil_war = {
				has_government = fascism
			}
			
			modifier = {
				fascism_drift = 0.02
				stability_factor = 0.1
			}
		}
		HUN_his_majestys_government = {
			allowed = { always = no }
			picture = HUN_hungarian_monarchy_democratic

			allowed_civil_war = {
				democratic_govt = yes
			}
			
			modifier = {
				conservatism_drift = 0.02
				socialism_drift = 0.02
				liberalism_drift = 0.02
				fascism_drift = -0.02
				communism_drift = -0.01
				stability_factor = 0.1
			}
		}
		HUN_habsburg_restored = {
			allowed = { always = no }

			picture = HUN_hungarian_monarchy_habsburg

			allowed_civil_war = {
				has_government = monarchism
			}
			
			modifier = {
				monarchism_drift = 0.03
				stability_factor = 0.1
				political_power_factor = 0.2
				generate_wargoal_tension = -0.25
			}
		}
		HUN_charles_v = {
			allowed = { always = no }

			allowed_civil_war = {
				democratic_govt = yes
			}
			
			modifier = {
				conservatism_drift = 0.01
				socialism_drift = 0.01
				liberalism_drift = 0.01
			}
		}
		HUN_dynastic_ties = {
			allowed = { always = no }
			allowed_civil_war = {
				democratic_govt = yes
			}
		}
		HUN_lean_germany = {
			allowed = { always = no }
			picture = generic_fascism_drift_2
			
			modifier = {
				fascism_drift = 0.015
			}
		}
		HUN_strengthen_fascists = {	#HUN_lean_germany
			allowed = { always = no }
			picture = generic_fascism_drift_2
			
			modifier = {
				fascism_drift = 0.015
			}
		}
		HUN_interventionism = {
			allowed = { always = no }
			picture = FRA_scw_intervention_republicans_focus

			modifier = {
				political_power_factor = -0.25
				consumer_goods_expected_value = -0.05
			}
		}
		HUN_interventionism_2 = {
			allowed = { always = no }
			picture = FRA_scw_intervention_republicans_focus

			modifier = {
				consumer_goods_expected_value = -0.05
			}
		}
		HUN_interventionism_communism = {
			allowed = { always = no }
			picture = FRA_scw_intervention_nationalists_focus

			modifier = {
				consumer_goods_expected_value = -0.05
				communism_drift = 0.02
			}
		}
		HUN_the_hungarian_red_army = {
			allowed = { always = no }

			picture = generic_communist_army

			modifier = {
				conscription = 0.03
			}
		}
		HUN_secret_rearmament = {
			allowed = { always = no }
			available = {
				OR = {
					has_idea = cons_volunteer
					has_idea = cons_one
				}
			}
			
			modifier = {
				conscription = 0.0025
				industrial_capacity_factory = 0.05
			}
		}
		HUN_invite_foreign_investors = {
			picture = generic_foreign_capital
			allowed = { always = no }
			modifier = {
				production_speed_infrastructure_factor = 0.1
				production_speed_rail_way_factor = 0.05
				production_speed_industrial_complex_factor = 0.10
			}
		}
		HUN_indigenous_designs = {
			picture = generic_air_research
			allowed = { always = no }
			research_bonus = {
				air_equipment = 0.05
			}
		}
		HUN_license_foreign = {
			picture = generic_license_production
			allowed = { always = no }
			modifier = {
				license_air_purchase_cost = -0.35
			}
		}
		HUN_naval_warfare = {
			picture = generic_navy_bonus
			allowed = { always = no }
			modifier = {
				industrial_capacity_dockyard = 0.05
			}
		}
		HUN_assault_gun_focus = {
			picture = generic_armor
			allowed = { always = no }
			#equipment_bonus = { #TODO_MINOR_TANK
				#light_tank_artillery_equipment = {
				#	build_cost_ic = -0.1 instant = yes
				#}
				#medium_tank_artillery_equipment = {
				#	build_cost_ic = -0.1 instant = yes
				#}
				#heavy_tank_artillery_equipment = {
				#	build_cost_ic = -0.1 instant = yes
				#}
			#}
		}
		HUN_austrian_manpower = {
			allowed = { always = no }
			modifier = {
				conscription = 0.015
			}
		}
		HUN_czech_manpower = {
			allowed = { always = no }
			modifier = {
				conscription = 0.015
			}
		}
		HUN_combined_manpower = {
			allowed = { always = no }
			modifier = {
				conscription = 0.03
			}
		}
	}
	#Designers
	tank_manufacturers = { 
		
		#designer = yes
		
		mavag = { 
		
			allowed = {
				original_tag = HUN
			}
			
			research_bonus = {
				armor_tech = 0.05
			}
			equipment_bonus = {
				armor = {
					build_cost_ic = -0.02
				}
			}
			traits = { tank_manufacturers_trait tank_manufacturer_discount_light tank_manufacturer_discount_medium }

		}
		
		mw_armor = { 
		
			allowed = {
				original_tag = HUN
			}
			
			research_bonus = {
				armor_tech = 0.07
			}
			equipment_bonus = {
				armor = {
					reliability = 0.01
				}
			}
			traits = { tank_manufacturers_trait tank_manufacturer_discount_tankette tank_manufacturer_discount_light }

		}

		CZE_skoda_armor_HUN = {
			
			allowed = {
				original_tag = HUN
			}

			available = {
				has_completed_focus = HUN_merge_with_czechoslovakia
				controls_state = 9	#Bohemia
			}
			
			research_bonus = {
				armor_tech = 0.10
			}
			equipment_bonus = {
				armor = {
					build_cost_ic = -0.02 armor_value 0.02
				}
			}
			traits = { tank_manufacturers_trait tank_manufacturer_discount_cavalry tank_manufacturer_discount_medium }
		}
	}	
	#Aircraft
	aircraft_manufacturers = {		
		#designer = yes
		
		mw_aircraft = {
			#picture = generic_air_manufacturer_2
			
			allowed = {
				original_tag = HUN
			}
			
			research_bonus = {
				air_equipment = 0.05
			}
			
			traits = { light_aircraft_manufacturer  aircraft_manufacturers_trait }
			# made light bombers Weiss WM-21
			
		}
		mavag_aircraft = { 

			
			allowed = {
				original_tag = HUN
			}			
						
			research_bonus = {
				air_equipment = 0.05
			}
			
			traits = { medium_aircraft_manufacturer aircraft_manufacturers_trait}
			
		}
		
		dunai_repulogepgyar = {	
		
			picture = air_support_focus
			
			allowed = {
				original_tag = HUN
			}
			
			research_bonus = {
				air_equipment = 0.05
			}
			
			traits = { CAS_manufacturer aircraft_manufacturers_trait}
			
		}
	}
	big_aircraft_manufacturer = {
		#designer = yes
		lloyd_aircraft = {
			
			allowed = {
				original_tag = HUN
			}
			available = {
				has_completed_focus = HUN_hungarian_lloyd_aircraft_factory
			}
			research_bonus = {
				air_equipment = 0.05
			}
			
			traits = { heavy_aircraft_manufacturer aircraft_manufacturers_trait}
						
		}
	}
	#Naval
	naval_manufacturers = {
		#designer = yes
	
		ganz_danubius = {
			picture = generic_naval_manufacturer_1

			available = {
				if = {
					limit = { has_dlc = "Death or Dishonor" }
					has_completed_focus = HUN_revive_the_navy
				}
			}

			allowed = {
				original_tag = HUN
			}
			removal_cost = 10
			
			research_bonus = {
				naval_equipment = 0.10
			}
			
			traits = { mediterranean_fleet_naval_manufacturer  naval_manufacturers_trait }
		}
		crda_hun = {
		
			picture = crda
			
			allowed = {
				original_tag = HUN
			}
			
			available = {
				has_completed_focus = HUN_the_adriatic_initiative
			}
			
			research_bonus = {
				naval_equipment = 0.15
			}
			equipment_bonus = {
				
			}
			
			traits = { coastal_defence_naval_manufacturer naval_manufacturers_trait}
			
		}
	}
	#Materials
	materiel_manufacturer = {
		#designer = yes
	
		HUN_femaru_fegyver_es_gepgyar = {
			
			picture = generic_infantry_equipment_manufacturer_2

			allowed = {
				original_tag = HUN
			}
			
			cost = 150
			removal_cost = 10
			
			research_bonus = {
				infantry_weapons = 0.10
			}
			traits = { infantry_equipment_manufacturer  materiel_manufacturer_trait }
		}
		digep = {
			
			allowed = {
				original_tag = HUN
			}
			
			research_bonus = {
				artillery = 0.10
			}
			
			traits = { artillery_manufacturer materiel_manufacturer_trait}
			
		}	
		csepel_muvek = {
			
			allowed = {
				original_tag = HUN
			}
			
			research_bonus = {
				motorized_equipment = 0.15
			}
			
			traits = { motorized_equipment_manufacturer materiel_manufacturer_trait}
			
		}
		
		raba = {
			
			allowed = {
				original_tag = HUN
			}
			available = {
				has_completed_focus = HUN_motorization_effort
			}
			research_bonus = {
				motorized_equipment = 0.10
			}
			
			equipment_bonus = {
				motorized_equipment = {
					build_cost_ic = -0.1
				}
			}
			
			traits = { materiel_manufacturer_trait}
			
		}
		
		CZE_skoda_artillery_HUN = {
			
			allowed = {
				original_tag = HUN
			}

			available = {
				has_completed_focus = HUN_merge_with_czechoslovakia
				controls_state = 9	#Bohemia
			}
			
			research_bonus = {
				artillery = 0.15
			}
			
			traits = { artillery_manufacturer materiel_manufacturer_trait}
			
		}
	}
	#Industrial
	industrial_concern = {
		HUN_mavag = {
			picture = generic_industrial_concern_1

			allowed = {
				original_tag = HUN
			}
			
			cost = 150
			removal_cost = 10
			
			research_bonus = {
				industry = 0.10
			}
			traits = { industrial_concern  industrial_concern_trait }
		}
		maort = {
		
			picture = generic_industrial_concern_2
			
			allowed = {
				original_tag = HUN
			}
			
			available = {
				has_completed_focus = HUN_found_maort
			}
			
			research_bonus = {
				industry = 0.05
				synth_resources = 0.1
				fuel_tech = 0.05
			}
			
			traits = { 
				refinery_concern
				industrial_concern_trait
			}
			
		}
		HUN_acelszerkezet = {
			picture = generic_industrial_concern_3
			allowed = {
				original_TAG = HUN
			}
			available = {
				has_completed_focus = HUN_budapest_industrial_district
			}
			research_bonus = {
				construction_tech = 0.15
			}
			traits = { construction_company  industrial_concern_trait }

		}
		mw_metalworks = {
			
			allowed = {
				original_tag = HUN
			}
			
			research_bonus = {
				tool_tech = 0.15
			}

			traits = { 
				tool_concern 
				industrial_concern_trait 
			}
		}	
	}
	#Electrical
	electrical_concern = {
		HUN_transelektro = {
			allowed = {
				original_TAG = HUN
			}
			picture = generic_electronics_concern_1
			research_bonus = {
				electronics = 0.10
			}

			traits = { electronics_concern  electrical_concern_trait }
			modifier = {
			}
		}
		ganz_villamossagi_gyar = {
			
			allowed = {
				original_tag = HUN
			}
			
			research_bonus = {
				electronics = 0.07
				construction_tech = 0.05
			}
			
			traits = { 
				electronics_concern 
				electrical_concern_trait
			}
		}
		HUN_izzo = {
			picture = radio_concern
			allowed = {
				original_tag = HUN
			}
			
			cost = 150
			
			research_bonus = {
				radio_tech = 0.13
				radar_tech = 0.02
			}
			traits = { radio_concern  electrical_concern_trait }
		}
		
	}
}
### EOF ###
