ideas = {
	#Designers
	#Armor
	tank_manufacturers = { 
		# Done by zzz_generic
	}
	#Naval
	naval_manufacturers = {
		#designer = yes
	
		TUN_naval_manufacturer = {
			picture = generic_naval_manufacturer_1

			allowed = {
				original_tag = TUN
			}
			
			cost = 150
			removal_cost = 10
			
			research_bonus = {
				naval_equipment = 0.10
			}
			traits = { ships_manufacturer  naval_manufacturers_trait }
		}
	}
	##Aircraft
	aircraft_manufacturers = {
		#designer = yes
	
		TUN_light_aircraft_manufacturer = {
			picture = generic_air_manufacturer_1

			allowed = {
				original_tag = TUN
			}
			
			cost = 150
			removal_cost = 10
			
			research_bonus = {
				air_equipment = 0.05
			}
			
			traits = { light_aircraft_manufacturer  aircraft_manufacturers_trait }
		}
		TUN_medium_aircraft_manufacturer = {
			
			picture = generic_air_manufacturer_3

			allowed = {
				original_tag = TUN
			}
			
			cost = 150
			removal_cost = 10
			
			research_bonus = {
				air_equipment = 0.05
			}
			
			traits = { medium_aircraft_manufacturer  aircraft_manufacturers_trait }
		}
		TUN_heavy_aircraft_manufacturer = {
			picture = generic_air_manufacturer_2
			
			allowed = {
				original_tag = TUN
			}
			
			cost = 150
			removal_cost = 10
			
			research_bonus = {
				air_equipment = 0.05
			}
			
			traits = { heavy_aircraft_manufacturer  aircraft_manufacturers_trait }
		}
		TUN_naval_aircraft_manufacturer = {
			picture = generic_naval_manufacturer_2

			allowed = {
				original_tag = TUN
			}
			
			cost = 150
			removal_cost = 10
			
			research_bonus = {
				air_equipment = 0.05
			}
			
			traits = { naval_aircraft_manufacturer  aircraft_manufacturers_trait }
		}
	}
	#Industrial
	industrial_concern = {
		TUN_industrial_concern = {
			picture = generic_industrial_concern_1

			allowed = {
				original_tag = TUN
			}
			
			cost = 150
			removal_cost = 10
			
			research_bonus = {
				industry = 0.10
			}
			
			traits = { industrial_concern  industrial_concern_trait }
		}
		TUN_electronics_concern = {
			picture = generic_electronics_concern_1

			allowed = {
				original_tag = TUN
			}
			
			cost = 150
			removal_cost = 10
			
			research_bonus = {
				electronics = 0.10
			}
			
			traits = { electronics_concern  industrial_concern_trait }
		}
	}
	#Materials
	materiel_manufacturer = {
		#designer = yes
	
		TUN_motorized_equipment_manufacturer = {
			picture = generic_motorized_equipment_manufacturer_3

			allowed = {
				original_tag = TUN
			}
			
			cost = 150
			removal_cost = 10
			
			research_bonus = {
				motorized_equipment = 0.10
			}
			
			traits = { motorized_equipment_manufacturer  materiel_manufacturer_trait }
		}
		TUN_infantry_equipment_manufacturer = {
			picture = generic_infantry_equipment_manufacturer_2

			allowed = {
				original_tag = TUN
			}
			
			cost = 150
			removal_cost = 10
			
			research_bonus = {
				infantry_weapons = 0.10
			}
			
			traits = { infantry_equipment_manufacturer  materiel_manufacturer_trait }
		}
		TUN_artillery_manufacturer = {
			picture = generic_artillery_manufacturer_2

			allowed = {
				original_tag = TUN
			}
			
			cost = 150
			removal_cost = 10
			
			research_bonus = {
				artillery = 0.10
			}
			
			traits = { artillery_manufacturer  materiel_manufacturer_trait }
		}
	}
}
### EOF ###