﻿version="9.0.0"
replace_path="common/ai_areas"
replace_path="common/ai_equipment"
replace_path="common/ai_focuses"
replace_path="common/ai_peace"
replace_path="common/ai_strategy"
replace_path="common/ai_strategy_plans"
replace_path="common/ai_templates"
replace_path="common/buildings"
replace_path="common/countries"
replace_path="common/decisions"
replace_path="common/decisions/categories"
replace_path="common/on_actions"
replace_path="common/technologies"
replace_path="common/ideas"
replace_path="common/national_focus"
replace_path="common/scripted_triggers"
replace_path="common/scripted_effects"
replace_path="common/scripted_guis"
replace_path="common/scripted_localisation"
replace_path="common/scripted_diplomatic_actions"
replace_path="common/unit_leader"
replace_path="common/state_category"
replace_path="common/units/equipment"
replace_path="common/units/names"
replace_path="common/units/names_division"
replace_path="common/units/names_ships"
replace_path="common/units/unit_modifiers"
replace_path="common/units"
replace_path="history/countries"
replace_path="history/states"
replace_path="history/units"
replace_path="map"
replace_path="map/strategicregions"
replace_path="map/supplyareas"
replace_path="map/terrain"
replace_path="common/units/names_divisions"
replace_path="common/characters"
replace_path="common/dynamic_modifiers"
replace_path="common/bop"
replace_path="common/peace_conference/ai_peace"
replace_path="common/military_industrial_organization/organizations"
replace_path="common/special_projects/project_tags"
replace_path="common/special_projects/projects"
replace_path="common/special_projects/prototype_rewards"
replace_path="common/special_projects/specialization"
replace_path="common/special_projects"
replace_path="common/raids"
tags={
	"Graphics"
	"Historical"
	"Events"
	"Balance"
}
name="BlackICE DEV"
path="mod/blackice_v4.0"
