
state={
	resources = {
		iron = 4
		food = 17
	}
	id=168
	name="STATE_168"
	
	manpower = 1007605
	
	local_supplies=0.0
	state_category = town

	history = {
		owner = SPR
		buildings = {
			infrastructure = 5
			dockyard = 1
			air_base = 2
			10024 = {
				naval_base = 8
			}
		}

		set_variable = { vp_value = 3 } 
		set_variable = { highest_vp = 1 } 

		add_core_of = SPR
		
		
		victory_points = { 832 1 }
		victory_points = { 10024 1 }
		victory_points = { 10109 1 }
	}

	provinces = {
		832 1093 3835 4195 7111 9903 10024 10109 11807 11884 
	}
}
