
state={
	id=199
	name="STATE_199"

	history={
		owner = SOV
		buildings = {
			infrastructure = 5
			industrial_complex = 2
			air_base = 3

		}

		set_variable = { vp_value = 2 } 
		set_variable = { highest_vp = 1 } 

		add_core_of = SOV
		add_core_of = UKR
		victory_points = { 462 1 }
		victory_points = { 3511 1 }

	}

	provinces={
		462 3430 3457 3511 6429 6509 
	}
	manpower=1424022
	buildings_max_level_factor=1.000
	local_supplies=0.0
	state_category=town
}
