
state={
	id=230
	name="STATE_230"

	history={
		owner = SOV
		buildings = {
			infrastructure = 3
			industrial_complex = 5
			air_base = 2

		}

		set_variable = { vp_value = 7 } 
		set_variable = { highest_vp = 5 } 

		victory_points = {
			12320 5
		}
		victory_points = { 3564 1 }
		victory_points = { 4660 1 }
		add_core_of = SOV
		#add_core_of = ARM
		1939.1.1 = {
			buildings = {
				industrial_complex = 3

			}

		}

	}

	provinces={
		3564 4660 6642 6997 11708 12320 12380 12441 12450 13123 
	}
	manpower=1250082
	buildings_max_level_factor=1.000
	local_supplies=0.0
	state_category=town
}
