
state={
	id=240
	name="STATE_240" # Belgorod
	manpower = 1364537
	
	local_supplies=0.0
	state_category = town

	history={
		owner = SOV
		buildings = {
			infrastructure = 5
		}

		set_variable = { vp_value = 2 } 
		set_variable = { highest_vp = 1 } 

		victory_points = { 9449 1 }
		victory_points = { 11500 1 }
		add_core_of = SOV
		1939.1.1 = {
			buildings = {
				industrial_complex = 1
			}
		}
	}

	provinces={
		473 534 3492 6432 6481 6517 6577 9424 9449 9489 9518 11439 11500 
	}
}
