
state={
	id=407
	name="STATE_407"

	history={
		owner = SOV
		buildings = {
			infrastructure = 3

		}

		set_variable = { vp_value = 2 } 
		set_variable = { highest_vp = 1 } 

		victory_points = {
			11537 1 
		}
		add_core_of = SOV

	}

	provinces={
		468 470 508 545 566 3404 3406 3467 3515 3538 6491 6525 6551 6564 6588 9487 9513 9526 9538 9549 11457 11472 11473 11482 11524 11537 11538 
	}
	manpower=134286
	buildings_max_level_factor=1.000
	local_supplies=0.0
	state_category=rural
}
