
state={
	id=445
	name="STATE_445" # Quetta
	manpower = 405100
	
	local_supplies=0.0
	state_category = wasteland

	history={
		owner = RAJ
		buildings = {
			infrastructure = 3
			air_base = 4
		}

		set_variable = { vp_value = 0 } 
		set_variable = { highest_vp = 0 } 

		#add_core_of = PAK
	}

	provinces={
		1107 4990 5105 7847 7903 7975 8044 8098 10813 
	}
}
