
state={
	resources = {
		food = 4
	}
	id=491
	name="STATE_491"

	history={
		owner = PRU
		buildings = {
			infrastructure = 2

		}

		set_variable = { vp_value = 0 } 
		set_variable = { highest_vp = 0 } 

		add_core_of = PRU

	}

	provinces={
		5162 8213 10970 12869  
	}
	manpower=176626
	buildings_max_level_factor=1.000
	local_supplies=0.0
	state_category=pastoral
}
