
state={
	resources = {
		food = 31
	}
	id=504
	name="STATE_504"

	history={
		owner = BRA
		buildings = {
			infrastructure = 1

		}

		set_variable = { vp_value = 0 } 
		set_variable = { highest_vp = 0 } 

		add_core_of = BRA

	}

	provinces={
		1583 2109 4587 5178 8239 11003 12466 
	}
	manpower=229900
	buildings_max_level_factor=1.000
	local_supplies=0.0
	state_category=rural
}
