
state={
	id=541
	name="STATE_541"
	manpower = 462000
	
	local_supplies=0.0
	state_category = wasteland

	history={
		owner = SAF
		buildings = {
			infrastructure = 3
			
			2229 = {
				naval_base = 1
			}
		}

		set_variable = { vp_value = 0 } 
		set_variable = { highest_vp = 0 } 

		add_core_of = SAF
	}

	provinces={
		2207 2229 4879 5154 5189 7605 7770 8136 10957 10963 10978 12519 12921 
	}
}
