
state={
	id=653
	name="STATE_653" # Sverdlovsk
	manpower = 2161650
	
	local_supplies=0.0
	state_category = large_city

	history={
		owner = SOV
		buildings = {
			infrastructure = 4
			industrial_complex = 12
			arms_factory = 8
			air_base = 1
			tank_assembly = 2
			engine_assembly = 2

		}

		set_variable = { vp_value = 1 } 
		set_variable = { highest_vp = 1 } 

		#set_variable = { state_taxes = 216 }
		victory_points = {
			1821 1 
		}
		add_core_of = SOV
		1939.1.1 = {
			buildings = {
				arms_factory = 3
			}
		}
	}

	provinces={
		307 1543 1704 1750 1771 1808 1821 1841 4813 7228 7778 9553 10133 10189 10648 10716 10720 12102 12567 12696 
	}
}
