state = {
	resources = {
		food = 11
	}
	id=804
	name="STATE_804"
	local_supplies=0.0
	state_category=town
	manpower=1000000
	history = {
		owner = XSM
		buildings = {
			infrastructure = 3
		}

		set_variable = { vp_value = 5 } 
		set_variable = { highest_vp = 5 } 

		add_core_of = XSM
		add_core_of = CHI
		add_core_of = PRC
		1938.10.25 = {
			owner = CHI
		add_core_of = CHI
		add_core_of = PRC

		}
		victory_points = {
			7911 5#Pingliang
		}
	}
	provinces = {
		531 5193 7911 12882 
	}
	buildings_max_level_factor=1.500
}
