
state={
	id=867
	name="STATE_996"

	history={
		owner = BRA
		buildings = {
			infrastructure = 1

		}

		set_variable = { vp_value = 0 } 
		set_variable = { highest_vp = 0 } 

		add_core_of = BRA

	}

	provinces={
		2111 2181 5200 8189 8224 10959 12951 
	}
	manpower=120000
	buildings_max_level_factor=1.000
	local_supplies=0.0
	state_category=rural
}
