
state={
	id=878
	name="STATE_878"
	
	history={
		owner = FIN
		buildings = {
			infrastructure = 0
		}

		set_variable = { vp_value = 0 } 
		set_variable = { highest_vp = 0 } 

		add_core_of = FIN

	}

	provinces={
		103 3069 3097 6061 
	}
	manpower=14052
	buildings_max_level_factor=1.000
	local_supplies=0.0
	state_category=wasteland
}
