##### Land based fighter/interceptor #####
equipments = {
	# ARCHETYPE #
	fighter_alt_equipment = { #Light Fighter
		year = 1930

		is_archetype = yes
		is_convertable = yes
		picture = archetype_fighter_equipment
		is_buildable = no
		type = { fighter interceptor }
		group_by = archetype
		sprite = light_plane
		air_map_icon_frame = 3
		
		interface_category = interface_category_air
		
		# Fighter
		interface_overview_category_index = 1

		upgrades = {
			plane_gun_upgrade
			plane_range_upgrade
			plane_engine_upgrade
			plane_reliability_upgrade
			
			plane_drop_tank_upgrade
			plane_light_cannons_upgrade
			plane_bubble_canopy_upgrade
			plane_airframe_upgrade
			plane_radar_upgrade
			plane_anti_air_rocket_upgrade
			
			ai_upgrade
		}
		
		allow_mission_type = {
			air_superiority
			interception
			training
		}

		air_superiority = 0.75
		reliability = 0.65

		# Air vs Navy - low damage / high hit chance / easy to hurt
		naval_strike_attack = 0.5
		naval_strike_targetting = 5
		
		surface_detection = 15 # For airwing of 100 planes (Destroyer I: 20 surface detection)
		sub_detection = 2.5 # For airwing of 100 planes (Destroyer I: 5 sub detection )

		#Space taken in convoy
		lend_lease_cost = 1.5
		
		supply_consumption = 0.1
		fuel_consumption = 0.1
		
		build_cost_ic = 20
		resources = {
			air_production = 4
			aluminium = 4
		}
		
		manpower = 20
	}
	
	# GEN fighter_alt_equipment #
	# Prewar Light Fighter
	pre_war_fighter_alt_equipment_1 = {
		archetype = fighter_alt_equipment
		year = 1930
		priority = 2003
		is_buildable = no
		
		reliability = 0.55
		air_superiority = 0.82
		
		air_range = 415
		maximum_speed = 270
		air_agility = 54
		air_attack = 13.4
		air_defence = 19
		
		
		naval_strike_attack = 0.6
		naval_strike_targetting = 8.2
		
		supply_consumption = 0.097
		fuel_consumption = 0.045
		manpower = 17
		
		build_cost_ic = 19.7
		
		resources = {
			air_production = 4
			engine_production = 2
			aluminium = 2
			steel = 2
		}
	}


	# ITA fighter_alt_equipment #
	# Fiat CR.1
	cr_series_fighter_equipment_1 = {
		archetype = fighter_alt_equipment
		parent = pre_war_fighter_alt_equipment_1
		year = 1924
		priority = 2005
		
		reliability = 0.65
		air_superiority = 0.86
		
		air_range = 535
		maximum_speed = 270
		air_agility = 54
		air_attack = 13.9
		air_defence = 17.5
		
		
		naval_strike_attack = 0.4
		naval_strike_targetting = 8.2
		
		supply_consumption = 0.095
		fuel_consumption = 0.043
		manpower = 15
		
		build_cost_ic = 17.7
		
		resources = {
			air_production = 4
			engine_production = 2
			aluminium = 2
			steel = 2
		}
	}

	# Fiat CR.20
	cr_series_fighter_equipment_2 = {
		archetype = fighter_alt_equipment
		parent = cr_series_fighter_equipment_1
		year = 1927
		priority = 2006
		
		reliability = 0.65
		air_superiority = 0.93
		
		air_range = 585
		maximum_speed = 275
		air_agility = 56.5
		air_attack = 14.1
		air_defence = 18
		
		
		naval_strike_attack = 0.5
		naval_strike_targetting = 8.4
		
		supply_consumption = 0.096
		fuel_consumption = 0.053
		manpower = 16
		
		build_cost_ic = 18
		
		resources = {
			air_production = 4
			engine_production = 2
			aluminium = 2
			steel = 2
		}
	}

	# Fiat CR.20bis AQ
	cr_series_fighter_equipment_3 = {
		archetype = fighter_alt_equipment
		parent = cr_series_fighter_equipment_2
		year = 1930
		priority = 2007
		
		reliability = 0.69
		air_superiority = 0.98
		
		air_range = 560
		maximum_speed = 287
		air_agility = 58
		air_attack = 14.3
		air_defence = 18
		
		
		naval_strike_attack = 0.5
		naval_strike_targetting = 8.5
		
		supply_consumption = 0.096
		fuel_consumption = 0.053
		manpower = 16
		
		build_cost_ic = 18
		
		resources = {
			air_production = 4
			engine_production = 2
			aluminium = 2
			steel = 2
		}
	}

	# Fiat CR.30
	cr_series_fighter_equipment_4 = {
		archetype = fighter_alt_equipment
		parent = cr_series_fighter_equipment_3
		year = 1932
		priority = 2008
		
		reliability = 0.65
		air_superiority = 1.19
		
		air_range = 635
		maximum_speed = 351
		air_agility = 56.5
		air_attack = 14.1
		air_defence = 19
		
		
		naval_strike_attack = 0.6
		naval_strike_targetting = 8.8
		
		supply_consumption = 0.097
		fuel_consumption = 0.065
		manpower = 17
		
		build_cost_ic = 18.1
		
		resources = {
			air_production = 4
			engine_production = 2
			aluminium = 2
			steel = 2
		}
	}

	# Fiat CR.32
	cr_32_fighter_equipment_1 = {
		archetype = fighter_alt_equipment
		parent = cr_series_fighter_equipment_4
		year = 1933
		priority = 2009
		
		reliability = 0.69
		air_superiority = 1.15
		
		air_range = 600
		maximum_speed = 354
		air_agility = 55.5
		air_attack = 14
		air_defence = 19.5
		
		
		naval_strike_attack = 0.7
		naval_strike_targetting = 8.8
		
		supply_consumption = 0.098
		fuel_consumption = 0.064
		manpower = 18
		
		build_cost_ic = 18.1
		
		resources = {
			air_production = 4
			engine_production = 2
			aluminium = 2
			steel = 2
		}
	}

	# Fiat CR.32bis
	cr_32_fighter_equipment_2 = {
		archetype = fighter_alt_equipment
		parent = cr_32_fighter_equipment_1
		year = 1934
		priority = 2010
		can_convert_from = { cr_32_fighter_equipment_1 }
		
		reliability = 0.75
		air_superiority = 1.24
		
		air_range = 630
		maximum_speed = 360
		air_agility = 57
		air_attack = 16.3
		air_defence = 20
		
		
		naval_strike_attack = 0.7
		naval_strike_targetting = 8.9
		
		supply_consumption = 0.098
		fuel_consumption = 0.071
		manpower = 18
		
		build_cost_ic = 18.2
		
		resources = {
			air_production = 4
			engine_production = 2
			aluminium = 2
			steel = 2
		}
	}

	# Fiat CR.41
	cr_41_fighter_equipment_1 = {
		archetype = fighter_alt_equipment
		parent = cr_32_fighter_equipment_2
		year = 1936
		priority = 2011
		
		reliability = 0.65
		air_superiority = 1.5
		
		air_range = 610
		maximum_speed = 405
		air_agility = 57
		air_attack = 16.3
		air_defence = 20.5
		
		
		naval_strike_attack = 0.8
		naval_strike_targetting = 9.2
		
		supply_consumption = 0.098
		fuel_consumption = 0.082
		manpower = 18
		
		build_cost_ic = 18.2
		
		resources = {
			air_production = 4
			engine_production = 3
			aluminium = 2
			steel = 2
		}
	}

	# Fiat CR.33
	cr_33_fighter_equipment_1 = {
		archetype = fighter_alt_equipment
		parent = cr_41_fighter_equipment_1
		year = 1937
		priority = 2012
		
		reliability = 0.69
		air_superiority = 1.61
		
		air_range = 560
		maximum_speed = 412
		air_agility = 59
		air_attack = 16.5
		air_defence = 20
		
		
		naval_strike_attack = 0.7
		naval_strike_targetting = 9.3
		
		supply_consumption = 0.098
		fuel_consumption = 0.068
		manpower = 18
		
		build_cost_ic = 18.2
		
		resources = {
			air_production = 4
			engine_production = 2
			aluminium = 2
			steel = 2
		}
	}

	# Fiat CR.42
	cr_42_fighter_equipment_1 = {
		archetype = fighter_alt_equipment
		parent = cr_33_fighter_equipment_1
		year = 1939
		priority = 2013
		
		reliability = 0.75
		air_superiority = 2.15
		
		air_range = 645
		maximum_speed = 441
		air_agility = 70
		air_attack = 17.6
		air_defence = 21.5
		
		
		naval_strike_attack = 0.8
		naval_strike_targetting = 10
		
		supply_consumption = 0.098
		fuel_consumption = 0.08
		manpower = 18
		
		build_cost_ic = 18.1
		
		resources = {
			air_production = 4
			engine_production = 3
			aluminium = 2
			steel = 2
		}
	}

	# Fiat CR.42B
	cr_42_daimler_fighter_equipment_1 = {
		archetype = fighter_alt_equipment
		parent = cr_42_fighter_equipment_1
		year = 1941
		priority = 2014
		can_convert_from = { cr_42_fighter_equipment_1 }
		
		reliability = 0.69
		air_superiority = 2.87
		
		air_range = 630
		maximum_speed = 525
		air_agility = 72
		air_attack = 17.9
		air_defence = 22
		
		
		naval_strike_attack = 0.8
		naval_strike_targetting = 10.6
		
		supply_consumption = 0.1
		fuel_consumption = 0.1
		manpower = 20
		
		build_cost_ic = 19.2
		
		resources = {
			air_production = 4
			engine_production = 3
			aluminium = 2
			steel = 2
		}
	}

	# Ambrosini SS.4
	ss4_fighter_equipment_1 = {
		archetype = fighter_alt_equipment
		parent = cr_42_daimler_fighter_equipment_1
		year = 1941
		priority = 2015
		
		reliability = 0.55
		air_superiority = 3.06
		
		air_range = 610
		maximum_speed = 571
		air_agility = 65.5
		air_attack = 22
		air_defence = 21.5
		
		
		naval_strike_attack = 0.8
		naval_strike_targetting = 10.5
		
		supply_consumption = 0.098
		fuel_consumption = 0.085
		manpower = 18
		
		build_cost_ic = 20.4
		
		resources = {
			air_production = 5
			engine_production = 3
			aluminium = 3
			steel = 2
		}
	}

	# Ambrosini SAI.207
	sai207_fighter_equipment_1 = {
		archetype = fighter_alt_equipment
		parent = ss4_fighter_equipment_1
		year = 1942
		priority = 2016
		
		reliability = 0.65
		air_superiority = 3.19
		
		air_range = 635
		maximum_speed = 641
		air_agility = 58
		air_attack = 16.8
		air_defence = 22.5
		
		
		naval_strike_attack = 0.8
		naval_strike_targetting = 10.6
		
		supply_consumption = 0.098
		fuel_consumption = 0.074
		manpower = 18
		
		build_cost_ic = 19
		
		resources = {
			air_production = 5
			engine_production = 2
			aluminium = 3
			steel = 2
		}
	}

	# Ambrosini SAI.403
	sai403_fighter_equipment_1 = {
		archetype = fighter_alt_equipment
		parent = sai207_fighter_equipment_1
		year = 1943
		priority = 2017
		
		reliability = 0.69
		air_superiority = 3.67
		
		air_range = 675
		maximum_speed = 648
		air_agility = 59.5
		air_attack = 21.2
		air_defence = 23
		
		
		naval_strike_attack = 0.8
		naval_strike_targetting = 10.7
		
		supply_consumption = 0.099
		fuel_consumption = 0.076
		manpower = 19
		
		build_cost_ic = 19.4
		
		resources = {
			air_production = 5
			engine_production = 2
			aluminium = 3
			steel = 2
		}
	}


	# JAP fighter_alt_equipment #
	# Kawasaki Type 92
	kawasaki_t92_equipment_1 = {
		archetype = fighter_alt_equipment
		parent = pre_war_fighter_alt_equipment_1
		year = 1932
		priority = 2019
		
		reliability = 0.45
		air_superiority = 1.17
		
		air_range = 635
		maximum_speed = 320
		air_agility = 56
		air_attack = 14.1
		air_defence = 19
		
		
		naval_strike_attack = 0.6
		naval_strike_targetting = 8.6
		
		supply_consumption = 0.097
		fuel_consumption = 0.067
		manpower = 17
		
		build_cost_ic = 19.3
		
		resources = {
			air_production = 4
			engine_production = 2
			aluminium = 2
			steel = 2
		}
	}

	# Kawasaki Type 92 Model 2
	kawasaki_t92_equipment_2 = {
		archetype = fighter_alt_equipment
		parent = kawasaki_t92_equipment_1
		year = 1934
		priority = 2020
		can_convert_from = { kawasaki_t92_equipment_1 }
		
		reliability = 0.55
		air_superiority = 1.31
		
		air_range = 635
		maximum_speed = 356
		air_agility = 57.5
		air_attack = 14.2
		air_defence = 19.5
		
		
		naval_strike_attack = 0.6
		naval_strike_targetting = 8.9
		
		supply_consumption = 0.097
		fuel_consumption = 0.074
		manpower = 17
		
		build_cost_ic = 19.5
		
		resources = {
			air_production = 4
			engine_production = 2
			aluminium = 2
			steel = 2
		}
	}

	# Kawasaki Ki-10
	kawasaki_ki_10_equipment_1 = {
		archetype = fighter_alt_equipment
		parent = kawasaki_t92_equipment_2
		year = 1935
		priority = 2021
		
		reliability = 0.49
		air_superiority = 1.51
		
		air_range = 705
		maximum_speed = 402
		air_agility = 59
		air_attack = 14.3
		air_defence = 19.5
		
		
		naval_strike_attack = 0.6
		naval_strike_targetting = 9.2
		
		supply_consumption = 0.097
		fuel_consumption = 0.08
		manpower = 17
		
		build_cost_ic = 19.6
		
		resources = {
			air_production = 4
			engine_production = 3
			aluminium = 2
			steel = 2
		}
	}

	# Kawasaki Ki-10 KAI
	kawasaki_ki_10_equipment_2 = {
		archetype = fighter_alt_equipment
		parent = kawasaki_ki_10_equipment_1
		year = 1936
		priority = 2022
		can_convert_from = { kawasaki_ki_10_equipment_1 }
		
		reliability = 0.57
		air_superiority = 1.65
		
		air_range = 755
		maximum_speed = 420
		air_agility = 61.5
		air_attack = 14.6
		air_defence = 19.5
		
		
		naval_strike_attack = 0.6
		naval_strike_targetting = 9.5
		
		supply_consumption = 0.097
		fuel_consumption = 0.085
		manpower = 17
		
		build_cost_ic = 19.7
		
		resources = {
			air_production = 4
			engine_production = 3
			aluminium = 2
			steel = 2
		}
	}

	# Nakajima Ki-27
	nakajima_ki_27_equipment_1 = {
		archetype = fighter_alt_equipment
		parent = kawasaki_ki_10_equipment_2
		year = 1937
		priority = 2023
		
		reliability = 0.69
		air_superiority = 2.34
		
		air_range = 1045
		maximum_speed = 470
		air_agility = 69.5
		air_attack = 15.3
		air_defence = 18.5
		
		
		naval_strike_attack = 0.5
		naval_strike_targetting = 10.2
		
		supply_consumption = 0.096
		fuel_consumption = 0.09
		manpower = 16
		
		build_cost_ic = 20.2
		
		resources = {
			air_production = 5
			engine_production = 2
			aluminium = 2
			steel = 2
		}
	}

	# Nakajima Ki-43
	nakajima_ki_43_equipment_1 = {
		archetype = fighter_alt_equipment
		parent = nakajima_ki_27_equipment_1
		year = 1940
		priority = 2024
		
		reliability = 0.65
		air_superiority = 3.13
		
		air_range = 1315
		maximum_speed = 500
		air_agility = 77
		air_attack = 17.4
		air_defence = 21.5
		
		
		naval_strike_attack = 0.7
		naval_strike_targetting = 10.7
		
		supply_consumption = 0.098
		fuel_consumption = 0.11
		manpower = 18
		
		build_cost_ic = 21.1
		
		resources = {
			air_production = 5
			engine_production = 3
			aluminium = 3
			steel = 2
		}
	}

	# Nakajima Ki-43-II
	nakajima_ki_43_equipment_2 = {
		archetype = fighter_alt_equipment
		parent = nakajima_ki_43_equipment_1
		year = 1941
		priority = 2025
		can_convert_from = { nakajima_ki_43_equipment_1 }
		
		reliability = 0.73
		air_superiority = 3.67
		
		air_range = 1405
		maximum_speed = 545
		air_agility = 78
		air_attack = 18.8
		air_defence = 22.5
		
		
		naval_strike_attack = 0.8
		naval_strike_targetting = 11
		
		supply_consumption = 0.099
		fuel_consumption = 0.128
		manpower = 19
		
		build_cost_ic = 21.7
		
		resources = {
			air_production = 5
			engine_production = 3
			aluminium = 3
			steel = 2
		}
	}

	# Nakajima Ki-43-III
	nakajima_ki_43_equipment_3 = {
		archetype = fighter_alt_equipment
		parent = nakajima_ki_43_equipment_2
		year = 1943
		priority = 2026
		can_convert_from = { nakajima_ki_43_equipment_1 nakajima_ki_43_equipment_2 }
		
		reliability = 0.73
		air_superiority = 4.19
		
		air_range = 1425
		maximum_speed = 585
		air_agility = 78.5
		air_attack = 23.2
		air_defence = 23
		
		
		naval_strike_attack = 0.8
		naval_strike_targetting = 11.3
		
		supply_consumption = 0.1
		fuel_consumption = 0.143
		manpower = 20
		
		build_cost_ic = 22.6
		
		resources = {
			air_production = 5
			engine_production = 3
			aluminium = 3
			steel = 2
		}
	}

	# Kawasaki Ki-100
	kawasaki_ki_100_equipment_1 = {
		archetype = fighter_alt_equipment
		parent = nakajima_ki_43_equipment_3
		year = 1945
		priority = 2027
		can_convert_from = { kawasaki_ki_61_equipment_1 kawasaki_ki_61_equipment_2 }
		
		reliability = 0.69
		air_superiority = 5.02
		
		air_range = 1155
		maximum_speed = 621
		air_agility = 85
		air_attack = 27.7
		air_defence = 25.5
		
		
		naval_strike_attack = 1
		naval_strike_targetting = 11.8
		
		supply_consumption = 0.103
		fuel_consumption = 0.147
		manpower = 23
		
		build_cost_ic = 23.7
		
		resources = {
			air_production = 6
			engine_production = 3
			aluminium = 4
			steel = 2
		}
	}


	# SOV fighter_alt_equipment #
	# Polikarpov I-5
	i_5_equipment_1 = {
		archetype = fighter_alt_equipment
		parent = pre_war_fighter_alt_equipment_1
		year = 1931
		priority = 2029
		
		reliability = 0.65
		air_superiority = 0.95
		
		air_range = 540
		maximum_speed = 278
		air_agility = 55
		air_attack = 14
		air_defence = 18
		
		
		naval_strike_attack = 0.5
		naval_strike_targetting = 8.3
		
		supply_consumption = 0.096
		fuel_consumption = 0.054
		manpower = 16
		
		build_cost_ic = 18
		
		resources = {
			air_production = 4
			engine_production = 2
			aluminium = 1
			steel = 2
		}
	}

	# Heinkel HD 37
	i_7_equipment_1 = {
		archetype = fighter_alt_equipment
		parent = i_5_equipment_1
		year = 1932
		priority = 2030
		
		reliability = 0.65
		air_superiority = 0.97
		
		air_range = 560
		maximum_speed = 291
		air_agility = 53
		air_attack = 13.8
		air_defence = 19.5
		
		
		naval_strike_attack = 0.6
		naval_strike_targetting = 8.3
		
		supply_consumption = 0.097
		fuel_consumption = 0.07
		manpower = 17
		
		build_cost_ic = 18.5
		
		resources = {
			air_production = 4
			engine_production = 2
			aluminium = 1
			steel = 2
		}
	}

	# Kochyerigin DI-6
	di_6_equipment_1 = {
		archetype = fighter_alt_equipment
		parent = i_7_equipment_1
		year = 1935
		priority = 2031
		
		reliability = 0.45
		air_superiority = 1.11
		
		air_range = 465
		maximum_speed = 372
		air_agility = 53.5
		air_attack = 15.7
		air_defence = 19.5
		
		
		naval_strike_attack = 0.6
		naval_strike_targetting = 8.8
		
		supply_consumption = 0.097
		fuel_consumption = 0.064
		manpower = 17
		
		build_cost_ic = 19.5
		
		resources = {
			air_production = 4
			engine_production = 2
			aluminium = 1
			steel = 2
		}
	}

	# Polikarpov I-15
	i_15_equipment_1 = {
		archetype = fighter_alt_equipment
		parent = di_6_equipment_1
		year = 1935
		priority = 2032
		
		reliability = 0.55
		air_superiority = 1.16
		
		air_range = 465
		maximum_speed = 350
		air_agility = 55.5
		air_attack = 15.3
		air_defence = 18
		
		
		naval_strike_attack = 0.5
		naval_strike_targetting = 8.8
		
		supply_consumption = 0.096
		fuel_consumption = 0.057
		manpower = 16
		
		build_cost_ic = 18.2
		
		resources = {
			air_production = 4
			engine_production = 2
			aluminium = 1
			steel = 2
		}
	}

	# Polikarpov I-15 (M-25)
	i_15_equipment_2 = {
		archetype = fighter_alt_equipment
		parent = i_15_equipment_1
		year = 1936
		priority = 2033
		can_convert_from = { i_15_equipment_1 }
		
		reliability = 0.61
		air_superiority = 1.34
		
		air_range = 470
		maximum_speed = 367
		air_agility = 57.5
		air_attack = 15.5
		air_defence = 18
		
		
		naval_strike_attack = 0.5
		naval_strike_targetting = 9
		
		supply_consumption = 0.096
		fuel_consumption = 0.064
		manpower = 16
		
		build_cost_ic = 18.5
		
		resources = {
			air_production = 4
			engine_production = 2
			aluminium = 1
			steel = 2
		}
	}

	# Polikarpov I-15 bis
	i_152_equipment_1 = {
		archetype = fighter_alt_equipment
		parent = i_15_equipment_2
		year = 1937
		priority = 2034
		
		reliability = 0.65
		air_superiority = 1.49
		
		air_range = 475
		maximum_speed = 380
		air_agility = 58
		air_attack = 15.5
		air_defence = 18
		
		
		naval_strike_attack = 0.5
		naval_strike_targetting = 9.1
		
		supply_consumption = 0.096
		fuel_consumption = 0.064
		manpower = 16
		
		build_cost_ic = 18.5
		
		resources = {
			air_production = 4
			engine_production = 2
			aluminium = 1
			steel = 2
		}
	}

	# Polikarpov I-153
	i_153_equipment_1 = {
		archetype = fighter_alt_equipment
		parent = i_152_equipment_1
		year = 1938
		priority = 2035
		
		reliability = 0.65
		air_superiority = 1.83
		
		air_range = 450
		maximum_speed = 444
		air_agility = 59
		air_attack = 18.1
		air_defence = 19.5
		
		
		naval_strike_attack = 0.6
		naval_strike_targetting = 9.5
		
		supply_consumption = 0.097
		fuel_consumption = 0.069
		manpower = 17
		
		build_cost_ic = 18.7
		
		resources = {
			air_production = 4
			engine_production = 3
			aluminium = 1
			steel = 2
		}
	}

	# Yakolev Yak-1
	yak_1_equipment_1 = {
		archetype = fighter_alt_equipment
		parent = i_153_equipment_1
		year = 1940
		priority = 2036
		
		reliability = 0.61
		air_superiority = 2.76
		
		air_range = 560
		maximum_speed = 569
		air_agility = 59
		air_attack = 19.9
		air_defence = 24.5
		
		
		naval_strike_attack = 1
		naval_strike_targetting = 10.2
		
		supply_consumption = 0.1
		fuel_consumption = 0.091
		manpower = 20
		
		build_cost_ic = 22.6
		
		resources = {
			air_production = 5
			engine_production = 3
			aluminium = 1
			steel = 2
		}
	}

	# Yakolev Yak-7
	yak_7_equipment_1 = {
		archetype = fighter_alt_equipment
		parent = yak_1_equipment_1
		year = 1941
		priority = 2037
		
		reliability = 0.63
		air_superiority = 2.83
		
		air_range = 535
		maximum_speed = 571
		air_agility = 60.5
		air_attack = 20.1
		air_defence = 25.5
		
		
		naval_strike_attack = 1
		naval_strike_targetting = 10.3
		
		supply_consumption = 0.1
		fuel_consumption = 0.089
		manpower = 20
		
		build_cost_ic = 22.6
		
		resources = {
			air_production = 5
			engine_production = 3
			aluminium = 1
			steel = 2
		}
	}

	# Yakolev Yak-9
	yak_9_equipment_1 = {
		archetype = fighter_alt_equipment
		parent = yak_7_equipment_1
		year = 1942
		priority = 2038
		
		reliability = 0.65
		air_superiority = 3.43
		
		air_range = 660
		maximum_speed = 599
		air_agility = 63.5
		air_attack = 21
		air_defence = 25
		
		
		naval_strike_attack = 0.9
		naval_strike_targetting = 10.6
		
		supply_consumption = 0.101
		fuel_consumption = 0.102
		manpower = 21
		
		build_cost_ic = 22.7
		
		resources = {
			air_production = 5
			engine_production = 3
			aluminium = 2
			steel = 2
		}
	}

	# Yakolev Yak-9T
	yak_9_equipment_2 = {
		archetype = fighter_alt_equipment
		parent = yak_9_equipment_1
		year = 1943
		priority = 2039
		can_convert_from = { yak_9_equipment_1 }
		
		reliability = 0.65
		air_superiority = 3.55
		
		air_range = 645
		maximum_speed = 595
		air_agility = 63
		air_attack = 23.7
		air_defence = 25
		
		
		naval_strike_attack = 0.9
		naval_strike_targetting = 10.6
		
		supply_consumption = 0.101
		fuel_consumption = 0.101
		manpower = 21
		
		build_cost_ic = 23
		
		resources = {
			air_production = 5
			engine_production = 3
			aluminium = 2
			steel = 2
		}
	}

	# Yakolev Yak-9U
	yak_9_equipment_3 = {
		archetype = fighter_alt_equipment
		parent = yak_9_equipment_1
		year = 1944
		priority = 2040
		can_convert_from = { yak_9_equipment_1 yak_9_equipment_2 }
		
		reliability = 0.65
		air_superiority = 4.22
		
		air_range = 700
		maximum_speed = 672
		air_agility = 65
		air_attack = 21.1
		air_defence = 25.5
		
		
		naval_strike_attack = 1
		naval_strike_targetting = 11.1
		
		supply_consumption = 0.102
		fuel_consumption = 0.12
		manpower = 22
		
		build_cost_ic = 23.9
		
		resources = {
			air_production = 6
			engine_production = 3
			aluminium = 3
			steel = 2
		}
	}

	# Yakolev Yak-9P
	yak_9_equipment_4 = {
		archetype = fighter_alt_equipment
		parent = yak_9_equipment_2
		year = 1946
		priority = 2041
		
		reliability = 0.65
		air_superiority = 4.76
		
		air_range = 745
		maximum_speed = 698
		air_agility = 66
		air_attack = 25.4
		air_defence = 26.5
		
		
		naval_strike_attack = 1
		naval_strike_targetting = 11.3
		
		supply_consumption = 0.102
		fuel_consumption = 0.123
		manpower = 22
		
		build_cost_ic = 24.4
		
		resources = {
			air_production = 7
			engine_production = 3
			aluminium = 4
			steel = 2
		}
	}
}
### EOF ###
