
ai_GER_has_defeated_FRA = {
	date > 1938.1.1
	
	OR = {
		has_global_flag = fall_of_france
		country_exists = VIC
		GER = { controls_state = 844 }
		FRA = { has_capitulated = yes }
	}
	
}

ai_GER_has_defeated_SOV = {

	date > 1942.1.1
	
	GER = {
		exists = yes 
		is_subject = no 
		has_capitulated = no 
		SOV = {
			OR = {
				exists = no 
				has_capitulated = yes
				is_subject_of = GER
				is_in_faction_with = GER
			}
		}
	}

}

ai_GER_has_defeated_ENG = {

	date > 1939.1.1
	
	GER = {
		exists = yes 
		is_subject = no 
		has_capitulated = no 
		ENG = {
			OR = {
				exists = no 
				has_capitulated = yes
				is_subject_of = GER
				is_in_faction_with = GER
			}
		}
	}

}

ai_SOV_has_defeated_GER = {

	date > 1942.1.1
	
	SOV = {
		exists = yes 
		is_subject = no 
		has_capitulated = no 
		GER = {
			OR = {
				exists = no 
				has_capitulated = yes
				is_subject_of = SOV
				is_in_faction_with = SOV
			}
		}
	}
	
}

ai_ITA_has_defeated_EGY = {

}

ai_JAP_has_defeated_CHI = {

	date > 1938.1.1
	
	JAP = {
		exists = yes 
		is_subject = no 
		has_capitulated = no
		CHI = {
			OR = {
				exists = no 
				has_capitulated = yes
				is_subject_of = JAP
				is_in_faction_with = JAP
			}
		}
	}
	
}

ai_JAP_has_defeated_RAJ = {

	date > 1942.1.1
	
	JAP = {
		exists = yes 
		is_subject = no 
		has_capitulated = no 
		RAJ = {
			OR = {
				exists = no 
				has_capitulated = yes
				is_subject_of = JAP
				is_in_faction_with = JAP
			}
		}
	}
}

ai_JAP_has_defeated_AST = {

	date > 1942.1.1
	
	JAP = {
		exists = yes 
		is_subject = no 
		has_capitulated = no 
		AST = {
			OR = {
				exists = no 
				has_capitulated = yes
				is_subject_of = JAP
				is_in_faction_with = JAP
			}
		}
	}
}

ai_has_enemy_with_armor = {
	any_enemy_country = {
		ROOT = {
			estimated_intel_max_armor = {
				tag = PREV
				value > 5
			}
		}
	}
}

ai_has_enemy_with_more_armor = { #TODO_AI
	
}

ai_needs_recycled_metals = {
	set_temp_variable = { steel_import = resource_imported@steel }
	set_temp_variable = { metal_clamp = civilian_fuel_use }
	clamp_temp_variable = { var = steel_import max = metal_clamp }
	set_temp_variable = { metal_import = steel_import }

	set_temp_variable = { alu_import = resource_imported@aluminium }
	multiply_temp_variable = { metal_clamp = 0.5 }
	clamp_temp_variable = { var = alu_import max = metal_clamp }
	add_to_temp_variable = { metal_import = alu_import }

	add_to_temp_variable = {metal_import = resource_imported@tungsten }
	add_to_temp_variable = {metal_import = resource_imported@chromium }

	check_variable = { metal_import > metal_clamp}
}

ai_can_form_agency = {
	date > 1939.1.1
	check_variable = { num_owned_civilian_factories > 75 }
	
	if = {
		limit = {
			tag = CHI
		}
		num_of_factories > 300
	}
	
	log = "[This.GetTag] | [GetMonth] [GetYear] | INTEL AGENCY FOUNDED!"
}




