﻿add_namespace = BI_techs

country_event = { #handheld_at_equipment_0
	id = BI_techs.1
	hidden = yes  #timeout
    timeout_days = 1

	is_triggered_only = yes

	immediate = {
		set_temp_variable = { base_efficiency = modifier@production_factory_max_efficiency_factor }
		add_to_temp_variable = { base_efficiency = 0.29 }
		multiply_temp_variable = { base_efficiency = 100 }
		multiply_temp_variable = { base_efficiency = 0.7 }
		meta_effect = {
			text = {
				add_equipment_production = {
					equipment = {
						type = handheld_at_equipment_0
					}
					requested_factories = 1
					progress = 0.5
					efficiency = [X]
				}
			}
			X = base_efficiency
		}
	}
	
	option = {
		
	}
}

country_event = { #HMG_equipment
	id = BI_techs.2
	hidden = yes  #timeout
    timeout_days = 1

	is_triggered_only = yes

	immediate = {
		set_temp_variable = { base_efficiency = modifier@production_factory_max_efficiency_factor }
		add_to_temp_variable = { base_efficiency = 0.29 }
		multiply_temp_variable = { base_efficiency = 100 }
		multiply_temp_variable = { base_efficiency = 0.7 }
		meta_effect = {
			text = {
				add_equipment_production = {
					equipment = {
						type = HMG_equipment_0
					}
					requested_factories = 1
					progress = 0.5
					efficiency = [X]
				}
			}
			X = base_efficiency
		}
	}
	
	option = {
		
	}
}

country_event = { #mortar_equipment_0
	id = BI_techs.3
	hidden = yes  #timeout
    timeout_days = 1

	is_triggered_only = yes

	immediate = {
		set_temp_variable = { base_efficiency = modifier@production_factory_max_efficiency_factor }
		add_to_temp_variable = { base_efficiency = 0.29 }
		multiply_temp_variable = { base_efficiency = 100 }
		multiply_temp_variable = { base_efficiency = 0.7 }
		meta_effect = {
			text = {
				add_equipment_production = {
					equipment = {
						type = mortar_equipment_0
					}
					requested_factories = 1
					progress = 0.5
					efficiency = [X]
				}
			}
			X = base_efficiency
		}
	}
	
	option = {
		
	}
}

country_event = { #infantrygun_equipment_0
	id = BI_techs.4
	hidden = yes  #timeout
    timeout_days = 1

	is_triggered_only = yes

	immediate = {
		set_temp_variable = { base_efficiency = modifier@production_factory_max_efficiency_factor }
		add_to_temp_variable = { base_efficiency = 0.29 }
		multiply_temp_variable = { base_efficiency = 100 }
		multiply_temp_variable = { base_efficiency = 0.7 }
		meta_effect = {
			text = {
				add_equipment_production = {
					equipment = {
						type = infantrygun_equipment_0
					}
					requested_factories = 1
					progress = 0.5
					efficiency = [X]
				}
			}
			X = base_efficiency
		}
	}
	
	option = {
		
	}
}
country_event = { #radio_equipment_0
	id = BI_techs.5
	hidden = yes  #timeout
    timeout_days = 1

	is_triggered_only = yes

	immediate = {
		set_temp_variable = { base_efficiency = modifier@production_factory_max_efficiency_factor }
		add_to_temp_variable = { base_efficiency = 0.29 }
		multiply_temp_variable = { base_efficiency = 100 }
		multiply_temp_variable = { base_efficiency = 0.7 }
		meta_effect = {
			text = {
				add_equipment_production = {
					equipment = {
						type = radio_equipment_0
					}
					requested_factories = 1
					progress = 0.5
					efficiency = [X]
				}
			}
			X = base_efficiency
		}
	}
	
	option = {
		
	}
}
country_event = { 
	id = BI_techs.10
	hidden = yes  #timeout
    timeout_days = 1

	is_triggered_only = yes

	immediate = {
	}
	
	option = {
		update_storage_building_output = yes
	}
}
add_namespace = AI_techs
add_namespace = AI_techsa
add_namespace = AI_techsb
add_namespace = AI_techsc
country_event = { 
	id = AI_techs.1
	hidden = yes 
    timeout_days = 1
	trigger = {
		is_ai = yes
	}
	is_triggered_only = yes

	immediate = {
		if = {
			limit = {
				has_tech = basic_MG_defences
			}
			random_list = {
				seed = global.daily_random
				50 = {
					country_event = AI_techs.2
				}
				50 = {
					country_event = AI_techsa.1
				}
			}
		}
		else = {
			set_technology = { basic_MG_defences = 1 }
			random_list = {
				seed = global.daily_random
				50 = {
					country_event = { id = AI_techs.2 days = 42 }
				}
				50 = {
					country_event = { id = AI_techsa.1 days = 42 }
				}
			}
		}
	}
	
	option = {		
	}
}
### Path 1 ###
country_event = { 
	id = AI_techs.2
	hidden = yes 
    timeout_days = 1
	trigger = {
		is_ai = yes
	}
	is_triggered_only = yes

	immediate = {
		if = {
			limit = {
				has_tech = infantry_weapons1
			}
			country_event = AI_techs.3
		}
		else = {
			set_technology = { infantry_weapons1 = 1 }
			country_event = { id = AI_techs.3 days = 8 }
		}
	}
	option = {		
	}
}
country_event = { 
	id = AI_techs.3
	hidden = yes 
    timeout_days = 1
	trigger = {
		is_ai = yes
	}
	is_triggered_only = yes

	immediate = {
		if = {
			limit = {
				has_tech = tech_infantry_uniforms
			}
			country_event = AI_techs.4
		}
		else = {
			set_technology = { tech_infantry_uniforms = 1 }
			country_event = { id = AI_techs.4 days = 96 }
		}
	}
	option = {		
	}
}
country_event = { 
	id = AI_techs.4
	hidden = yes 
    timeout_days = 1
	trigger = {
		is_ai = yes
	}
	is_triggered_only = yes

	immediate = {
		if = {
			limit = {
				has_tech = carrier_pidgeons
			}
			country_event = AI_techs.5
		}
		else = {
			set_technology = { carrier_pidgeons = 1 }
			country_event = { id = AI_techs.5 days = 8 }
		}
	}
	option = {		
	}
}
country_event = { 
	id = AI_techs.5
	hidden = yes 
    timeout_days = 1
	trigger = {
		is_ai = yes
	}
	is_triggered_only = yes

	immediate = {
		if = {
			limit = {
				has_tech = defensive_trenches
			}
			country_event = AI_techs.6
		}
		else = {
			set_technology = { defensive_trenches = 1 }
			country_event = { id = AI_techs.6 days = 142 }
		}
	}
	option = {		
	}
}
country_event = { 
	id = AI_techs.6
	hidden = yes 
    timeout_days = 1
	trigger = {
		is_ai = yes
	}
	is_triggered_only = yes

	immediate = {
		if = {
			limit = {
				has_tech = basic_machine_tools
			}
			country_event = AI_techs.7
		}
		else = {
			set_technology = { basic_machine_tools = 1 }
			country_event = { id = AI_techs.7 days = 43 }
		}
	}
	option = {		
	}
}
country_event = { 
	id = AI_techs.7
	hidden = yes 
    timeout_days = 1
	trigger = {
		is_ai = yes
	}
	is_triggered_only = yes

	immediate = {
		if = {
			limit = {
				has_tech = WW1_air_power
			}
			country_event = AI_techs.8
		}
		else = {
			set_technology = { WW1_air_power = 1 }
			country_event = { id = AI_techs.8 days = 162 }
		}
	}
	option = {		
	}
}
country_event = { 
	id = AI_techs.8
	hidden = yes 
    timeout_days = 1
	trigger = {
		is_ai = yes
	}
	is_triggered_only = yes

	immediate = {
		if = {
			limit = {
				has_tech = concentrated_industry
			}
			country_event = AI_techs.9
		}
		else_if = {
			limit = {
				NOT = { has_tech = dispersed_industry }
			}
			set_technology = { concentrated_industry = 1 }
			country_event = { id = AI_techs.9 days = 44 }
		}
	}
	option = {		
	}
}
country_event = { 
	id = AI_techs.9
	hidden = yes 
    timeout_days = 1
	trigger = {
		is_ai = yes
	}
	is_triggered_only = yes

	immediate = {
		if = {
			limit = {
				has_tech = WW1_air_survey
			}
			country_event = AI_techs.10
		}
		else = {
			set_technology = { WW1_air_survey = 1 }
			country_event = { id = AI_techs.10 days = 66 }
		}
	}
	option = {		
	}
}
country_event = { 
	id = AI_techs.10
	hidden = yes 
    timeout_days = 1
	trigger = {
		is_ai = yes
	}
	is_triggered_only = yes

	immediate = {
		if = {
			limit = {
				has_tech = small_unit_raids
			}
			country_event = AI_techs.11
		}
		else = {
			set_technology = { small_unit_raids = 1 }
			country_event = { id = AI_techs.11 days = 37 }
		}
	}
	option = {		
	}
}
country_event = { 
	id = AI_techs.11
	hidden = yes 
    timeout_days = 1
	trigger = {
		is_ai = yes
	}
	is_triggered_only = yes

	immediate = {
		if = {
			limit = {
				has_tech = quality_control
			}
			country_event = AI_techs.12
		}
		else = {
			set_technology = { quality_control = 1 }
			country_event = { id = AI_techs.12 days = 37 }
		}
	}
	option = {		
	}
}
country_event = { 
	id = AI_techs.12
	hidden = yes 
    timeout_days = 1
	trigger = {
		is_ai = yes
	}
	is_triggered_only = yes

	immediate = {
		if = {
			limit = {
				has_tech = WW1_air_control
			}
			country_event = AI_techs.13
		}
		else = {
			set_technology = { WW1_air_control = 1 }
			country_event = { id = AI_techs.13 days = 38 }
		}
	}
	option = {		
	}
}
country_event = { 
	id = AI_techs.13
	hidden = yes 
    timeout_days = 1
	trigger = {
		is_ai = yes
	}
	is_triggered_only = yes

	immediate = {
		if = {
			limit = {
				has_tech = WW1_air_bomb
			}
			country_event = AI_techs.14
		}
		else = {
			set_technology = { WW1_air_bomb = 1 }
			country_event = { id = AI_techs.14 days = 42 }
		}
	}
	option = {		
	}
}
country_event = { 
	id = AI_techs.14
	hidden = yes 
    timeout_days = 1
	trigger = {
		is_ai = yes
	}
	is_triggered_only = yes

	immediate = {
		if = {
			limit = {
				has_tech = tool_maintenance
			}
			country_event = AI_techs.15
		}
		else = {
			set_technology = { tool_maintenance = 1 }
			country_event = { id = AI_techs.15 days = 108 }
		}
	}
	option = {		
	}
}
country_event = { 
	id = AI_techs.15
	hidden = yes 
    timeout_days = 1
	trigger = {
		is_ai = yes
	}
	is_triggered_only = yes

	immediate = {
		if = {
			limit = {
				has_tech = concentrated_industry2
			}
			country_event = AI_techs.16
		}
		else = {
			set_technology = { concentrated_industry2 = 1 }
			country_event = { id = AI_techs.16 days = 97 }
		}
	}
	option = {		
	}
}
country_event = { 
	id = AI_techs.16
	hidden = yes 
    timeout_days = 1
	trigger = {
		is_ai = yes
	}
	is_triggered_only = yes

	immediate = {
		if = {
			limit = {
				has_tech = night_patrols
			}
			country_event = AI_techs.17
		}
		else = {
			set_technology = { night_patrols = 1 }
			country_event = { id = AI_techs.17 days = 11 }
		}
	}
	option = {		
	}
}
country_event = { 
	id = AI_techs.17
	hidden = yes 
    timeout_days = 1
	trigger = {
		is_ai = yes
	}
	is_triggered_only = yes

	immediate = {
		if = {
			limit = {
				has_tech = offensive_trenches
			}
			country_event = AI_techs.18
		}
		else = {
			set_technology = { offensive_trenches = 1 }
			country_event = { id = AI_techs.18 days = 97 }
		}
	}
	option = {		
	}
}
country_event = { 
	id = AI_techs.18
	hidden = yes 
    timeout_days = 1
	trigger = {
		is_ai = yes
	}
	is_triggered_only = yes

	immediate = {
		if = {
			limit = {
				has_tech = worker_training
			}
			country_event = AI_techs.19
		}
		else = {
			set_technology = { worker_training = 1 }
			country_event = { id = AI_techs.19 days = 26 }
		}
	}
	option = {		
	}
}
country_event = { 
	id = AI_techs.19
	hidden = yes 
    timeout_days = 1
	trigger = {
		is_ai = yes
	}
	is_triggered_only = yes

	immediate = {
		if = {
			limit = {
				has_tech = defensive_trenches
			}
			country_event = AI_techs.20
		}
		else = {
			set_technology = { defensive_trenches = 1 }
			country_event = { id = AI_techs.20 days = 62 }
		}
	}
	option = {		
	}
}
country_event = { 
	id = AI_techs.20
	hidden = yes 
    timeout_days = 1
	trigger = {
		is_ai = yes
	}
	is_triggered_only = yes

	immediate = {
		if = {
			limit = {
				has_tech = multiple_MG_nests
			}
			country_event = AI_techs.21
		}
		else = {
			set_technology = { multiple_MG_nests = 1 }
			country_event = { id = AI_techs.21 days = 47 }
		}
	}
	option = {		
	}
}
country_event = { 
	id = AI_techs.21
	hidden = yes 
    timeout_days = 1
	trigger = {
		is_ai = yes
	}
	is_triggered_only = yes

	immediate = {
		if = {
			limit = {
				has_tech = logistics_trenches
			}
			country_event = AI_techs.22
		}
		else = {
			set_technology = { logistics_trenches = 1 }
			country_event = { id = AI_techs.22 days = 61 }
		}
	}
	option = {		
	}
}
country_event = { 
	id = AI_techs.22
	hidden = yes 
    timeout_days = 1
	trigger = {
		is_ai = yes
	}
	is_triggered_only = yes

	immediate = {
		if = {
			limit = {
				has_tech = artillery_observers
			}
			country_event = AI_techs.23
		}
		else = {
			set_technology = { artillery_observers = 1 }
			country_event = { id = AI_techs.23 days = 26 }
		}
	}
	option = {		
	}
}
country_event = { 
	id = AI_techs.23
	hidden = yes 
    timeout_days = 1
	trigger = {
		is_ai = yes
	}
	is_triggered_only = yes

	immediate = {
		if = {
			limit = {
				has_tech = cavalry_exploitation
			}
			country_event = AI_techs.24
		}
		else = {
			set_technology = { cavalry_exploitation = 1 }
			country_event = { id = AI_techs.24 days = 83 }
		}
	}
	option = {		
	}
}
country_event = { 
	id = AI_techs.24
	hidden = yes 
    timeout_days = 1
	trigger = {
		is_ai = yes
	}
	is_triggered_only = yes

	immediate = {
		if = {
			limit = {
				has_tech = balloon_observers
			}
			country_event = AI_techs.25
		}
		else = {
			set_technology = { balloon_observers = 1 }
			country_event = { id = AI_techs.25 days = 26 }
		}
	}
	option = {		
	}
}
country_event = { 
	id = AI_techs.25
	hidden = yes 
    timeout_days = 1
	trigger = {
		is_ai = yes
	}
	is_triggered_only = yes

	immediate = {
		if = {
			limit = {
				has_tech = telephone_communications
			}
			country_event = AI_techs.26
		}
		else = {
			set_technology = { telephone_communications = 1 }
			country_event = { id = AI_techs.26 days = 137 }
		}
	}
	option = {		
	}
}
country_event = { 
	id = AI_techs.26
	hidden = yes 
    timeout_days = 1
	trigger = {
		is_ai = yes
	}
	is_triggered_only = yes

	immediate = {
		if = {
			limit = {
				has_tech = pillboxes
			}
			country_event = AI_techs.27
		}
		else = {
			set_technology = { pillboxes = 1 }
			country_event = { id = AI_techs.27 days = 59 }
		}
	}
	option = {		
	}
}
country_event = { 
	id = AI_techs.27
	hidden = yes 
    timeout_days = 1
	trigger = {
		is_ai = yes
	}
	is_triggered_only = yes

	immediate = {
		if = {
			limit = {
				has_tech = enfilade_MG_fire_fields
			}
			country_event = AI_techs.28
		}
		else = {
			set_technology = { enfilade_MG_fire_fields = 1 }
			country_event = { id = AI_techs.28 days = 104 }
		}
	}
	option = {		
	}
}
country_event = { 
	id = AI_techs.28
	hidden = yes 
    timeout_days = 1
	trigger = {
		is_ai = yes
	}
	is_triggered_only = yes

	immediate = {
		if = {
			limit = {
				has_tech = fortress_trenches
			}
			country_event = AI_techs.29
		}
		else = {
			set_technology = { fortress_trenches = 1 }
			country_event = { id = AI_techs.29 days = 92 }
		}
	}
	option = {		
	}
}
country_event = { 
	id = AI_techs.29
	hidden = yes 
    timeout_days = 1
	trigger = {
		is_ai = yes
	}
	is_triggered_only = yes

	immediate = {
		if = {
			limit = {
				has_tech = dispersed_infantry_attacks
			}
			country_event = AI_techs.30
		}
		else = {
			set_technology = { dispersed_infantry_attacks = 1 }
			country_event = { id = AI_techs.30 days = 71 }
		}
	}
	option = {		
	}
}
country_event = { 
	id = AI_techs.30
	hidden = yes 
    timeout_days = 1
	trigger = {
		is_ai = yes
	}
	is_triggered_only = yes

	immediate = {
		if = {
			limit = {
				has_tech = AA_positions
			}
			country_event = AI_techs.31
		}
		else = {
			set_technology = { AA_positions = 1 }
			country_event = { id = AI_techs.31 days = 37 }
		}
	}
	option = {		
	}
}
country_event = { 
	id = AI_techs.31
	hidden = yes 
    timeout_days = 1
	trigger = {
		is_ai = yes
	}
	is_triggered_only = yes

	immediate = {
		if = {
			limit = {
				has_tech = stormtroopers
			}
			country_event = AI_techs.32
		}
		else = {
			set_technology = { stormtroopers = 1 }
			country_event = { id = AI_techs.32 days = 144 }
		}
	}
	option = {		
	}
}
country_event = { 
	id = AI_techs.32
	hidden = yes 
    timeout_days = 1
	trigger = {
		is_ai = yes
	}
	is_triggered_only = yes

	immediate = {
		if = {
			limit = {
				has_tech = battlefield_commissions
			}
			country_event = AI_techs.33
		}
		else = {
			set_technology = { battlefield_commissions = 1 }
			country_event = { id = AI_techs.33 days = 15 }
		}
	}
	option = {		
	}
}
country_event = { 
	id = AI_techs.33
	hidden = yes 
    timeout_days = 1
	trigger = {
		is_ai = yes
	}
	is_triggered_only = yes

	immediate = {
		if = {
			limit = {
				has_tech = camouflage_positions
			}
			country_event = AI_techs.34
		}
		else = {
			set_technology = { camouflage_positions = 1 }
			country_event = { id = AI_techs.34 days = 21 }
		}
	}
	option = {		
	}
}
country_event = { 
	id = AI_techs.34
	hidden = yes 
    timeout_days = 1
	trigger = {
		is_ai = yes
	}
	is_triggered_only = yes

	immediate = {
		if = {
			limit = {
				has_tech = motorcycle_liaison
			}
			country_event = AI_techs.35
		}
		else = {
			set_technology = { motorcycle_liaison = 1 }
			country_event = { id = AI_techs.35 days = 21 }
		}
	}
	option = {		
	}
}
country_event = { 
	id = AI_techs.35
	hidden = yes 
    timeout_days = 1
	trigger = {
		is_ai = yes
	}
	is_triggered_only = yes

	immediate = {
		if = {
			limit = {
				has_tech = staff_officer_vehicles
			}
			country_event = AI_techs.36
		}
		else = {
			set_technology = { staff_officer_vehicles = 1 }
			country_event = { id = AI_techs.36 days = 77 }
		}
	}
	option = {		
	}
}
country_event = { 
	id = AI_techs.36
	hidden = yes 
    timeout_days = 1
	trigger = {
		is_ai = yes
	}
	is_triggered_only = yes

	immediate = {
		if = {
			limit = {
				has_tech = communication_trenches
			}
			country_event = AI_techs.37
		}
		else = {
			set_technology = { communication_trenches = 1 }
			country_event = { id = AI_techs.37 days = 7 }
		}
	}
	option = {		
	}
}
country_event = { 
	id = AI_techs.37
	hidden = yes 
    timeout_days = 1
	trigger = {
		is_ai = yes
	}
	is_triggered_only = yes

	immediate = {
		if = {
			limit = {
				has_tech = reserve_trenches
			}
			country_event = AI_techs.38
		}
		else = {
			set_technology = { reserve_trenches = 1 }
			country_event = { id = AI_techs.38 days = 68 }
		}
	}
	option = {		
	}
}
country_event = { 
	id = AI_techs.38
	hidden = yes 
    timeout_days = 1
	trigger = {
		is_ai = yes
	}
	is_triggered_only = yes

	immediate = {
		if = {
			limit = {
				has_tech = WW1_air_naval
			}
			country_event = AI_techs.39
		}
		else = {
			set_technology = { WW1_air_naval = 1 }
			country_event = { id = AI_techs.39 days = 17 }
		}
	}
	option = {		
	}
}
country_event = { 
	id = AI_techs.39
	hidden = yes 
    timeout_days = 1
	trigger = {
		is_ai = yes
	}
	is_triggered_only = yes

	immediate = {
		if = {
			limit = {
				has_tech = anti_tank_traps
			}
			country_event = AI_techs.40
		}
		else = {
			set_technology = { anti_tank_traps = 1 }
			country_event = { id = AI_techs.40 days = 81 }
		}
	}
	option = {		
	}
}
country_event = { 
	id = AI_techs.40
	hidden = yes 
    timeout_days = 1
	trigger = {
		is_ai = yes
	}
	is_triggered_only = yes

	immediate = {
		if = {
			limit = {
				has_tech = nomans_land_saps
			}
			country_event = AI_techs.41
		}
		else = {
			set_technology = { nomans_land_saps = 1 }
			country_event = { id = AI_techs.41 days = 96 }
		}
	}
	option = {		
	}
}
country_event = { 
	id = AI_techs.41
	hidden = yes 
    timeout_days = 1
	trigger = {
		is_ai = yes
	}
	is_triggered_only = yes

	immediate = {
		if = {
			limit = {
				has_tech = infiltration_attacks
			}
			country_event = AI_techs.42
		}
		else = {
			set_technology = { infiltration_attacks = 1 }
			country_event = { id = AI_techs.42 days = 81 }
		}
	}
	option = {		
	}
}
country_event = { 
	id = AI_techs.42
	hidden = yes 
    timeout_days = 1
	trigger = {
		is_ai = yes
	}
	is_triggered_only = yes

	immediate = {
		if = {
			limit = {
				has_tech = infantry_MG_coordination
			}
			country_event = AI_techs.43
		}
		else = {
			set_technology = { infantry_MG_coordination = 1 }
			country_event = { id = AI_techs.43 days = 81 }
		}
	}
	option = {		
	}
}
country_event = { 
	id = AI_techs.43
	hidden = yes 
    timeout_days = 1
	trigger = {
		is_ai = yes
	}
	is_triggered_only = yes

	immediate = {
		if = {
			limit = {
				has_tech = aircraft_observers
			}
			country_event = AI_techs.44
		}
		else = {
			set_technology = { aircraft_observers = 1 }
			country_event = { id = AI_techs.44 days = 96 }
		}
	}
	option = {		
	}
}
country_event = { 
	id = AI_techs.44
	hidden = yes 
    timeout_days = 1
	trigger = {
		is_ai = yes
	}
	is_triggered_only = yes

	immediate = {
		if = {
			limit = {
				has_tech = MG_support_infantry_doctrine
			}
			country_event = AI_techs.45
		}
		else = {
			set_technology = { MG_support_infantry_doctrine = 1 }
			country_event = { id = AI_techs.45 days = 81 }
		}
	}
	option = {		
	}
}
country_event = { 
	id = AI_techs.45
	hidden = yes 
    timeout_days = 1
	trigger = {
		is_ai = yes
	}
	is_triggered_only = yes

	immediate = {
		if = {
			limit = {
				has_tech = WW1_air_ground
			}
			country_event = AI_techs.46
		}
		else = {
			set_technology = { WW1_air_ground = 1 }
			country_event = { id = AI_techs.46 days = 76 }
		}
	}
	option = {		
	}
}
country_event = { 
	id = AI_techs.46
	hidden = yes 
    timeout_days = 1
	trigger = {
		is_ai = yes
	}
	is_triggered_only = yes

	immediate = {
		if = {
			limit = {
				has_tech = weather_reporting
			}
			country_event = AI_techs.47
		}
		else = {
			set_technology = { weather_reporting = 1 }
			country_event = { id = AI_techs.47 days = 71 }
		}
	}
	option = {		
	}
}
country_event = { 
	id = AI_techs.47
	hidden = yes 
    timeout_days = 1
	trigger = {
		is_ai = yes
	}
	is_triggered_only = yes

	immediate = {
		if = {
			limit = {
				has_tech = terrain_mapping
			}
			country_event = AI_techs.48
		}
		else = {
			set_technology = { terrain_mapping = 1 }
			country_event = { id = AI_techs.48 days = 76 }
		}
	}
	option = {		
	}
}
country_event = { 
	id = AI_techs.48
	hidden = yes 
    timeout_days = 1
	trigger = {
		is_ai = yes
	}
	is_triggered_only = yes

	immediate = {
		if = {
			limit = {
				has_tech = first_aid_stations
			}
			country_event = AI_techs.49
		}
		else = {
			set_technology = { first_aid_stations = 1 }
			country_event = { id = AI_techs.49 days = 70 }
		}
	}
	option = {		
	}
}
country_event = { 
	id = AI_techs.49
	hidden = yes 
    timeout_days = 1
	trigger = {
		is_ai = yes
	}
	is_triggered_only = yes

	immediate = {
		if = {
			limit = {
				has_tech = sniper_pits
			}
			country_event = AI_techs.50
		}
		else = {
			set_technology = { sniper_pits = 1 }
			country_event = { id = AI_techs.50 days = 27 }
		}
	}
	option = {		
	}
}
country_event = { 
	id = AI_techs.50
	hidden = yes 
    timeout_days = 1
	trigger = {
		is_ai = yes
	}
	is_triggered_only = yes

	immediate = {
		if = {
			limit = {
				has_tech = artillery_concentration
			}
			country_event = AI_techs.51
		}
		else = {
			set_technology = { artillery_concentration = 1 }
			country_event = { id = AI_techs.51 days = 67 }
		}
	}
	option = {		
	}
}
country_event = { 
	id = AI_techs.51
	hidden = yes 
    timeout_days = 1
	trigger = {
		is_ai = yes
	}
	is_triggered_only = yes

	immediate = {
		if = {
			limit = {
				has_tech = tunnel_mines
			}
			country_event = AI_techs.52
		}
		else = {
			set_technology = { tunnel_mines = 1 }
			country_event = { id = AI_techs.52 days = 108 }
		}
	}
	option = {		
	}
}
country_event = { 
	id = AI_techs.52
	hidden = yes 
    timeout_days = 1
	trigger = {
		is_ai = yes
	}
	is_triggered_only = yes

	immediate = {
		if = {
			limit = {
				has_tech = offensive_prep_fire
			}
			country_event = AI_techs.53
		}
		else = {
			set_technology = { offensive_prep_fire = 1 }
			country_event = { id = AI_techs.53 days = 14 }
		}
	}
	option = {		
	}
}
country_event = { 
	id = AI_techs.53
	hidden = yes 
    timeout_days = 1
	trigger = {
		is_ai = yes
	}
	is_triggered_only = yes

	immediate = {
		if = {
			limit = {
				has_tech = infantry_AT_defences
			}
			country_event = AI_techs.54
		}
		else = {
			set_technology = { infantry_AT_defences = 1 }
			country_event = { id = AI_techs.54 days = 80 }
		}
	}
	option = {		
	}
}
country_event = { 
	id = AI_techs.54
	hidden = yes 
    timeout_days = 1
	trigger = {
		is_ai = yes
	}
	is_triggered_only = yes

	immediate = {
		if = {
			limit = {
				has_tech = continuous_fire
			}
			country_event = AI_techs.55
		}
		else = {
			set_technology = { continuous_fire = 1 }
			country_event = { id = AI_techs.55 days = 95 }
		}
	}
	option = {		
	}
}
country_event = { 
	id = AI_techs.55
	hidden = yes 
    timeout_days = 1
	trigger = {
		is_ai = yes
	}
	is_triggered_only = yes

	immediate = {
		if = {
			limit = {
				has_tech = armor_support
			}
			country_event = AI_techs.56
		}
		else = {
			set_technology = { armor_support = 1 }
			country_event = { id = AI_techs.56 days = 74 }
		}
	}
	option = {		
	}
}
country_event = { 
	id = AI_techs.56
	hidden = yes 
    timeout_days = 1
	trigger = {
		is_ai = yes
	}
	is_triggered_only = yes

	immediate = {
		if = {
			limit = {
				has_tech = harassment_fire
			}
			country_event = AI_techs.57
		}
		else = {
			set_technology = { harassment_fire = 1 }
			country_event = { id = AI_techs.57 days = 101 }
		}
	}
	option = {		
	}
}
country_event = { 
	id = AI_techs.57
	hidden = yes 
    timeout_days = 1
	trigger = {
		is_ai = yes
	}
	is_triggered_only = yes

	immediate = {
		if = {
			limit = {
				has_tech = infantry_tank_coordination
			}
			#country_event = AI_techs.58
		}
		else = {
			set_technology = { infantry_tank_coordination = 1 }
			#country_event = { id = AI_techs.58 days = 68 }
		}
	}
	option = {		
	}
}
### Path 2 ###
country_event = { 
	id = AI_techsa.1
	hidden = yes 
    timeout_days = 1
	trigger = {
		is_ai = yes
	}
	is_triggered_only = yes

	immediate = {
		if = {
			limit = {
				has_tech = tech_liaison_cars
			}
			country_event = AI_techsa.2
		}
		else = {
			set_technology = { tech_liaison_cars = 1 }
			country_event = { id = AI_techsa.2 days = 70 }
		}
	}
	option = {		
	}
}
country_event = { 
	id = AI_techsa.2
	hidden = yes 
    timeout_days = 1
	trigger = {
		is_ai = yes
	}
	is_triggered_only = yes

	immediate = {
		if = {
			limit = {
				has_tech = carrier_pidgeons
			}
			country_event = AI_techsa.3
		}
		else = {
			set_technology = { carrier_pidgeons = 1 }
			country_event = { id = AI_techsa.3 days = 34 }
		}
	}
	option = {		
	}
}
country_event = { 
	id = AI_techsa.3
	hidden = yes 
    timeout_days = 1
	trigger = {
		is_ai = yes
	}
	is_triggered_only = yes

	immediate = {
		if = {
			limit = {
				has_tech = tech_infantry_uniforms
			}
			country_event = AI_techsa.4
		}
		else = {
			set_technology = { tech_infantry_uniforms = 1 }
			country_event = { id = AI_techsa.4 days = 16 }
		}
	}
	option = {		
	}
}
country_event = { 
	id = AI_techsa.4
	hidden = yes 
    timeout_days = 1
	trigger = {
		is_ai = yes
	}
	is_triggered_only = yes

	immediate = {
		if = {
			limit = {
				has_tech = infantry_weapons1
			}
			country_event = AI_techsa.5
		}
		else = {
			set_technology = { infantry_weapons1 = 1 }
			country_event = { id = AI_techsa.5 days = 76 }
		}
	}
	option = {		
	}
}
country_event = { 
	id = AI_techsa.5
	hidden = yes 
    timeout_days = 1
	trigger = {
		is_ai = yes
	}
	is_triggered_only = yes

	immediate = {
		if = {
			limit = {
				has_tech = defensive_trenches
			}
			country_event = AI_techsa.6
		}
		else = {
			set_technology = { defensive_trenches = 1 }
			country_event = { id = AI_techsa.6 days = 28 }
		}
	}
	option = {		
	}
}
country_event = { 
	id = AI_techsa.6
	hidden = yes 
    timeout_days = 1
	trigger = {
		is_ai = yes
	}
	is_triggered_only = yes

	immediate = {
		if = {
			limit = {
				has_tech = basic_machine_tools
			}
			country_event = AI_techsa.7
		}
		else = {
			set_technology = { basic_machine_tools = 1 }
			country_event = { id = AI_techsa.7 days = 132 }
		}
	}
	option = {		
	}
}
country_event = { 
	id = AI_techsa.7
	hidden = yes 
    timeout_days = 1
	trigger = {
		is_ai = yes
	}
	is_triggered_only = yes

	immediate = {
		if = {
			limit = {
				has_tech = WW1_air_power
			}
			country_event = AI_techsa.8
		}
		else = {
			set_technology = { WW1_air_power = 1 }
			country_event = { id = AI_techsa.8 days = 53 }
		}
	}
	option = {		
	}
}
country_event = { 
	id = AI_techsa.8
	hidden = yes 
    timeout_days = 1
	trigger = {
		is_ai = yes
	}
	is_triggered_only = yes

	immediate = {
		if = {
			limit = {
				has_tech = anti_tank_traps
			}
			country_event = AI_techsa.9
		}
		else = {
			set_technology = { anti_tank_traps = 1 }
			country_event = { id = AI_techsa.9 days = 4 }
		}
	}
	option = {		
	}
}
country_event = { 
	id = AI_techsa.9
	hidden = yes 
    timeout_days = 1
	trigger = {
		is_ai = yes
	}
	is_triggered_only = yes

	immediate = {
		if = {
			limit = {
				has_tech = gw_artillery
			}
			country_event = AI_techsa.10
		}
		else = {
			set_technology = { gw_artillery = 1 }
			country_event = { id = AI_techsa.10 days = 92 }
		}
	}
	option = {		
	}
}
country_event = { 
	id = AI_techsa.10
	hidden = yes 
    timeout_days = 1
	trigger = {
		is_ai = yes
	}
	is_triggered_only = yes

	immediate = {
		if = {
			limit = {
				has_tech = quality_control
			}
			country_event = AI_techsa.11
		}
		else = {
			set_technology = { quality_control = 1 }
			country_event = { id = AI_techsa.11 days = 9 }
		}
	}
	option = {		
	}
}
country_event = { 
	id = AI_techsa.11
	hidden = yes 
    timeout_days = 1
	trigger = {
		is_ai = yes
	}
	is_triggered_only = yes

	immediate = {
		if = {
			limit = {
				has_tech = camouflage_positions
			}
			country_event = AI_techsa.12
		}
		else = {
			set_technology = { camouflage_positions = 1 }
			country_event = { id = AI_techsa.12 days = 13 }
		}
	}
	option = {		
	}
}
country_event = { 
	id = AI_techsa.12
	hidden = yes 
    timeout_days = 1
	trigger = {
		is_ai = yes
	}
	is_triggered_only = yes

	immediate = {
		if = {
			limit = {
				has_tech = nrm_pre_ww1_naval_doctrine
			}
			country_event = AI_techsa.13
		}
		else = {
			set_technology = { nrm_pre_ww1_naval_doctrine = 1 }
			country_event = { id = AI_techsa.13 days = 110 }
		}
	}
	option = {		
	}
}
country_event = { 
	id = AI_techsa.13
	hidden = yes 
    timeout_days = 1
	trigger = {
		is_ai = yes
	}
	is_triggered_only = yes

	immediate = {
		if = {
			limit = {
				has_tech = concentrated_industry
			}
			country_event = AI_techsa.14
		}
		else = {
			set_technology = { concentrated_industry = 1 }
			country_event = { id = AI_techsa.14 days = 95 }
		}
	}
	option = {		
	}
}
country_event = { 
	id = AI_techsa.14
	hidden = yes 
    timeout_days = 1
	trigger = {
		is_ai = yes
	}
	is_triggered_only = yes

	immediate = {
		if = {
			limit = {
				has_tech = small_unit_raids
			}
			country_event = AI_techsa.15
		}
		else = {
			set_technology = { small_unit_raids = 1 }
			country_event = { id = AI_techsa.15 days = 14 }
		}
	}
	option = {		
	}
}
country_event = { 
	id = AI_techsa.15
	hidden = yes 
    timeout_days = 1
	trigger = {
		is_ai = yes
	}
	is_triggered_only = yes

	immediate = {
		if = {
			limit = {
				has_tech = defensive_trenches
			}
			country_event = AI_techsa.16
		}
		else = {
			set_technology = { defensive_trenches = 1 }
			country_event = { id = AI_techsa.16 days = 74 }
		}
	}
	option = {		
	}
}
country_event = { 
	id = AI_techsa.16
	hidden = yes 
    timeout_days = 1
	trigger = {
		is_ai = yes
	}
	is_triggered_only = yes

	immediate = {
		if = {
			limit = {
				has_tech = improved_medical_research
			}
			country_event = AI_techsa.17
		}
		else = {
			set_technology = { improved_medical_research = 1 }
			country_event = { id = AI_techsa.17 days = 74 }
		}
	}
	option = {		
	}
}
country_event = { 
	id = AI_techsa.17
	hidden = yes 
    timeout_days = 1
	trigger = {
		is_ai = yes
	}
	is_triggered_only = yes

	immediate = {
		if = {
			limit = {
				has_tech = WW1_air_survey
			}
			country_event = AI_techsa.18
		}
		else = {
			set_technology = { WW1_air_survey = 1 }
			country_event = { id = AI_techsa.18 days = 74 }
		}
	}
	option = {		
	}
}
country_event = { 
	id = AI_techsa.18
	hidden = yes 
    timeout_days = 1
	trigger = {
		is_ai = yes
	}
	is_triggered_only = yes

	immediate = {
		if = {
			limit = {
				has_tech = tool_maintenance
			}
			country_event = AI_techsa.19
		}
		else = {
			set_technology = { tool_maintenance = 1 }
			country_event = { id = AI_techsa.19 days = 74 }
		}
	}
	option = {		
	}
}
country_event = { 
	id = AI_techsa.19
	hidden = yes 
    timeout_days = 1
	trigger = {
		is_ai = yes
	}
	is_triggered_only = yes

	immediate = {
		if = {
			limit = {
				has_tech = barbed_wire
			}
			country_event = AI_techsa.20
		}
		else = {
			set_technology = { barbed_wire = 1 }
			country_event = { id = AI_techsa.20 days = 12 }
		}
	}
	option = {		
	}
}
country_event = { 
	id = AI_techsa.20
	hidden = yes 
    timeout_days = 1
	trigger = {
		is_ai = yes
	}
	is_triggered_only = yes

	immediate = {
		if = {
			limit = {
				has_tech = WW1_air_control
			}
			country_event = AI_techsa.21
		}
		else = {
			set_technology = { barbed_wire = 1 }
			country_event = { id = AI_techsa.21 days = 63 }
		}
	}
	option = {		
	}
}
country_event = { 
	id = AI_techsa.21
	hidden = yes 
    timeout_days = 1
	trigger = {
		is_ai = yes
	}
	is_triggered_only = yes

	immediate = {
		if = {
			limit = {
				has_tech = WW1_air_bomb
			}
			country_event = AI_techsa.22
		}
		else = {
			set_technology = { WW1_air_bomb = 1 }
			country_event = { id = AI_techsa.22 days = 17 }
		}
	}
	option = {		
	}
}
country_event = { 
	id = AI_techsa.22
	hidden = yes 
    timeout_days = 1
	trigger = {
		is_ai = yes
	}
	is_triggered_only = yes

	immediate = {
		if = {
			limit = {
				has_tech = pillboxes
			}
			country_event = AI_techsa.23
		}
		else = {
			set_technology = { pillboxes = 1 }
			country_event = { id = AI_techsa.23 days = 179 }
		}
	}
	option = {		
	}
}
country_event = { 
	id = AI_techsa.23
	hidden = yes 
    timeout_days = 1
	trigger = {
		is_ai = yes
	}
	is_triggered_only = yes

	immediate = {
		if = {
			limit = {
				has_tech = concentrated_industry2
			}
			country_event = AI_techsa.24
		}
		else = {
			set_technology = { concentrated_industry2 = 1 }
			country_event = { id = AI_techsa.24 days = 26 }
		}
	}
	option = {		
	}
}
country_event = { 
	id = AI_techsa.24
	hidden = yes 
    timeout_days = 1
	trigger = {
		is_ai = yes
	}
	is_triggered_only = yes

	immediate = {
		if = {
			limit = {
				has_tech = offensive_trenches
			}
			country_event = AI_techsa.25
		}
		else = {
			set_technology = { offensive_trenches = 1 }
			country_event = { id = AI_techsa.25 days = 82 }
		}
	}
	option = {		
	}
}
country_event = { 
	id = AI_techsa.25
	hidden = yes 
    timeout_days = 1
	trigger = {
		is_ai = yes
	}
	is_triggered_only = yes

	immediate = {
		if = {
			limit = {
				has_tech = multiple_MG_nests
			}
			country_event = AI_techsa.26
		}
		else = {
			set_technology = { multiple_MG_nests = 1 }
			country_event = { id = AI_techsa.26 days = 27 }
		}
	}
	option = {		
	}
}
country_event = { 
	id = AI_techsa.26
	hidden = yes 
    timeout_days = 1
	trigger = {
		is_ai = yes
	}
	is_triggered_only = yes

	immediate = {
		if = {
			limit = {
				has_tech = cavalry_exploitation
			}
			country_event = AI_techsa.27
		}
		else = {
			set_technology = { cavalry_exploitation = 1 }
			country_event = { id = AI_techsa.27 days = 82 }
		}
	}
	option = {		
	}
}
country_event = { 
	id = AI_techsa.27
	hidden = yes 
    timeout_days = 1
	trigger = {
		is_ai = yes
	}
	is_triggered_only = yes

	immediate = {
		if = {
			limit = {
				has_tech = nrm_jeune_ecole_concepts
			}
			country_event = AI_techsa.28
		}
		else = {
			set_technology = { nrm_jeune_ecole_concepts = 1 }
			country_event = { id = AI_techsa.28 days = 164 }
		}
	}
	option = {		
	}
}
country_event = { 
	id = AI_techsa.28
	hidden = yes 
    timeout_days = 1
	trigger = {
		is_ai = yes
	}
	is_triggered_only = yes

	immediate = {
		if = {
			limit = {
				has_tech = fortress_trenches
			}
			country_event = AI_techsa.29
		}
		else = {
			set_technology = { fortress_trenches = 1 }
			country_event = { id = AI_techsa.29 days = 32 }
		}
	}
	option = {		
	}
}
country_event = { 
	id = AI_techsa.29
	hidden = yes 
    timeout_days = 1
	trigger = {
		is_ai = yes
	}
	is_triggered_only = yes

	immediate = {
		if = {
			limit = {
				has_tech = electronic_mechanical_engineering
			}
			country_event = AI_techsa.30
		}
		else = {
			set_technology = { electronic_mechanical_engineering = 1 }
			country_event = { id = AI_techsa.30 days = 64 }
		}
	}
	option = {		
	}
}
country_event = { 
	id = AI_techsa.30
	hidden = yes 
    timeout_days = 1
	trigger = {
		is_ai = yes
	}
	is_triggered_only = yes

	immediate = {
		if = {
			limit = {
				has_tech = commercial_refrigeration
			}
			country_event = AI_techsa.31
		}
		else = {
			set_technology = { commercial_refrigeration = 1 }
			country_event = { id = AI_techsa.31 days = 27 }
		}
	}
	option = {		
	}
}
country_event = { 
	id = AI_techsa.31
	hidden = yes 
    timeout_days = 1
	trigger = {
		is_ai = yes
	}
	is_triggered_only = yes

	immediate = {
		if = {
			limit = {
				has_tech = night_patrols
			}
			country_event = AI_techsa.32
		}
		else = {
			set_technology = { night_patrols = 1 }
			country_event = { id = AI_techsa.32 days = 79 }
		}
	}
	option = {		
	}
}
country_event = { 
	id = AI_techsa.32
	hidden = yes 
    timeout_days = 1
	trigger = {
		is_ai = yes
	}
	is_triggered_only = yes

	immediate = {
		if = {
			limit = {
				has_tech = worker_training
			}
			country_event = AI_techsa.33
		}
		else = {
			set_technology = { worker_training = 1 }
			country_event = { id = AI_techsa.33 days = 42 }
		}
	}
	option = {		
	}
}
country_event = { 
	id = AI_techsa.33
	hidden = yes 
    timeout_days = 1
	trigger = {
		is_ai = yes
	}
	is_triggered_only = yes

	immediate = {
		if = {
			limit = {
				has_tech = dispersed_infantry_attacks
			}
			country_event = AI_techsa.34
		}
		else = {
			set_technology = { dispersed_infantry_attacks = 1 }
			country_event = { id = AI_techsa.34 days = 119 }
		}
	}
	option = {		
	}
}
country_event = { 
	id = AI_techsa.34
	hidden = yes 
    timeout_days = 1
	trigger = {
		is_ai = yes
	}
	is_triggered_only = yes

	immediate = {
		if = {
			limit = {
				has_tech = telephone_communications
			}
			country_event = AI_techsa.35
		}
		else = {
			set_technology = { telephone_communications = 1 }
			country_event = { id = AI_techsa.35 days = 42 }
		}
	}
	option = {		
	}
}
country_event = { 
	id = AI_techsa.35
	hidden = yes 
    timeout_days = 1
	trigger = {
		is_ai = yes
	}
	is_triggered_only = yes

	immediate = {
		if = {
			limit = {
				has_tech = logistics_trenches
			}
			country_event = AI_techsa.36
		}
		else = {
			set_technology = { logistics_trenches = 1 }
			country_event = { id = AI_techsa.36 days = 64 }
		}
	}
	option = {		
	}
}
country_event = { 
	id = AI_techsa.36
	hidden = yes 
    timeout_days = 1
	trigger = {
		is_ai = yes
	}
	is_triggered_only = yes

	immediate = {
		if = {
			limit = {
				has_tech = nrm_destroyer_support
			}
			country_event = AI_techsa.37
		}
		else = {
			set_technology = { nrm_destroyer_support = 1 }
			country_event = { id = AI_techsa.37 days = 57 }
		}
	}
	option = {		
	}
}
country_event = { 
	id = AI_techsa.37
	hidden = yes 
    timeout_days = 1
	trigger = {
		is_ai = yes
	}
	is_triggered_only = yes

	immediate = {
		if = {
			limit = {
				has_tech = artillery_observers
			}
			country_event = AI_techsa.38
		}
		else = {
			set_technology = { artillery_observers = 1 }
			country_event = { id = AI_techsa.38 days = 28 }
		}
	}
	option = {		
	}
}
country_event = { 
	id = AI_techsa.38
	hidden = yes 
    timeout_days = 1
	trigger = {
		is_ai = yes
	}
	is_triggered_only = yes

	immediate = {
		if = {
			limit = {
				has_tech = AA_positions
			}
			country_event = AI_techsa.39
		}
		else = {
			set_technology = { AA_positions = 1 }
			country_event = { id = AI_techsa.39 days = 78 }
		}
	}
	option = {		
	}
}
country_event = { 
	id = AI_techsa.39
	hidden = yes 
    timeout_days = 1
	trigger = {
		is_ai = yes
	}
	is_triggered_only = yes

	immediate = {
		if = {
			limit = {
				has_tech = HQ_communications
			}
			country_event = AI_techsa.40
		}
		else = {
			set_technology = { HQ_communications = 1 }
			country_event = { id = AI_techsa.40 days = 19 }
		}
	}
	option = {		
	}
}
country_event = { 
	id = AI_techsa.40
	hidden = yes 
    timeout_days = 1
	trigger = {
		is_ai = yes
	}
	is_triggered_only = yes

	immediate = {
		if = {
			limit = {
				has_tech = stormtroopers
			}
			country_event = AI_techsa.41
		}
		else = {
			set_technology = { stormtroopers = 1 }
			country_event = { id = AI_techsa.41 days = 160 }
		}
	}
	option = {		
	}
}
country_event = { 
	id = AI_techsa.41
	hidden = yes 
    timeout_days = 1
	trigger = {
		is_ai = yes
	}
	is_triggered_only = yes

	immediate = {
		if = {
			limit = {
				has_tech = enfilade_MG_fire_fields
			}
			country_event = AI_techsa.42
		}
		else = {
			set_technology = { enfilade_MG_fire_fields = 1 }
			country_event = { id = AI_techsa.42 days = 4 }
		}
	}
	option = {		
	}
}
country_event = { 
	id = AI_techsa.42
	hidden = yes 
    timeout_days = 1
	trigger = {
		is_ai = yes
	}
	is_triggered_only = yes

	immediate = {
		if = {
			limit = {
				has_tech = balloon_observers
			}
			country_event = AI_techsa.43
		}
		else = {
			set_technology = { balloon_observers = 1 }
			country_event = { id = AI_techsa.43 days = 100 }
		}
	}
	option = {		
	}
}
country_event = { 
	id = AI_techsa.43
	hidden = yes 
    timeout_days = 1
	trigger = {
		is_ai = yes
	}
	is_triggered_only = yes

	immediate = {
		if = {
			limit = {
				has_tech = battlefield_commissions
			}
			country_event = AI_techsa.44
		}
		else = {
			set_technology = { battlefield_commissions = 1 }
			country_event = { id = AI_techsa.44 days = 4 }
		}
	}
	option = {		
	}
}
country_event = { 
	id = AI_techsa.44
	hidden = yes 
    timeout_days = 1
	trigger = {
		is_ai = yes
	}
	is_triggered_only = yes

	immediate = {
		if = {
			limit = {
				has_tech = infiltration_attacks
			}
			country_event = AI_techsa.45
		}
		else = {
			set_technology = { infiltration_attacks = 1 }
			country_event = { id = AI_techsa.45 days = 150 }
		}
	}
	option = {		
	}
}
country_event = { 
	id = AI_techsa.45
	hidden = yes 
    timeout_days = 1
	trigger = {
		is_ai = yes
	}
	is_triggered_only = yes

	immediate = {
		if = {
			limit = {
				has_tech = fuel_refining
			}
			country_event = AI_techsa.46
		}
		else = {
			set_technology = { fuel_refining = 1 }
			country_event = { id = AI_techsa.46 days = 156 }
		}
	}
	option = {		
	}
}
country_event = { 
	id = AI_techsa.46
	hidden = yes 
    timeout_days = 1
	trigger = {
		is_ai = yes
	}
	is_triggered_only = yes

	immediate = {
		if = {
			limit = {
				has_tech = aircraft_observers
			}
			country_event = AI_techsa.47
		}
		else = {
			set_technology = { aircraft_observers = 1 }
			country_event = { id = AI_techsa.47 days = 19 }
		}
	}
	option = {		
	}
}
country_event = { 
	id = AI_techsa.47
	hidden = yes 
    timeout_days = 1
	trigger = {
		is_ai = yes
	}
	is_triggered_only = yes

	immediate = {
		if = {
			limit = {
				has_tech = motorcycle_liaison
			}
			country_event = AI_techsa.48
		}
		else = {
			set_technology = { motorcycle_liaison = 1 }
			country_event = { id = AI_techsa.48 days = 79 }
		}
	}
	option = {		
	}
}
country_event = { 
	id = AI_techsa.48
	hidden = yes 
    timeout_days = 1
	trigger = {
		is_ai = yes
	}
	is_triggered_only = yes

	immediate = {
		if = {
			limit = {
				has_tech = staff_officer_vehicles
			}
			country_event = AI_techsa.49
		}
		else = {
			set_technology = { staff_officer_vehicles = 1 }
			country_event = { id = AI_techsa.49 days = 19 }
		}
	}
	option = {		
	}
}
country_event = { 
	id = AI_techsa.49
	hidden = yes 
    timeout_days = 1
	trigger = {
		is_ai = yes
	}
	is_triggered_only = yes

	immediate = {
		if = {
			limit = {
				has_tech = communication_trenches
			}
			country_event = AI_techsa.50
		}
		else = {
			set_technology = { communication_trenches = 1 }
			country_event = { id = AI_techsa.50 days = 36 }
		}
	}
	option = {		
	}
}
country_event = { 
	id = AI_techsa.50
	hidden = yes 
    timeout_days = 1
	trigger = {
		is_ai = yes
	}
	is_triggered_only = yes

	immediate = {
		if = {
			limit = {
				has_tech = reserve_trenches
			}
			country_event = AI_techsa.51
		}
		else = {
			set_technology = { reserve_trenches = 1 }
			country_event = { id = AI_techsa.51 days = 19 }
		}
	}
	option = {		
	}
}
country_event = { 
	id = AI_techsa.51
	hidden = yes 
    timeout_days = 1
	trigger = {
		is_ai = yes
	}
	is_triggered_only = yes

	immediate = {
		if = {
			limit = {
				has_tech = construction1
			}
			country_event = AI_techsa.52
		}
		else = {
			set_technology = { construction1 = 1 }
			country_event = { id = AI_techsa.52 days = 83 }
		}
	}
	option = {		
	}
}
country_event = { 
	id = AI_techsa.52
	hidden = yes 
    timeout_days = 1
	trigger = {
		is_ai = yes
	}
	is_triggered_only = yes

	immediate = {
		if = {
			limit = {
				has_tech = excavation1
			}
			country_event = AI_techsa.53
		}
		else = {
			set_technology = { excavation1 = 1 }
			country_event = { id = AI_techsa.53 days = 121 }
		}
	}
	option = {		
	}
}
country_event = { 
	id = AI_techsa.53
	hidden = yes 
    timeout_days = 1
	trigger = {
		is_ai = yes
	}
	is_triggered_only = yes

	immediate = {
		if = {
			limit = {
				has_tech = infantry_MG_coordination
			}
			country_event = AI_techsa.54
		}
		else = {
			set_technology = { infantry_MG_coordination = 1 }
			country_event = { id = AI_techsa.54 days = 56 }
		}
	}
	option = {		
	}
}
country_event = { 
	id = AI_techsa.54
	hidden = yes 
    timeout_days = 1
	trigger = {
		is_ai = yes
	}
	is_triggered_only = yes

	immediate = {
		if = {
			limit = {
				has_tech = nomans_land_saps
			}
			country_event = AI_techsa.55
		}
		else = {
			set_technology = { nomans_land_saps = 1 }
			country_event = { id = AI_techsa.55 days = 42 }
		}
	}
	option = {		
	}
}
country_event = { 
	id = AI_techsa.55
	hidden = yes 
    timeout_days = 1
	trigger = {
		is_ai = yes
	}
	is_triggered_only = yes

	immediate = {
		if = {
			limit = {
				has_tech = WW1_air_ground
			}
			country_event = AI_techsa.56
		}
		else = {
			set_technology = { WW1_air_ground = 1 }
			country_event = { id = AI_techsa.56 days = 115 }
		}
	}
	option = {		
	}
}
country_event = { 
	id = AI_techsa.56
	hidden = yes 
    timeout_days = 1
	trigger = {
		is_ai = yes
	}
	is_triggered_only = yes

	immediate = {
		if = {
			limit = {
				has_tech = weather_reporting
			}
			country_event = AI_techsa.57
		}
		else = {
			set_technology = { weather_reporting = 1 }
			country_event = { id = AI_techsa.57 days = 32 }
		}
	}
	option = {		
	}
}
country_event = { 
	id = AI_techsa.57
	hidden = yes 
    timeout_days = 1
	trigger = {
		is_ai = yes
	}
	is_triggered_only = yes

	immediate = {
		if = {
			limit = {
				has_tech = WW1_air_naval
			}
			country_event = AI_techsa.58
		}
		else = {
			set_technology = { WW1_air_naval = 1 }
			country_event = { id = AI_techsa.58 days = 43 }
		}
	}
	option = {		
	}
}
country_event = { 
	id = AI_techsa.58
	hidden = yes 
    timeout_days = 1
	trigger = {
		is_ai = yes
	}
	is_triggered_only = yes

	immediate = {
		if = {
			limit = {
				has_tech = MG_support_infantry_doctrine
			}
			country_event = AI_techsa.59
		}
		else = {
			set_technology = { MG_support_infantry_doctrine = 1 }
			country_event = { id = AI_techsa.59 days = 134 }
		}
	}
	option = {		
	}
}
country_event = { 
	id = AI_techsa.59
	hidden = yes 
    timeout_days = 1
	trigger = {
		is_ai = yes
	}
	is_triggered_only = yes

	immediate = {
		if = {
			limit = {
				has_tech = terrain_mapping
			}
			country_event = AI_techsa.60
		}
		else = {
			set_technology = { terrain_mapping = 1 }
			country_event = { id = AI_techsa.60 days = 13 }
		}
	}
	option = {		
	}
}
country_event = { 
	id = AI_techsa.60
	hidden = yes 
    timeout_days = 1
	trigger = {
		is_ai = yes
	}
	is_triggered_only = yes

	immediate = {
		if = {
			limit = {
				has_tech = nrm_destroyer_screen
			}
			country_event = AI_techsa.61
		}
		else = {
			set_technology = { nrm_destroyer_screen = 1 }
			country_event = { id = AI_techsa.61 days = 110 }
		}
	}
	option = {		
	}
}
country_event = { 
	id = AI_techsa.61
	hidden = yes 
    timeout_days = 1
	trigger = {
		is_ai = yes
	}
	is_triggered_only = yes

	immediate = {
		if = {
			limit = {
				has_tech = first_aid_stations
			}
			country_event = AI_techsa.62
		}
		else = {
			set_technology = { first_aid_stations = 1 }
			country_event = { id = AI_techsa.62 days = 36 }
		}
	}
	option = {		
	}
}
country_event = { 
	id = AI_techsa.62
	hidden = yes 
    timeout_days = 1
	trigger = {
		is_ai = yes
	}
	is_triggered_only = yes

	immediate = {
		if = {
			limit = {
				has_tech = artillery_concentration
			}
			country_event = AI_techsa.63
		}
		else = {
			set_technology = { artillery_concentration = 1 }
			country_event = { id = AI_techsa.63 days = 58 }
		}
	}
	option = {		
	}
}
country_event = { 
	id = AI_techsa.63
	hidden = yes 
    timeout_days = 1
	trigger = {
		is_ai = yes
	}
	is_triggered_only = yes

	immediate = {
		if = {
			limit = {
				has_tech = tunnel_mines
			}
			country_event = AI_techsa.64
		}
		else = {
			set_technology = { tunnel_mines = 1 }
			country_event = { id = AI_techsa.64 days = 118 }
		}
	}
	option = {		
	}
}
country_event = { 
	id = AI_techsa.64
	hidden = yes 
    timeout_days = 1
	trigger = {
		is_ai = yes
	}
	is_triggered_only = yes

	immediate = {
		if = {
			limit = {
				has_tech = nrm_trade_protection
			}
			country_event = AI_techsa.65
		}
		else = {
			set_technology = { nrm_trade_protection = 1 }
			country_event = { id = AI_techsa.65 days = 66 }
		}
	}
	option = {		
	}
}
country_event = { 
	id = AI_techsa.65
	hidden = yes 
    timeout_days = 1
	trigger = {
		is_ai = yes
	}
	is_triggered_only = yes

	immediate = {
		if = {
			limit = {
				has_tech = sniper_pits
			}
			country_event = AI_techsa.66
		}
		else = {
			set_technology = { sniper_pits = 1 }
			country_event = { id = AI_techsa.66 days = 33 }
		}
	}
	option = {		
	}
}
country_event = { 
	id = AI_techsa.66
	hidden = yes 
    timeout_days = 1
	trigger = {
		is_ai = yes
	}
	is_triggered_only = yes

	immediate = {
		if = {
			limit = {
				has_tech = offensive_prep_fire
			}
			country_event = AI_techsa.67
		}
		else = {
			set_technology = { offensive_prep_fire = 1 }
			country_event = { id = AI_techsa.67 days = 61 }
		}
	}
	option = {		
	}
}
country_event = { 
	id = AI_techsa.67
	hidden = yes 
    timeout_days = 1
	trigger = {
		is_ai = yes
	}
	is_triggered_only = yes

	immediate = {
		if = {
			limit = {
				has_tech = continuous_fire
			}
			country_event = AI_techsa.68
		}
		else = {
			set_technology = { continuous_fire = 1 }
			country_event = { id = AI_techsa.68 days = 114 }
		}
	}
	option = {		
	}
}
country_event = { 
	id = AI_techsa.68
	hidden = yes 
    timeout_days = 1
	trigger = {
		is_ai = yes
	}
	is_triggered_only = yes

	immediate = {
		if = {
			limit = {
				has_tech = armor_support
			}
			country_event = AI_techsa.69
		}
		else = {
			set_technology = { armor_support = 1 }
			country_event = { id = AI_techsa.69 days = 55 }
		}
	}
	option = {		
	}
}
country_event = { 
	id = AI_techsa.69
	hidden = yes 
    timeout_days = 1
	trigger = {
		is_ai = yes
	}
	is_triggered_only = yes

	immediate = {
		if = {
			limit = {
				has_tech = infantry_AT_defences
			}
			country_event = AI_techsa.70
		}
		else = {
			set_technology = { infantry_AT_defences = 1 }
			country_event = { id = AI_techsa.70 days = 34 }
		}
	}
	option = {		
	}
}
country_event = { 
	id = AI_techsa.70
	hidden = yes 
    timeout_days = 1
	trigger = {
		is_ai = yes
	}
	is_triggered_only = yes

	immediate = {
		if = {
			limit = {
				has_tech = infantry_tank_coordination
			}
			country_event = AI_techsa.71
		}
		else = {
			set_technology = { infantry_tank_coordination = 1 }
			country_event = { id = AI_techsa.71 days = 135 }
		}
	}
	option = {		
	}
}
country_event = { 
	id = AI_techsa.71
	hidden = yes 
    timeout_days = 1
	trigger = {
		is_ai = yes
	}
	is_triggered_only = yes

	immediate = {
		if = {
			limit = {
				has_tech = harassment_fire
			}
			#country_event = AI_techsa.72
		}
		else = {
			set_technology = { harassment_fire = 1 }
			#country_event = { id = AI_techsa.72 days = 40 }
		}
	}
	option = {		
	}
}
### Path 3 ###
