﻿add_namespace = BICE_britain 

##################################################################
############ BICE UK #####################################
#The K6, Red Telephone Box
country_event = {
	id = BICE_britain.1
	title = BICE_britain.1.t
	desc = BICE_britain.1.d
	picture = GFX_report_event_k6
	
	is_triggered_only = yes
	fire_only_once = yes
	
	option = {
		name = BICE_britain.1.a	#A British icon
		set_country_flag = K6
		add_stability = 0.02 # social cohesion
		add_political_power = 30 # pride in British Telecoms !
	}
}
#Churchill is upset
country_event = {
	id = BICE_britain.2
	title = BICE_britain.2.t
	desc = BICE_britain.2.d
	picture = GFX_report_event_churchill
	
	is_triggered_only = yes
	fire_only_once = yes
	
	trigger = {
		tag = ENG
		#date > 1936.3.20
		not = { has_country_flag = Churchill_speech }
	}
	
	option = {
		name = BICE_britain.2.a	#Churchill's speech
		set_country_flag = Churchill_speech
		add_stability = 0.01
		add_opinion_modifier = {
			target = GER
			modifier = early_ENG_GER_relations
		}
		hidden_effect = {
			country_event = { id = BICE_britain.5 days = 168 }
		}
	}
}
#English Communists
country_event = {
	id = BICE_britain.3
	title = BICE_britain.3.t
	desc = BICE_britain.3.d
	picture = GFX_report_event_british_communists
	
	is_triggered_only = yes
	fire_only_once = yes
	
	trigger = {
		tag = ENG
		#date > 1936.2.12
		not = { has_country_flag = English_Communists }
	}

	option = {
		name = BICE_britain.3.a	# We love Stalin !
		set_country_flag = English_Communists
		add_stability = -0.01
		add_popularity = {
			ideology = communism
			popularity = 0.02
		}
		hidden_effect = {
			country_event = { id = BICE_britain.2 days = 37 }
		}
	}
}
#Emperor Haile Selassie - Triumphant Return to Ethiopia
country_event = {
	id = BICE_britain.4
	title = BICE_britain.4.t
	desc = BICE_britain.4.d
	picture = GFX_report_event_halie_selassie_gfxaddon
	
	is_triggered_only = yes
	
	option = {
		trigger = {
			tag = ENG
		}
		name = BICE_britain.4.a	
		271 = {
			add_compliance = 25
		}		
	}
	option = {
		trigger = {
			not = { tag = ENG }
		}
		name = BICE_britain.4.a			
	}
}

#British Union of Fascists (BUF)
country_event = {
	id = BICE_britain.5
	title = BICE_britain.5.t
	desc = BICE_britain.5.d
	picture = GFX_report_event_british_union_of_fascists_gfxaddon
	
	is_triggered_only = yes
	fire_only_once = yes
	
	trigger = {
		tag = ENG
		#date > 1936.9.4
		not = { has_country_flag = Cable_street }
	}
	
	option = {
		name = BICE_britain.5.a	#Battle of Cable Street
		set_country_flag = Cable_street
		add_stability = -0.01
		add_popularity = {
			ideology = fascism
			popularity = 0.02
		}
		hidden_effect = {
			country_event = { id = BICE_britain.10 days = 408 }
		}
	}
}
#The Public Order Act 1936
country_event = {
	id = BICE_britain.6
	title = BICE_britain.6.t
	desc = BICE_britain.6.d
	picture = GFX_report_event_generic_read_write
	
	fire_only_once = yes
	is_triggered_only = yes
	
	option = {
		name = BICE_britain.6.a	#Pass the Act
		set_country_flag = POA
		
		add_popularity = {
			ideology = fascism
			popularity = -0.02
		}
		add_popularity = {
			ideology = communism
			popularity = -0.02
		}
	}
}
#BBC Televison Regular Service Begins
country_event = {
	id = BICE_britain.7
	title = BICE_britain.7.t
	desc = BICE_britain.7.d
	picture = GFX_report_event_bbc
	
	is_triggered_only = yes
	fire_only_once = yes
	
	option = {
		name = BICE_britain.7.a	#Tune in to BBC TV
		set_country_flag = BBC_TV 
		###### Need effect
		add_stability = 0.02
		add_political_power = 25 # 
	}
}
#Supermarine Spitfire Mk I
country_event = {
	id = BICE_britain.8
	title = BICE_britain.8.t
	desc = BICE_britain.8.d
	picture = GFX_report_event_spitfire
	
	fire_only_once = yes
	is_triggered_only = yes
	
	option = {
		name = BICE_britain.8.a	#A Beautiful Machine
		#set_country_flag =  Spitfire
		hidden_effect = {
		load_oob = "19th_Squadron_RAF"
		}
		
		# tech increase
	}
}
#Hawker Hurricane Mk I
country_event = {
	id = BICE_britain.9
	title = BICE_britain.9.t
	desc = BICE_britain.9.d
	picture = GFX_report_event_britain9
	
	fire_only_once = yes
	is_triggered_only = yes
	
	option = {
		name = BICE_britain.9.a	# A Splendid Machine
		#set_country_flag = Hurricane
		hidden_effect = {
		load_oob = "111th_Squadron_RAF"
		}
		
		# tech increase
	}
}
#Halifax visits Germany
country_event = {
	id = BICE_britain.10
	title = BICE_britain.10.t
	desc = BICE_britain.10.d
	picture = GFX_report_event_lord_halifax
	
	fire_only_once = yes
	is_triggered_only = yes
	
	trigger = {
		#tag = ENG #EOA
		check_variable = { global.days_passed > 655 } #date > 1937.10.17
		#not = { has_country_flag = Reich_visit }
	}
	
	option = {
		name = BICE_britain.10.a	#Hitler's Advice
		#set_country_flag = Reich_visit
		add_political_power = -30 # 
		add_opinion_modifier = {
			target = GER
			modifier = small_increase
		}
		hidden_effect = {
			country_event = { id = BICE_britain.11 days = 201 }
		}
	}
}
#Sigmund Freud arrives in London
country_event = {
	id = BICE_britain.11
	title = BICE_britain.11.t
	desc = BICE_britain.11.d
	picture = GFX_report_event_freud
	
	is_triggered_only = yes
	fire_only_once = yes
	
	trigger = {
		tag = ENG
		#date > 1938.5.6
		#not = { has_country_flag = Freud  }
	}
	
	option = {
		name = BICE_britain.11.a	#Good for him
		add_tech_bonus = {
			name = research_bonus
			bonus = 0.2
			uses = 1
			category = decryption_tech
		}
	}
}
#Test cricket on TV
country_event = {
	id = BICE_britain.12
	title = BICE_britain.12.t
	desc = BICE_britain.12.d
	picture = GFX_report_event_bbc
	
	is_triggered_only = yes
	fire_only_once = yes
	
	trigger = {
		tag = ENG
	}
	
	option = {
		name = BICE_britain.12.a	#Cor Blimey !
		add_stability = 0.02
	}
}
#Propaganda broadcasts
country_event = {
	id = BICE_britain.14
	title = BICE_britain.14.t
	desc = BICE_britain.14.d
	picture = GFX_report_event_bbc
	
	fire_only_once = yes
	is_triggered_only = yes
	trigger = {
		has_war_with = GER
	}
	option = {
		name = BICE_britain.14.a	#Broadcast

	}
}
#The Franco regime
country_event = {
	id = BICE_britain.15
	title = BICE_britain.15.t
	desc = BICE_britain.15.d
	picture = GFX_report_event_franco
	
	is_triggered_only = yes
	fire_only_once = yes
	
	trigger = {
		has_global_flag = scw_over 
		not = { has_war_with = SPA }
		has_capitulated = no
	}
	
	option = {
		name = BICE_britain.15.a	#
		ai_chance = { factor = 100 }
		add_political_power = 15
		SPA = {
			add_political_power = 30
		}
	}
	option = {
		name = BICE_britain.15.b	#
		ai_chance = { factor = 0 }

		ROOT = {
			add_opinion_modifier = {
				target = SPA
				modifier = minor_sanctions_relations
			}
		}
	}
}
#The Altmark Incident
country_event = {
	id = BICE_britain.16
	title = BICE_britain.16.t
	desc = BICE_britain.16.d
	picture = GFX_report_event_britain16
	
	fire_only_once = yes
	is_triggered_only = yes
	
	trigger = {
		#tag = ENG #EOA
		has_war_with = GER 
		GER = {
			has_war_with = FRA
		}
        NOR = {
			exists = yes
			is_in_faction = no
			has_war = no 
        }
	}
	
	option = {
		name = BICE_britain.16.a	#
		hidden_effect = { news_event = { id = norway.4 days = 1 } }
		set_country_flag = altmark_issue 
		GER = {
			add_equipment_to_stockpile = {
				type = convoy_1
				amount = -1
			}
		}
		NOR = {
			add_opinion_modifier = {
				target = ROOT
				modifier = protest_action_light
			}
		}
		activate_decision = align_norway
	}
}
#Fascist sympathisers arrested
country_event = {
	id = BICE_britain.17
	title = BICE_britain.17.t
	desc = BICE_britain.17.d
	picture = GFX_report_event_britain17
	
	fire_only_once = yes
	is_triggered_only = yes
	
	trigger = {
		#tag = ENG #EOA
		has_war_with = GER 
	}
	
	option = {
		name = BICE_britain.17.a	#Lock 'em up
		#remove_minister = 1042 #Mosley
		add_stability = 0.02
		add_manpower = -5000
		add_popularity = {
			ideology = fascism
			popularity = -0.1
		}
		ai_chance = { factor = 100 }
	}
	option = {
		name = BICE_britain.17.b	#no need
		ai_chance = { factor = 0 }
	}
}
#Blood,Toil,Tears,Sweat
country_event = {
	id = BICE_britain.18
	title = BICE_britain.18.t
	desc = BICE_britain.18.d
	picture = GFX_report_event_churchill
	
	fire_only_once = yes
	is_triggered_only = yes
	
	option = {
		name = BICE_britain.18.a	#"Blood,Toil,Tears,Sweat
		add_stability = 0.03
		add_manpower = 10000
	}
}
#The Emergency Powers Act
country_event = {
	id = BICE_britain.19
	title = BICE_britain.19.t
	desc = BICE_britain.19.d
	picture = GFX_report_event_parliament
	
	fire_only_once = yes
	is_triggered_only = yes
	
	option = {
		name = BICE_britain.19.a	#Pass the Act"
		# needs effects
		add_political_power = -300
		add_manpower = 25000
		
		set_temp_variable = { input_group = token:economy }
		set_temp_variable = { input_lvl = 5 } #war_economy
		set_temp_variable = { input_only_upgrade = 1 }
		add_law = yes
		
		set_temp_variable = { input_group = token:conscription_law }
		set_temp_variable = { input_lvl = 4 } #cons_extensive_draft
		set_temp_variable = { input_only_upgrade = 1 }
		add_law = yes
		
	}
	option = {
		name = BICE_britain.19.b	#Forget It
		# needs effects
	}
}

#Never give up
country_event = {
	id = BICE_britain.20
	title = BICE_britain.20.t
	desc = BICE_britain.20.d
	picture = GFX_report_event_churchill_address_by_radio
	
	fire_only_once = yes
	is_triggered_only = yes
	option = {
		name = BICE_britain.20.a	#Never give up
		add_stability = 0.03
		add_manpower = 10000
	}
}
#Our Finest Hour
country_event = {
	id = BICE_britain.21
	title = BICE_britain.21.t
	desc = BICE_britain.21.d
	picture = GFX_report_event_churchill_address_by_radio

	fire_only_once = yes

	is_triggered_only = yes

	option = {
		name = BICE_britain.21.a	#Our Finest Hour
		add_stability = 0.03
	}
}
#Thank the RAF
country_event = {
	id = BICE_britain.22
	title = BICE_britain.22.t
	desc = BICE_britain.22.d
	picture = GFX_report_event_RAF_pilot

	fire_only_once = yes
	is_triggered_only = yes

	option = {
		name = BICE_britain.22.a	#Thank the RAF
		add_stability = 0.03
		add_manpower = 10000
	}
}
#U-110
country_event = {
	id = BICE_britain.23
	title = BICE_britain.23.t
	desc = BICE_britain.23.d
	picture = GFX_report_event_uboat

	fire_only_once = yes
	is_triggered_only = yes

	trigger = {
		#tag = ENG #EOA
		has_war_with = GER 
	}

	option = {
		name = BICE_britain.23.a	#Excellent
		add_tech_bonus = {
			name = research_bonus
			bonus = 0.25
			uses = 1
			category = decryption_tech
		}
	}
}
#National Service (No. 2) Act
country_event = {
	id = BICE_britain.25
	title = BICE_britain.25.t
	desc = BICE_britain.25.d
	picture = GFX_report_event_national_service
	is_triggered_only = yes
	fire_only_once = yes

	trigger = {
		tag = ENG
		#date > 1941.11.18
		#has_country_flag = impossible #has no trigger so will never fire
		has_war = yes
		has_country_flag = yes
	}

	option = {
		name = BICE_britain.25.a	#Join up !
		add_manpower = 35000
		army_experience = 50
	}
}
#The Atlantic Charter
country_event = {
	id = BICE_britain.26
	title = BICE_britain.26.t
	desc = BICE_britain.26.d
	picture = GFX_report_event_roosevelt_and_churchill
	is_triggered_only = yes
	fire_only_once = yes
	major = yes

	option = {
		name = BICE_britain.26.a	#Excellent
		add_stability = 0.05
		add_war_support = 0.05
		trigger = {
			OR = {
				tag = ENG
				tag = USA
			}
		}
		every_other_country = {
			limit = {
				is_subject_of = ROOT
			}
			add_autonomy_ratio = {
				value = 0.1
				localization = alantic_charter
			}
		}
		every_other_country = {
			limit = {
				not = { 
					has_war_with = ROOT 
					TAG = JAP
					TAG = GER
					is_in_faction_with = GER
					is_in_faction_with = JAP
				}			
			}
			reverse_add_opinion_modifier = {
				target = ROOT
				modifier = took_stand_for_us
			}
		}		
	}
	option = {
		name = BICE_britain.26.a	#Excellent

		trigger = {
			NOT = {
				tag = ENG
				tag = USA
				TAG = JAP
				TAG = GER
				is_in_faction_with = GER
				is_in_faction_with = JAP
			}
		}		
	}
	option = {
		name = BICE_britain.26.b	#Excellent
		trigger = {
			OR = {
				TAG = JAP
				TAG = GER
				is_in_faction_with = GER
				is_in_faction_with = JAP
			}
		}		
	}
}
#71 Eagles Squadron is formed
country_event = {
	id = BICE_britain.28
	title = BICE_britain.28.t
	desc = BICE_britain.28.d
	picture = GFX_report_event_raf_wing

	fire_only_once = yes
	is_triggered_only = yes

	trigger = {
		has_tech = tech_hawker_hurricane_equipment_1
	}

	option = {
		name = BICE_britain.28.a	#
		hidden_effect = {
			load_oob = "71_Eagles_Squadron"
		}
		
	}
}
#121 Eagles Squadron joins the fight!
country_event = {
	id = BICE_britain.29
	title = BICE_britain.29.t
	desc = BICE_britain.29.d
	picture = GFX_report_event_raf_wing

	fire_only_once = yes
	is_triggered_only = yes

	trigger = {
		has_tech = tech_spitfire_equipment_1
	}

	option = {
		name = BICE_britain.29.a	#
		hidden_effect = {
			load_oob = "121_Eagles_Squadron"
			country_event = { id = BICE_britain.30 days = 90 random_days = 3 }
		}

		
	}
}
#133 Eagles Squadron is battle-ready!
country_event = {
	id = BICE_britain.30
	title = BICE_britain.30.t
	desc = BICE_britain.30.d
	picture = GFX_report_event_raf_wing

	fire_only_once = yes
	is_triggered_only = yes



	option = {
		name = BICE_britain.30.a	#
		hidden_effect = {
			load_oob = "133_Eagles_Squadron"
		}
		
	}
}

############## Recommission of HMS Argus
country_event = {
	id = BICE_britain.42
	title = BICE_britain.42.t
	desc = BICE_britain.42.d
	picture = GFX_report_event_british_armour_crew

	trigger = {
		tag = ENG
		is_ai = no
		#check_variable = { global.days_passed > 941 } #date > 1938.7.30	

	}
	
	is_triggered_only = yes
	
	option = {
		trigger = {
			not = { has_dlc = "Man the Guns" }
		}
		name = BICE_britain.42.a
		ai_chance = { factor = 100 }
		
		hidden_effect = {
			load_oob = "ENG_HMS_Argus"
		}
	}
	option = {
		trigger = {
			has_dlc = "Man the Guns"
		}
		name = BICE_britain.42.a
		ai_chance = { factor = 100 }
		create_equipment_variant = { 
			name = "Argus Class" 
			type = nrm_ship_hull_carrier_escort_1
			parent_version = 0
			show_position = no
			name_group = ENG_CVL_HISTORICAL
			role_icon_index = 7
			modules = {
				fixed_ship_hullform_slot = nrm_ship_hullform_carrier_escort_1
				fixed_ship_engine_slot = nrm_cruiser_engine_S1_015
				fixed_ship_subdivision_slot = nrm_subdivision_1
				fixed_ship_damagecontrol_slot = nrm_damagecontrol_1
				fixed_ship_range_slot = nrm_range_cruiser_3
				fixed_ship_radar_slot = empty
				fixed_ship_fire_control_system_slot = nrm_fire_control_1
				fixed_ship_fire_control_system_aa_slot = empty
				fixed_ship_tertiary_slot = nrm_cruiser_tertiary_HA_4_1_x04
				fixed_ship_flightdeck_slot = nrm_carrier_flightdeck_ECH_025
				custom_slot_1 = empty
				custom_slot_2 = nrm_support_cruiser_AA_1
				custom_slot_3 = nrm_support_cruiser_AA_1
				custom_slot_4 = nrm_support_cruiser_AA_1
				custom_slot_5 = empty
				custom_slot_6 = empty
			}			

		}		
		hidden_effect = {
			load_oob = "ENG_HMS_Argus_MTG"
		}
	}
	option = {
		name = BICE_britain.42.b
		ai_chance = { factor = 0 }
	}
} 
# destroyers x 30

country_event = { #Beveridge Report
	id = BICE_britain.46
	title = BICE_britain.46.t
	desc = BICE_britain.46.desc
	picture = GFX_report_event_generic_read_write

	fire_only_once = yes
	is_triggered_only = yes
	
	trigger = {
		democratic_govt = yes
	}
	
	
	option = {
		name = BICE_britain.46.a
		add_popularity = {
			ideology = socialism
			popularity = 0.1
		}
		add_popularity = {
			ideology = conservatism
			popularity = -0.07
		}
		ai_chance = { factor = 100 }
	}
	option = {
		name = BICE_britain.46.b
		add_popularity = {
			ideology = socialism
			popularity = 0.15
		}
		add_popularity = {
			ideology = conservatism
			popularity = -0.1
		}
	}
}
country_event = { #Attacker Class LL
	id = BICE_britain.47
	title = BICE_britain.47.t
	desc = BICE_britain.47.d
	picture = GFX_report_event_generic_read_write

	is_triggered_only = yes

	#fire_only_once = yes
	
	trigger = {
		tag = ENG
		check_variable = { global.days_passed > 2716 } #date > 1943.6.10
		NOT = { has_war_with = USA }
		has_tech = tech_blackburn_roc_equipment_1
		#has_tech = tech_rn_cve3
		USA = { 
			democratic_govt = yes
		}
		#USA = { 
		#	has_tech = tech_usn_cve2
		#}	
	}
	immediate = {
#		if = {
#			limit = {
#				is_ai = yes
#			}
			#set_technology = { tech_rn_cve1  = 1 }
		#	set_technology = { tech_rn_cve2  = 1 }
		#	set_technology = { tech_rn_cve3  = 1 }
			set_technology = { tech_blackburn_roc_equipment_1 = 1 }
#		}
	}
	option = {
		name = BICE_britain.47.a
		hidden_effect = {
			load_oob = "ENG_Attacker_Class_LL"
		}
	}
}
country_event = { #Ruler Class LL
	id = BICE_britain.48
	title = BICE_britain.48.t
	desc = BICE_britain.48.d
	picture = GFX_report_event_generic_read_write

	is_triggered_only = yes
	
	fire_only_once = yes
	
	trigger = {
		tag = ENG
		check_variable = { global.days_passed > 2787 } #date > 1943.8.20
		NOT = { has_war_with = USA }
		USA = { 
			democratic_govt = yes
		}
		#USA = { 
		#	has_tech = tech_usn_cve2
		#}	
	}
	option = {
		name = BICE_britain.48.a
		hidden_effect = {
			#set_technology = { tech_rn_cve4  = 1 }
			set_technology = { tech_fairey_swordfish_equipment_1 = 1 }
			load_oob = "ENG_Ruler_Class_LL1"		
			
		}
	}
}
country_event = { #Ruler Class LL
	id = BICE_britain.49
	title = BICE_britain.49.t
	desc = BICE_britain.49.d
	picture = GFX_report_event_generic_read_write

	is_triggered_only = yes
	
	fire_only_once = yes
	
	trigger = {
		tag = ENG
		check_variable = { global.days_passed > 2971 } #date > 1944.2.20
		NOT = { has_war_with = USA }
		USA = { 
			democratic_govt = yes
		}
		#USA = { 
		#	has_tech = tech_usn_cve2
		#}	
	}
	option = {
		name = BICE_britain.49.a
		hidden_effect = {
			load_oob = "ENG_Ruler_Class_LL2"
		}
	}
}
country_event = { 
	id = BICE_britain.50
	title = BICE_britain.50.t
	desc = BICE_britain.50.d
	picture = GFX_report_event_american_tanks_gfxaddon

	fire_only_once = yes
	is_triggered_only = yes
	
	trigger = {
		#tag = USA #EOA
		has_tech = tech_trm_light_tank_chassis_usa_m3_1
		has_equipment = {
			trm_light_tank_chassis_usa_m3_1 > 0
		}
		is_in_faction_with = ENG
	}
	
	option = {
		name = BICE_britain.50.a
		ai_chance = { factor = 100 }
		
		create_production_license = {
			target = ENG
			equipment = {
				type = trm_light_tank_chassis_usa_m3_1
			}
			cost_factor = 0
		}
		hidden_effect = {
			ENG = { 
				if = {
					limit = { ENG = { is_ai = yes } }
					country_event = BICE_britain.51
				}
			}
		}
	}
	option = {
		name = BICE_britain.50.b #refuse
		ai_chance = { factor = 0 }
	}
}
country_event = { 
	id = BICE_britain.51
	title = BICE_britain.51.t
	desc = BICE_britain.51.d
	picture = GFX_report_event_american_tanks_gfxaddon

	fire_only_once = yes
	
	is_triggered_only = yes
	
	option = {
		name = BICE_britain.51.a
		hidden_effect = {
			load_oob = "ENG_M3_Honey"
		}
	}
}
###########################
country_event = { 
	id = BICE_britain.52
	title = BICE_britain.52.t
	desc = BICE_britain.52.d
	picture = GFX_report_event_american_tanks_gfxaddon

	fire_only_once = yes
	is_triggered_only = yes
	
	trigger = {
		#tag = USA #EOA
		has_tech = tech_trm_medium_tank_chassis_usa_m3_1
		has_equipment = {
			trm_medium_tank_chassis_usa_m3_1 > 0
		}
		is_in_faction_with = ENG
	}
	
	#mean_time_to_happen = {
	#	days = 15
	#}
	
	option = {
		name = BICE_britain.52.a
		create_production_license = {
				target = ENG
				equipment = {
					type = trm_medium_tank_chassis_usa_m3_1
				}
				cost_factor = 0
			}
		hidden_effect = {
			ENG = { 
				if = {
					limit = { ENG = { is_ai = yes } }
					country_event = BICE_britain.53
				}
			}
		}
	}
	option = {
		name = BICE_britain.52.b #refuse
		ai_chance = { factor = 0 }
	}
}
country_event = { 
	id = BICE_britain.53
	title = BICE_britain.53.t
	desc = BICE_britain.53.d
	picture = GFX_report_event_american_tanks_gfxaddon

	fire_only_once = yes
	
	is_triggered_only = yes
	
	option = {
		name = BICE_britain.53.a
		
		hidden_effect = {
			load_oob = "ENG_M3_Grant"
		}
	}
}

###########################
country_event = { 
	id = BICE_britain.54
	title = BICE_britain.54.t
	desc = BICE_britain.54.d
	picture = GFX_report_event_american_tanks_gfxaddon

	fire_only_once = yes
	is_triggered_only = yes
	
	trigger = {
		if = {
			limit = {
				USA = { is_ai = yes }
			}
			date > 1942.03.01
		}
		else = {
			has_tech = tech_trm_medium_tank_chassis_usa_m4_1
			has_equipment = {
				trm_medium_tank_chassis_usa_m4_1 > 0
			}	
		}
		is_in_faction_with = ENG
	}
	#mean_time_to_happen = {
	#	days = 15
	#}
	option = {
		name = BICE_britain.54.a
		USA = {
			create_production_license = {
				target = ENG
				equipment = {
					type = trm_medium_tank_chassis_usa_m4_1
				}
				cost_factor = 0
			}
		}
		hidden_effect = {
			ENG = { 
				if = {
					limit = { ENG = { is_ai = yes } }
					country_event = BICE_britain.55
				}
			}
		}
	}
	option = {
		name = BICE_britain.54.b #refuse
		ai_chance = { factor = 0 }
	}
}
country_event = { 
	id = BICE_britain.55
	title = BICE_britain.55.t
	desc = BICE_britain.55.d
	picture = GFX_report_event_american_tanks_gfxaddon

	fire_only_once = yes
	
	is_triggered_only = yes
	
	trigger = {
		ENG = { is_ai = yes }
	}
	
	option = {
		name = BICE_britain.55.a
		
		hidden_effect = {
			load_oob = "ENG_M4_Sherman_I"
		}
	}
}
###########################
country_event = { 
	id = BICE_britain.56
	title = BICE_britain.56.t
	desc = BICE_britain.56.d
	picture = GFX_report_event_american_tanks_gfxaddon

	fire_only_once = yes
	is_triggered_only = yes
	
	trigger = {
		if = {
			limit = {
				USA = { is_ai = yes }
			}
			date > 1942.09.01
		}
		else = {
			has_tech = tech_trm_medium_tank_chassis_usa_m4_2
			has_equipment = {
				trm_medium_tank_chassis_usa_m4_2 > 0
			}	
		}
		is_in_faction_with = ENG
	}
	#mean_time_to_happen = {
	#	days = 15
	#}
	option = {
		name = BICE_britain.56.a
		USA = {
			create_production_license = {
				target = ENG
				equipment = {
					type = trm_medium_tank_chassis_usa_m4_2
				}
				cost_factor = 0
			}
		}
		ENG = { 
			if = {
				limit = { ENG = { is_ai = yes } }
				country_event = BICE_britain.57
			}
			set_country_flag = ENG_license_M4
		}
	}
	option = {
		name = BICE_britain.56.b #refuse
		ai_chance = { factor = 0 }
	}
}
country_event = { 
	id = BICE_britain.57
	title = BICE_britain.57.t
	desc = BICE_britain.57.d
	picture = GFX_report_event_american_tanks_gfxaddon

	fire_only_once = yes
	
	is_triggered_only = yes
	
	trigger = {
		ENG = { is_ai = yes }
	}
	
	option = {
		name = BICE_britain.57.a
		
		hidden_effect = {
			load_oob = "ENG_M4_Sherman_II"
		}
	}
}

country_event = { 
	id = BICE_britain.58
	title = BICE_britain.58.t
	desc = BICE_britain.58.d
	picture = GFX_report_event_american_tanks_gfxaddon

	fire_only_once = yes
	is_triggered_only = yes
	
	trigger = {
		if = {
			limit = {
				USA = { is_ai = yes }
			}
			date > 1942.09.01
		}
		else = {
			has_tech = tech_trm_medium_tank_chassis_usa_m4_1
			has_tech = tech_trm_medium_tank_usa_m4_turret_open_1
			has_equipment = {
				trm_medium_tank_destroyer_chassis_usa_m4_1 > 0
			}	
		}
		is_in_faction_with = ENG
	}
	#mean_time_to_happen = {
	#	days = 15
	#}
	option = {
		name = BICE_britain.56.a
		USA = {
			create_production_license = {
				target = ENG
				equipment = {
					type = trm_medium_tank_destroyer_chassis_usa_m4_1
				}
				cost_factor = 0
			}
		}
	}
	option = {
		name = BICE_britain.56.b #refuse
		ai_chance = { factor = 0 }
	}
}

country_event = { 
	id = BICE_britain.68
	title = BICE_britain.68.t
	desc = BICE_britain.68.d
	picture = GFX_report_event_gurkhas_gfxaddon

	fire_only_once = yes
	
	is_triggered_only = yes

	option = {
		name = BICE_britain.68.a
		
		hidden_effect = {
			set_technology = { Gurkha_tech = 1 }
			 load_oob = "ENG_Gurkha" 
			
		}
	}
}

# JARROW CRUSADE
country_event = {
	id = BICE_britain.69
	title = BICE_britain.69.t
	desc = BICE_britain.69.d
	picture = GFX_report_event_jarrow_crusade_gfxaddon

	fire_only_once = yes 
	is_triggered_only = yes
	
	option = {
		name = "Ignore them"	
		add_timed_idea = {
			idea = jarrow_crush
			days = 720 
		}
	}
	option = {
		name = "Appease them"	
		add_timed_idea = {
			idea = jarrow_appease
			days = 720 
		}
		add_political_power = 10 
	}
	
}

# UK annex egypt
country_event = {
	id = BICE_britain.70
	title = BICE_britain.70.t
	desc = BICE_britain.70.d
	picture = GFX_report_event_middle_eastern_soldier

	fire_only_once = yes 
	is_triggered_only = yes
	
	trigger = {
		#tag = ENG #EOA
		is_in_faction_with = EGY 
		has_war_with = ITA
		OR = {
			452 = { is_fully_controlled_by = ITA }
			EGY = { surrender_progress > 0.2 }
			date > 1941.1.1
			AND = { 
				is_ai = yes
				has_war_with = ITA
			}
		}
		NOT = { 
			has_war_with = EGY 
		}
		
	}
	
	option = {
		name = BICE_britain.70.a	#yes
		ai_chance = { factor = 100 }
		EGY = { country_event = BICE_britain.71}
		
		if = {
			limit = {
				is_ai = yes
			}
			EGY = {
				every_country_division = {
					change_division_template = {
						division_template = "Infantry Division"
					}
				}
				add_units_to_division_template = {
					template_name = "Infantry Division"
					support = {
						ai_infantry = 1
					}
				}
			}
		}
				
	}
	option = {
		name = BICE_britain.70.b # no
		ai_chance = { factor = 0 }	
	}
}
country_event = {
	id = BICE_britain.71
	title = BICE_britain.71.t
	desc = BICE_britain.71.d
	picture = GFX_report_event_middle_eastern_soldier

	fire_only_once = yes 
	is_triggered_only = yes
	
	option = {
		name = BICE_britain.71.a	#accept
		ai_chance = {	factor = 100	}
		ENG = { 
			annex_country = {
				target = EGY
				transfer_troops = yes
			}
				
			if = {
				limit = {
					is_ai = yes
				}
				every_country_division = {
					limit = {
						division_has_battalion_in_template = ai_infantry
					}
					change_division_template = {
						division_template = "Infantry Division"
					}
				}
			}
			
		}
		news_event = { id = news.3220 }						 
	}
	
	option = {
		name = BICE_britain.71.b # no
		ai_chance = {	factor = 0	}		
	}
}

country_event = {
	id = BICE_britain.73
	hidden = yes  #timeout
    timeout_days = 1
	
	is_triggered_only = yes 
	
	#trigger = {
	#	tag = ENG
	#	is_ai = yes
	#	GER = {
	#		OR = {
	#			focus_progress = {
	#				focus = GER_danzig_or_war
	#				progress > 0.01
	#			}
	#			AND = {
	#				is_justifying_wargoal_against = POL
	#				threat > 0.2
	#			}
	#		}
	#	}
	#}
	
	immediate = {
		give_guarantee = POL 
		if = {
			limit = {
				FRA = { 
					is_in_faction_with = ENG 
				}
			}
			FRA = { give_guarantee = POL }
			NEP = { give_guarantee = POL }
		}
		if = {
			limit = {
				POL = {
					is_ai = yes				
				}
				is_historical_focus_on = yes
			}	
			add_to_faction = POL
		}
	}
}

# UK asks France to help with Spanish Civil War
country_event = {
	id = BICE_britain.80
	title = BICE_britain.80.t
	desc = BICE_britain.80.d
	picture = report_event_degaulle_churchill
	
	is_triggered_only = yes
	fire_only_once = yes
	trigger = {
		tag = FRA
		ENG = {
			has_completed_focus = ENG_spanish_intervention
		}
	}
	
	option = {
		name = BICE_britain.80.a
		ai_chance = {
			factor = 20
			modifier = {
				add = 30
				threat > 0.05
			}
			modifier = {
				add = 20
				threat > 0.10
			}
			modifier = {
				add = 10
				threat > 0.15
			}
			modifier = {
				add = 100
				FRA = {
					has_completed_focus = FRA_secret_support
				}
			}
		}
		FRA = {
			declare_war_on = {
				target = SPA
				type = topple_government
			}
		}
		ENG = {
			add_to_faction = FRA
			add_to_faction = SPR
		}
		GER = {
			country_event = { days = 5 id = franceBiceE.40 }
		}
	}
	option = {
		name = BICE_britain.80.b
		ai_chance = {
			factor = 0
		}
		give_military_access = ENG
	}
	option = {
		name = BICE_britain.80.c
		ai_chance = {
			factor = 10
			modifier = {
				add = 50
				threat < 0.20
			}
			modifier = {
				add = 500
				FRA = {
					has_war = yes
				}
			}
			modifier = {
				add = 500
				FRA = {
					has_completed_focus = FRA_non_intervention_agreement
				}
			}
		}
	}
}
# France Declines
country_event = {
	id = BICE_britain.81
	title = BICE_britain.81.t
	desc = BICE_britain.81.d
	picture = report_event_degaulle_churchill
	
	is_triggered_only = yes
	
	option = {
		name = BICE_britain.81.a
	}
}
#France gives support for Republican Spain
country_event = {
	id = BICE_britain.82
	title = BICE_britain.82.t
	desc = BICE_britain.82.d
	picture = GFX_report_event_spain_civil_war_volunteers_02
	
	is_triggered_only = yes
	trigger = {
		tag = ENG
		FRA = {
			has_country_flag = promised_help_republican_spain
		}
	}
	
	option = {
		name = BICE_britain.82.a		# The blithering idiots could cause another Great War!
		add_opinion_modifier = {
			target = FRA
			modifier = FRA_scw_support_republican
		}
		ai_chance = {
			factor = 20
		}
	}
	
	option = {
		name = BICE_britain.82.b		# Remain Silent...
		add_popularity = {
			ideology = communism
			popularity = 0.05
		}
		ai_chance = {
			factor = 0
			modifier = {
				add = 100
				ENG = {
					is_in_faction_with = FRA
				}
			}
		}
	}
}

# British Non-Intervention Agreement (Fortify the Rock focus)
country_event = {
	id = BICE_britain.83
	title = BICE_britain.83.t
	desc = BICE_britain.83.d
	picture = GFX_report_event_british_flag
	
	is_triggered_only = yes
	
	option = {
		name = BICE_britain.83.a
		trigger = {
			OR = {
				TAG = GER
				TAG = ITA
				TAG = SOV
			}
		}
	}
	option = {
		name = BICE_britain.83.b
		trigger = {
			TAG = FRA
		}
	}
}

# Britain Considers Spanish Intervention
country_event = {
	id = BICE_britain.84
	title = BICE_britain.84.t
	desc = BICE_britain.84.d
	
	picture = GFX_report_event_spain_civil_war_volunteers_02
	
	is_triggered_only = yes
	
	option = {
		name = BICE_britain.84.a
		trigger = {
			OR = {
				TAG = GER
				TAG = ITA
				TAG = SOV
			}
		}
	}
	option = {
		name = BICE_britain.84.b
		trigger = {
			TAG = FRA
		}
	}
}

# Combine French and British Factions in a war against Germany
country_event = {
	id = BICE_britain.85
	title = BICE_britain.85.t
	desc = BICE_britain.85.d
	
	picture = report_event_degaulle_churchill
	
	is_triggered_only = yes
	
	option = {		# Join the Allies
		name = BICE_britain.85.a
		hidden_effect = {
			every_country = {
				limit = {
					is_in_faction_with = FRA
				}
				leave_faction = yes
				ENG = {
					add_to_faction = PREV
				}
			}
		}
		ENG = {
			add_to_faction = FRA
		}
		ai_chance = {
			base = 100
			modifier = {
				factor = 0
				is_in_faction_with = SOV
			}
		}
	}
	option = {		# Britain can't be trusted!
		name = BICE_britain.85.b
	}
}

# SAF 1st and 2nd inf div july 1941
# 50 infantry division april 1942
# Indian 8th and 10th Inf division may 1942
# 1st Free French brigade, 44 inf div, 8th armoured div aug 1942
# Canadian 5th armoured div, Canadian 1st Inf div
# Canadian 4th armored div, Canadian 2nd Inf div, Canadian 3rd Inf div
### EOF ###