﻿###########################
# Polish Events
###########################

add_namespace = poland

# Eastward Expansion (Danzig Ceded)
country_event = {
	id = poland.1
	title = poland.1.t
	desc = poland.1.d
	picture = GFX_report_event_soviet_bikes
	
	is_triggered_only = yes
	
	option = {
		name = poland.1.a
		ai_chance = { factor = 10 }
		add_ideas = fascist_influence
		add_state_claim = 198
		add_state_claim = 199
		add_state_claim = 201
	}

	option = {
		name = poland.1.b
		ai_chance = { factor = 10 }
		add_opinion_modifier = { target = SOV modifier = medium_increase }
	}
}
# Gwiazda Polski
news_event = {
	id = poland.2
	title = poland.2.t
	desc = poland.2.d
	picture = GFX_news_event_vesuvius
	
	is_triggered_only = yes
	
	option = {
		name = poland.2.a
		add_tech_bonus = {
			name = POL_gwiazda
			bonus = 0.05
			uses = 1
			category = electronics
		}
	}

}
# Front Morges
country_event = {
	id = poland.3
	title = poland.3.t
	desc = poland.3.d
	picture = GFX_report_event_dealmaking
	
	is_triggered_only = yes
	
	option = {
		name = poland.3.a
		add_popularity = {
			ideology = conservatism
			popularity = 0.02
		}
	}

}
# III International Chopin Piano Competition
news_event = {
	id = poland.4
	title = poland.4.t
	desc = poland.4.d
	picture = GFX_news_event_international_chopin_piano_competition
	
	is_triggered_only = yes
	major = yes
	
	option = {
		name = poland.4.a
		trigger = {
			NOT = {
				tag = SOV
				tag = POL
				tag = JAP
				tag = ENG
			}
		}
	}
	option = {
		name = poland.4.b
		trigger = {
			tag = SOV
		}
		add_political_power = 5
	}
	option = {
		name = poland.4.c
		trigger = {
			tag = ENG
		}
		add_political_power = 3
	}
	option = {
		name = poland.4.e
		trigger = {
			tag = JAP
		}
		add_political_power = 3
	}
	option = {
		name = poland.4.f
		trigger = {
			tag = POL
		}
		add_stability = 0.02
	}
}
# Free City of Danzig grants Naval rights to German shipping
news_event = {
	id = poland.5
	title = poland.5.t
	desc = poland.5.d
	picture = GFX_report_event_scharnhorst_28
	
	is_triggered_only = yes
	major = yes
	show_major = {
		or = {
			tag = GER
			tag = POL
		}
	}
	trigger = {
		POL = {
			has_war = no
		}
	}
	option = {
		name = poland.5.a
		trigger = {
			tag = POL
		}
		random_navy_leader = {
			gain_xp = 33
		}	
		GER = {
			diplomatic_relation = {
				country = POL
				relation = docking_rights
				active = yes
			}
		}
	}
	option = {
		name = poland.5.b
		trigger = {
			tag = GER
		}
		effect_tooltip = {
			diplomatic_relation = {
				country = POL
				relation = docking_rights
				active = yes
			}
		}
	}
}
# Anglo Polish Naval Agreement
country_event = {
	id = poland.6
	title = poland.6.t
	desc = poland.6.d
	picture = GFX_report_event_australian_ship
	
	is_triggered_only = yes
	major = yes
	show_major = {
		or = {
			tag = ENG
			tag = POL
		}
	}
	trigger = {
		POL = {
			has_war = no
		}
	}
	option = {
		name = poland.6.a
		trigger = {
			tag = POL
		}
		random_navy_leader = {
			gain_xp = 25
		}
		add_opinion_modifier = {
			target = ENG
			modifier = naval_agreements
		}			
	}
	option = {
		name = poland.6.b
		trigger = {
			tag = ENG
		}
		random_navy_leader = {
			gain_xp = 5
		}
		add_opinion_modifier = {
			target = POL
			modifier = naval_agreements
		}
	}
}

country_event = {
	id = poland.10
	title = poland.10.t
	desc = poland.10.d
	picture = GFX_report_event_polish_army
	
	is_triggered_only = yes

	option = {
		name = poland.10.a
	}
}

country_event = {
	id = poland.11
	title = poland.11.t
	desc = poland.11.d
	picture = GFX_report_event_polish_army
	
	is_triggered_only = yes

	option = {
		name = poland.11.a
		create_wargoal = {
			type = puppet_wargoal_focus
			target = FROM
		}
	}
}

country_event = { #a literal bear as a general # and everyone loves bears :)
	id = poland.12
	title = poland.12.t
	desc = poland.12.d
	picture = GFX_report_event_soviet_arty
	
	trigger = {
	}

	is_triggered_only = yes 
	fire_only_once = yes

	option = {
		name = poland.12.a
		ai_chance = { factor = 25 }
		custom_effect_tooltip = WOJTEK_COMMANDER
		hidden_effect = {
			add_corps_commander_role = { 
				character = POL_wojtek
				traits = { bearer_of_artillery }
				skill=1
				attack_skill=2
				defense_skill=1
				planning_skill=1
				logistics_skill=1
			}
		}
	}
	
	option = {
		name = poland.12.b
		ai_chance = { factor = 75 }
	}
}

country_event = {
	id = poland.13
	title = poland.13.t
	desc = poland.13.d
	picture = GFX_report_event_german_troops
	
	trigger = {
		#tag = ENG #EOA
		is_historical_focus_on = yes
		date > 1937.1.1
		POL = {
			has_war_with = GER
			surrender_progress > 0.1
			is_in_faction = no
			NOT = {
				is_in_faction_with = ENG
			}
			NOT = {
				is_in_faction_with = SOV
			}
			NOT = {
				is_in_faction_with = ROM
			}
			NOT = {
				is_in_faction_with = FRA
			}	
		}
	}


	immediate = {
		#hidden_effect = {
		#	if = {
		#		limit = {
		#			ENG = { is_ai = yes }
		#		}
		#		ENG = { add_to_faction = POL }
		#	}
		#}
	}
	
	is_triggered_only = yes
	fire_only_once = yes

	option = {
		name = poland.13.a
		ai_chance = { factor = 100 }
		ENG = { add_to_faction = POL }
	}
	option = {
	    name = poland.13.b
	}

}
country_event = {
	id = poland.14
	title = poland.14.t
	desc = poland.14.d
	picture = GFX_report_event_polish_tanks_01
	
	fire_only_once = yes
	is_triggered_only = yes

	option = {
		name = poland.14.a
		ai_chance = { factor = 1 }
		hidden_effect = {
			set_technology = {interwar_antitank = 1 }
			set_technology = {subtech_recon_mot_1 = 1}
			country_event = { id = poland.15 random_days = 300 } 
        }
		
		load_oob = "Brygada_Panc_Mot_1"
	}
}
country_event = {
	id = poland.15
	title = poland.15.t
	desc = poland.15.d
	picture = GFX_report_event_polish_tanks_01
	
	fire_only_once = yes
	is_triggered_only = yes

	option = {
		name = poland.15.a
		ai_chance = { factor = 1 }
		 
		load_oob = "Brygada_Panc_Mot_2"
	}
}
country_event = { #ENG wants to sign anglo polish alliance
	id = poland.17 
	title = poland.17.t
	desc = poland.17.desc
	picture = GFX_report_event_polish_tanks_01
	
	fire_only_once = yes
	is_triggered_only = yes

	option = {
		name = poland.17.a
		ai_chance = { factor = 100 }
		
		ENG = { 
			give_guarantee = POL 
			country_event = generic.102
			diplomatic_relation = {
				country = POL
				relation = docking_rights
				active = yes
			}
		}
		 
	}
	
	option = {
		name = poland.17.b
		ai_chance = { factor = 0 }
		ENG = {
			country_event = generic.106
		}
	}
}