﻿###########################
# RAJ TFV events Events
###########################

add_namespace = tfv_raj

#RAF funding
country_event = {
	id = tfv_raj.1
	title = tfv_raj.1.t	
	desc = tfv_raj.1.desc	#
	picture = GFX_report_event_fighters
	
	is_triggered_only = yes
	
	option = { 
		name = tfv_raj.1.a
		ai_chance = {
			base = 100
		}
		ENG = { country_event = { id = tfv_raj.2 } }
	}
	option = { 
		name = tfv_raj.1.b
		trigger = {
			ENG = {
				has_tech = tech_hawker_fury_equipment_1
				OR = {
					NOT = { has_tech = tech_gladiator_fighter_equipment_1 }
					NOT = { has_tech = tech_hawker_hurricane_equipment_1 }
					NOT = { has_tech = tech_hawker_typhoon_equipment_1 }
				}
			}
		}
		add_equipment_to_stockpile = { type = hawker_fury_equipment_1 amount = 20 producer = ENG }
	}
	option = { 
		name = tfv_raj.1.b
		trigger = {
			ENG = {
				has_tech = tech_gladiator_fighter_equipment_1
				OR = {
					NOT = { has_tech = tech_hawker_hurricane_equipment_1 }
					NOT = { has_tech = tech_hawker_typhoon_equipment_1 }
				}
			}
		}
		add_equipment_to_stockpile = { type = gladiator_fighter_equipment_1 amount = 20 producer = ENG }
	}
	option = { 
		name = tfv_raj.1.b
		trigger = {
			ENG = {
				has_tech = tech_hawker_hurricane_equipment_1
				OR = {
					NOT = { has_tech = tech_hawker_typhoon_equipment_1 }
				}
			}
		}
		add_equipment_to_stockpile = { type = hawker_hurricane_equipment_1 amount = 20 producer = ENG }
	}
	option = { 
		name = tfv_raj.1.b
		trigger = {
			ENG = {
				has_tech = tech_hawker_typhoon_equipment_1
			}
		}
		add_equipment_to_stockpile = { type = hawker_typhoon_equipment_1 amount = 20 producer = ENG }
	}

}

country_event = {
	id = tfv_raj.2
	title = tfv_raj.2.t	
	desc = tfv_raj.2.desc	#
	picture = GFX_report_event_fighters
	
	is_triggered_only = yes

	option = { 
		name = tfv_raj.2.a
		trigger = {			
			OR = {
				NOT = { has_tech = tech_gladiator_fighter_equipment_1 }
				NOT = { has_tech = tech_hawker_hurricane_equipment_1 }
				NOT = { has_tech = tech_hawker_typhoon_equipment_1 }
				NOT = { has_tech = tech_hawker_fury_equipment_1 }
			}
		}
		add_equipment_to_stockpile = { type = armstrong_scimitar_equipment_1 amount = 20 producer = ENG }
	}
	option = { 
		name = tfv_raj.2.a
		trigger = {
			has_tech = tech_hawker_fury_equipment_1
			OR = {
				NOT = { has_tech = tech_gladiator_fighter_equipment_1 }
				NOT = { has_tech = tech_hawker_hurricane_equipment_1 }
				NOT = { has_tech = tech_hawker_typhoon_equipment_1 }
			}
		}
		add_equipment_to_stockpile = { type = hawker_fury_equipment_1 amount = 20 producer = ENG }
	}
	option = { 
		name = tfv_raj.2.a
		trigger = {
			has_tech = tech_gladiator_fighter_equipment_1
			OR = {
				NOT = { has_tech = tech_hawker_hurricane_equipment_1 }
				NOT = { has_tech = tech_hawker_typhoon_equipment_1 }
			}
		}
		add_equipment_to_stockpile = { type = gladiator_fighter_equipment_1 amount = 20 producer = ENG }
	}
	option = { 
		name = tfv_raj.2.a
		trigger = {
			has_tech = tech_hawker_hurricane_equipment_1
			OR = {
				NOT = { has_tech = tech_hawker_typhoon_equipment_1 }
			}
		}
		add_equipment_to_stockpile = { type = hawker_hurricane_equipment_1 amount = 20 producer = ENG }
	}
	option = { 
		name = tfv_raj.2.a
		trigger = {
			has_tech = tech_hawker_typhoon_equipment_1
		}
		add_equipment_to_stockpile = { type = hawker_typhoon_equipment_1 amount = 20 producer = ENG }
	}

}

#RAJ gets famine - Trigger/randomness event
country_event = {
	id = tfv_raj.20
	
	is_triggered_only = yes
	fire_only_once = yes
	hidden = yes  #timeout
    timeout_days = 1
	
	immediate = {
		country_event = { id = tfv_raj.21 days = 400 random_days = 30 }
	}

	trigger = {
		#compare_autonomy_state < autonomy_dominion
		#tag = RAJ #EOA
		has_war = yes		
		has_idea = RAJ_risk_of_famine
		has_capitulated = no
		NOT = { surrender_progress > 0.5 }
	}

	#mean_time_to_happen = { days = 150 }

}

#RAJ gets famine - Actual event
country_event = {
	id = tfv_raj.21
	title = tfv_raj.21.t
	desc = tfv_raj.21.desc	#
	picture = GFX_report_event_indian_famine
	
	is_triggered_only = yes

	fire_only_once = yes

	immediate = {
		hidden_effect = {
			remove_ideas = RAJ_risk_of_famine
			add_timed_idea = { idea = RAJ_famine days = 365 }
			news_event = { id = news.272 }
			news_event = { id = news.273 days = 365 }
		}
	}
			
	trigger = {
		#compare_autonomy_state < autonomy_dominion
		has_capitulated = no
		NOT = { surrender_progress > 0.5 }
		original_tag = RAJ
		has_idea = RAJ_risk_of_famine
	}

	option = {
		name = tfv_raj.21.a
		effect_tooltip = {
			remove_ideas = RAJ_risk_of_famine
			add_timed_idea = { idea = RAJ_famine days = 365 }
		}
	}
}



##################################################
#RAJ_battaglione_azad_hindoustan focus completed
##################################################
country_event = {
	id = tfv_raj.201
	title = tfv_raj.201.t				# ITA receives paratrooper division from RAJ
	desc = tfv_raj.201.desc
	picture = GFX_report_event_indian_parade
	
	is_triggered_only = yes
	
	option = {
		name = tfv_raj.201.a
		
		if = {
			limit = {
				RAJ = { is_ai = yes }
			}
		
			division_template = {
				name = "Battaglione Azad Hindoustan" #Hindu paratrooper division created for Italy
				division_names_group = ITA_PAR_01
				is_locked = yes
				regiments = {
					paratrooper = { x = 0 y = 0 }
					paratrooper = { x = 0 y = 1 }
					paratrooper = { x = 0 y = 2 }

					paratrooper = { x = 1 y = 0 }
					paratrooper = { x = 1 y = 1 }
					paratrooper = { x = 1 y = 2 }
				}
			}

			random_owned_controlled_state = {
				prioritize = { 2 }
				
				custom_effect_tooltip = tfv_raj_focus_paratrooper_tt
				hidden_effect = {
					create_unit = { 
						division = "name = \"Battaglione Azad Hindoustan\" division_template = \"Battaglione Azad Hindoustan\" start_experience_factor = 1.0" 
						owner = ITA
					}
				}
			}
			
			else = {
				custom_effect_tooltip = tfv_raj_focus_paratrooper_tt
			}
		}
	}
}

##################################################
#Quit India movement resistance events
##################################################
country_event = {
	id = tfv_raj.210
	title = tfv_raj.210.t
	desc = tfv_raj.210.desc
	picture = GFX_report_event_generic_ruins
	
	is_triggered_only = yes
	
	trigger = {
		has_completed_focus = RAJ_quit_india_movement
		is_puppet = yes
	}
	
	option = {
		name = tfv_raj.210.a
		
		random_owned_controlled_state = {
			prioritize = { 431 } #West Bengal
			
			limit = {
				industrial_complex > 0
			}
			damage_building = {
				type = industrial_complex
				damage = 0.6
			}
		}
		
		hidden_effect = { 
			country_event = { id = tfv_raj.211 days = 20 random = 40 }
		}
	}
}

country_event = {
	id = tfv_raj.211
	title = tfv_raj.211.t
	desc = tfv_raj.211.desc
	picture = GFX_report_event_generic_ruins
	
	is_triggered_only = yes
	
	trigger = {
		has_completed_focus = RAJ_quit_india_movement
		is_puppet = yes
	}
	
	option = {
		name = tfv_raj.211.a
		
		random_owned_controlled_state = {
			prioritize = { 426 } #Orissa
			
			limit = {
				arms_factory > 0
			}
			damage_building = {
				type = arms_factory
				damage = 0.7
			}
		}
		
		hidden_effect = { 
			country_event = { id = tfv_raj.212 days = 20 random = 40 }
		}
	}
}

country_event = {
	id = tfv_raj.212
	title = tfv_raj.212.t
	desc = tfv_raj.212.desc
	picture = GFX_report_event_generic_ruins
	
	is_triggered_only = yes
	
	trigger = {
		has_completed_focus = RAJ_quit_india_movement
		is_puppet = yes
	}
	
	option = {
		name = tfv_raj.212.a
		
		random_owned_controlled_state = {
			prioritize = { 429 } #Bombay
			
			limit = {
				industrial_complex > 0
			}
			damage_building = {
				type = industrial_complex
				damage = 0.4
			}
		}
	}
}