﻿############################
##### JAPAN PLAYER OOB #####
############################
instant_effect = {
	set_technology = {
		#tech_ijn = 1
		############### aircraft ##############
		japan_tech = 1
		tech_kawasaki_t92_equipment_1 = 1
	}
}