﻿units = {

	##### Naval OOB #####
	fleet = {
		name = "Royal Canadian Navy"
		naval_base = 7361 # Halifax
		task_force = {				
			name = "Atlantic Squadron"			
			location = 7361 # Halifax
			# Scrap Iron Flotilla
			ship = { name = "HMCS Saguenay" definition = destroyer start_experience_factor = 0.3 equipment = { nrm_ship_hull_destroyer_2 = { amount = 1 owner = CAN version_name = "Saguenay Class" } } }
			ship = { name = "HMCS Skeena" definition = destroyer start_experience_factor = 0.3 equipment = { nrm_ship_hull_destroyer_2 = { amount = 1 owner = CAN version_name = "Saguenay Class" } } }
		}				
	}
}


