﻿instant_effect = {
	if = {
		limit = {
			is_ai = yes
		}
		set_research_slots = 0
		country_event = { id = AI_techs.1 days = 50 random_days = 7 }
	}
}	
division_template = {
	name = "División de Infantería"		

	regiments = {
		infantry = { x = 0 y = 0 }
		infantry = { x = 0 y = 1 }
		infantry = { x = 0 y = 2 }
		
		infantry = { x = 1 y = 0 }
		infantry = { x = 1 y = 1 }
		infantry = { x = 1 y = 2 }
	}
	support = {
		DIV_HQ = { x = 0 y = 0 }
		recon_cav = { x = 0 y = 1 }
	}
}
division_template = {
	name = "Divisão de Militia"  
	# Note: all forces at reserve levels in 1936
	regiments = {
		militia = { x = 0 y = 0 }
		militia = { x = 0 y = 1 }
		militia = { x = 0 y = 2 }
		
		militia = { x = 1 y = 0 }
		militia = { x = 1 y = 1 }
		militia = { x = 1 y = 2 }
		
		militia = { x = 2 y = 0 }
		militia = { x = 2 y = 1 }
		militia = { x = 2 y = 2 }
	}
	 support = {
		DIV_HQ = { x = 0 y = 0 }
		recon_cav = { x = 0 y = 1 }
	}
}
division_template = {
	name = "Divisão de Garrison"	

	regiments = {
		garrison = { x = 0 y = 0 }
		garrison = { x = 0 y = 1 }
		garrison = { x = 0 y = 2 }
		
		garrison = { x = 1 y = 0 }
		garrison = { x = 1 y = 1 }
		garrison = { x = 1 y = 2 }
		
		garrison = { x = 2 y = 0 }
		garrison = { x = 2 y = 1 }
		garrison = { x = 2 y = 2 }
	}
	 support = {
		DIV_HQ = { x = 0 y = 0 }
		recon_cav = { x = 0 y = 1 }
	}
}
#division_template = {
#	name = "HQ Command"
#
#	regiments = {
#		HQ = { x = 0 y = 0 }
#	
#	}
#	support = {
#		recon = { x = 0 y = 0 }
#	}
#}
units = {
	##### Ejército de República Dominicana #####
	#division= {	
	#	name = "Ejército de República Dominicana" 
	#	location = 7660
	#	division_template = "HQ Command" 
	#	start_experience_factor = 0.0
	#	start_equipment_factor = 0.1
	#}
	
	division= {	
		name = "Ejército Dominicana"
		location = 7660 # Santo Domingo
		division_template = "División de Infantería"
									
		start_equipment_factor = 0.5

	}

	##### No Notable Naval Forces #####
}

##### No notable air force #####

instant_effect = {
	add_equipment_production = {
		equipment = {
			type = infantry_equipment_0
			creator = "DOM"
		}
		requested_factories = 1
		progress = 0.47
		efficiency = 100
	}
}