﻿instant_effect = {
	if = {
		limit = {
			is_ai = yes
		}
		set_research_slots = 0
		country_event = { id = AI_techs.1 days = 50 random_days = 7 }
	}
}	

division_template = {
	name = "Brigada de Infanteria"		# Military dictatorships were supported by frontline army brigades during period

	regiments = {
		infantry = { x = 0 y = 0 }
		militia = { x = 0 y = 1 }
		militia = { x = 0 y = 2 }
	}
	support = {
		DIV_HQ = { x = 0 y = 0 }
		recon_cav = { x = 0 y = 1 }
	}
}
division_template = {
	name = "División de Infantería"		

	regiments = {
		infantry = { x = 0 y = 0 }
		infantry = { x = 0 y = 1 }
		infantry = { x = 0 y = 2 }
		
		infantry = { x = 1 y = 0 }
		infantry = { x = 1 y = 1 }
		infantry = { x = 1 y = 2 }
	}
	support = {
		DIV_HQ = { x = 0 y = 0 }
		recon_cav = { x = 0 y = 1 }
	}
}
division_template = {
	name = "Divisão de Militia"  
	# Note: all forces at reserve levels in 1936
	regiments = {
		militia = { x = 0 y = 0 }
		militia = { x = 0 y = 1 }
		militia = { x = 0 y = 2 }
		
		militia = { x = 1 y = 0 }
		militia = { x = 1 y = 1 }
		militia = { x = 1 y = 2 }
		
		militia = { x = 2 y = 0 }
		militia = { x = 2 y = 1 }
		militia = { x = 2 y = 2 }
	}
	support = {
		DIV_HQ = { x = 0 y = 0 }
		recon_cav = { x = 0 y = 1 }
	}
}
division_template = {
	name = "Divisão de Garrison"	

	regiments = {
		garrison = { x = 0 y = 0 }
		garrison = { x = 0 y = 1 }
		garrison = { x = 0 y = 2 }
		
		garrison = { x = 1 y = 0 }
		garrison = { x = 1 y = 1 }
		garrison = { x = 1 y = 2 }
		
		garrison = { x = 2 y = 0 }
		garrison = { x = 2 y = 1 }
		garrison = { x = 2 y = 2 }
	}
	support = {
		DIV_HQ = { x = 0 y = 0 }
		recon_cav = { x = 0 y = 1 }
	}
}
#division_template = {
#	name = "HQ Command"
#
#	regiments = {
#		HQ = { x = 0 y = 0 }
#	
#	}
#	support = {
#		recon = { x = 0 y = 0 }
#	}
#}
units = {
	##### Ejército de El Salvador #####
	#division= {	
	#	name = "Ejército de El Salvador" 
	#	location = 12823
	#	division_template = "HQ Command" 
	#	start_experience_factor = 0.0
	#	start_equipment_factor = 0.1
	#}
	
	division= {	
		name = "1a Brigada de Ejercito"
		location = 12823 # San Salvador
		division_template = "Brigada de Infanteria"
		start_experience_factor = 0.2
	}
	division= {	
		name = "2a Brigada de Ejercito"
		location = 12823 # San Salvador
		division_template = "Brigada de Infanteria"
		start_experience_factor = 0.2
	}
	division= {	
		name = "3a Brigada de Ejercito"
		location = 12823 # San Salvador
		division_template = "Brigada de Infanteria"
		start_experience_factor = 0.2
	}

	##### No Notable Naval Forces #####
}

##### No Notable Air Forces #####
air_wings = {
	
	314 = {
		#Curtiss-Wright CW-14R
		curtiss_cw14r_equipment_1 =  { 
			owner = "ELS" 
			creator = "USA"
			amount = 3
		}
	}
}

instant_effect = {
	add_equipment_production = {
		equipment = {
			type = infantry_equipment_0
			creator = "ELS"
		}
		requested_factories = 1
		progress = 0.72
		efficiency = 100
	}
}