﻿### HMS Implacable ###
units = {
	fleet = {				
		name = "HMS Implacable"			
		base = 11064
		location = 11064 # Scapa Flow

		ship = { name = "HMS Implacable" definition = fleet_carrier equipment = { ENG_carrier_3 = { amount = 1 owner = ENG } } 
			#air_wings = {
			#	hawker_sea_hurricane_equipment_1 =  { owner = "ENG" amount = 40 }
			#	fairey_swordfish_equipment_1 =  { owner = "ENG" amount = 40 }
			#}
		}
	}
}
### EOF ###