﻿units = {
	division= {	
		name = "26. Waffen.Gren.Div.der SS" 
		#unique = { "Zoltán vitéz v. Pisky" "Jozef Grassy" }
		location = 6521
		division_template = "SS-Waffen-Gren-Div"
		start_experience_factor = 0.4
		start_equipment_factor = 0.01
	}

}

#####################
