﻿
units = {
	division= {	
		name = "22. Freiw.Kav.Div. 'Maria Theresia'" 
		#unique = { "August Zehender" }
		location = 6703
		division_template = "SS-Kavallerie div"
		start_experience_factor = 0.4
		start_equipment_factor = 0.01
	}

}
#####################
