﻿units = {
	division= {	
		name = "1. Ungarisches SS-Sturmjäger Rgt" 
		#unique = { "Kelemen Ridegh" }
		location = 6521
		division_template = "SS-Infantry brigade"
		start_experience_factor = 0.5
		start_equipment_factor = 0.01
	}
}
#####################
