﻿units = {
	division= {	
		name = "38. SS-Grenadier-Division 'Nibelungen'" 
		#unique = { "Hans Kempin" "Richard Schulz-Kossens" }
		location = 6521
		division_template = "SS Infanterie"
		start_experience_factor = 0.3
		start_equipment_factor = 0.01
	}

}

#####################
