﻿

units = {
	division = {
		name = "Freiw.PzGren.Div. 'Nederland'"
		#unique = { "Jürgen Wagner" }
		location = 6521
		division_template = "SS PzG-Div IV"
		start_experience_factor = 0.4
		start_equipment_factor = 0.01
	}
}
#####################