﻿units = {
	division= {	
		name = "36. Waffen.Gren.Div. der SS" 
		#unique = { "Dr. Oskar Dirlewanger" "Fritz Schmedes" }
		location = 6521
		division_template = "SS-Waffen-Gren-Div"
		start_experience_factor = 0.4
		start_equipment_factor = 0.01
	}

}

#####################
