﻿division_template = {
	name = "Panzer-Division '1943+'"
	division_names_group = GER_Arm_01
	priority = 2
	template_counter = 258
	
	regiments = {
		mechanized = { x = 0 y = 0}
		motorized = { x = 0 y = 1 }

		trm_medium_armor = { x = 1 y = 0 }
		trm_medium_armor = { x = 1 y = 1 }
		
		trm_medium_advanced_armor = { x = 2 y = 0 }
		trm_medium_advanced_armor = { x = 2 y = 1 }
		
		mechanized = { x = 3 y = 0 }
		motorized = { x = 3 y = 1 }
		motorized = { x = 3 y = 2 }
		motorized = { x = 3 y = 3 }
		
		artillery_brigade_mot = { x = 4 y = 0 }
		artillery_brigade_mot = { x = 4 y = 1 }
		anti_tank_brigade_mot =  { x = 4 y = 2 }
	}
	support = {
        DIV_HQ = { x = 0 y = 0 }
		engineer = { x = 0 y = 1 }
       	artillery_heavy = { x = 0 y = 2 }
		recon_ac = { x = 0 y = 3 }
		maintenance_company = { x = 0 y = 4 }
		logistics_company = { x = 1 y = 0 }
	}
}
