﻿units = {
	division= {	
		name = "Waffen-Gren-Regt. 'bulgaris'" 
		#unique = { "Günther Anhalt" "Heinz Bertling" }
		location = 6521
		division_template = "SS-Waffen-Gren-Div"
		start_experience_factor = 0.3
		start_equipment_factor = 0.01
	}

}

#####################
