﻿units = {

	fleet = {
		name = "Taiho"
		base = 9998
		location = 9998  #Yokosuka
		
		ship = { name = "Taiho" definition = fleet_carrier equipment = { JAP_scarrier_0 = {amount = 1 owner = JAP } }
			#air_wings = { 
			#	nakajima_a2n_equipment_1 =  { owner = "JAP" amount = 16 } 	# historical 16
			#	aichi_d1a_equipment_1 = { owner = "JAP" amount = 16} 		# historical 16
			#	mitsubishi_b2m_equipment_2 =  { owner = "JAP" amount = 28 } # historical 28
			#}
		}
	}
}
