﻿instant_effect = {
############# equipment stockpile ################
	add_equipment_to_stockpile = {
		type = infantry_equipment_1
		amount = 4900
		producer = JAP
	}
	add_equipment_to_stockpile = {
		type = infantry_uniforms_0
		amount = 4100
		producer = JAP
	}
	add_equipment_to_stockpile = {
		type = support_equipment_1
		amount = 1000
		producer = JAP
	}
	add_equipment_to_stockpile = {
		type = motorized_equipment_2
		amount = 1500
		producer = JAP
	}
	add_equipment_to_stockpile = {
		type = artyhorse_equipment_0
		amount = 1000
		producer = JAP
	}
	add_equipment_to_stockpile = {
		type = horse_equipment_0
		amount = 1000
		producer = JAP
	}
	add_equipment_to_stockpile = {
		type = HMG_equipment_0
		amount = 500
		producer = JAP
	}
	add_equipment_to_stockpile = {
		type = mortar_equipment_0
		amount = 300
		producer = JAP
	}
}
### eof ###