﻿division_template = {
	name = "Infantry Division"			

	regiments = {
		infantry = { x = 0 y = 0 }
		infantry = { x = 0 y = 1 }
		infantry = { x = 0 y = 2 }

      	infantry = { x = 1 y = 0 }
		infantry = { x = 1 y = 1 }
		infantry = { x = 1 y = 2 }

       	infantry = { x = 2 y = 0 }
		infantry = { x = 2 y = 1 }
		infantry = { x = 2 y = 2 }

		artillery_brigade_mot = { x = 3 y = 0 }
		artillery_brigade_mot = { x = 3 y = 1 }
		artillery_brigade_mot = { x = 3 y = 2 }
		anti_tank_brigade =  { x = 3 y = 3 }
		
		armored_car = { x = 4 y = 0 }
	}
	support = {
       	DIV_HQ = { x = 0 y = 0 }
		engineer = { x = 0 y = 1 }
		recon_mot = { x = 0 y = 2 }
		#recon_ac = { x = 0 y = 3 }
		maintenance_company = { x = 0 y = 3 }
		logistics_company = { x = 1 y = 0 }
		field_hospital = { x = 1 y = 1 }
		desert_support = { x = 1 y = 2 }
	}
}
units = {
	
	division= {	
		name = "1st Infantry Division"
		location = 12589 # Capetown
		division_template = "Infantry Division"
		start_experience_factor = 0.5
		start_equipment_factor = 0.3

	}
}
