﻿division_template = {
	name = "Leichte Division"
	template_counter = 238
	priority = 1
	
	regiments = {
		trm_light_armor = { x = 0 y = 0 }
		trm_light_armor = { x = 0 y = 1 }
		trm_light_armor = { x = 0 y = 2 }

		motorized = { x = 1 y = 0 }
		motorized = { x = 1 y = 1 }
	
		artillery_brigade_mot = { x = 2 y = 0 }
	}
	support = {
		DIV_HQ = { x = 0 y = 0 }
		engineer = { x = 0 y = 1 }
		recon = { x = 0 y = 2 }
	}
}
