﻿units = {

	##### Naval OOB #####
	fleet = {
		name = "Armada Nacional"
		naval_base = 10362 # Montevideo
		task_force = {				
			name = "Armada Nacional"			
			location = 10362 # Montevideo
			ship = { name = "ROU Uruguay" definition = destroyer equipment = { destroyer_1 = { amount = 1 owner = URG } } }
		}
	}	

}
instant_effect = {
 ### Under Construction Notes ###

}