﻿division_template = {
	name = "Wehrmacht Remnants 1"
	template_counter = 113	# Inf. Brigade
	
	regiments = {
		infantry = { x = 0 y = 0 }
		infantry = { x = 0 y = 1 }
		
        infantry = { x = 1 y = 0 }
		infantry = { x = 1 y = 1 }
		
		artillery_brigade = { x = 2 y = 0 }
		artillery_brigade = { x = 2 y = 1 }
	}
	support = {
        DIV_HQ = { x = 0 y = 0 }
		recon = { x = 0 y = 1 }
	}
}
division_template = {
	name = "Wehrmacht Remnants 2"
	template_counter = 113	# Inf. Brigade
	
	regiments = {
		infantry = { x = 0 y = 0 }
		infantry = { x = 0 y = 1 }
		
        infantry = { x = 1 y = 0 }
		infantry = { x = 1 y = 1 }
		
        infantry = { x = 2 y = 0 }
		
		artillery_brigade = { x = 3 y = 0 }
	}
	support = {
        DIV_HQ = { x = 0 y = 0 }
  		recon = { x = 0 y = 1 }
	}
}
division_template = {
	name = "Wehrmacht Remnants 3"
	template_counter = 241	# LARM Brigade
	
	regiments = {
		trm_light_armor = { x = 0 y = 0 }
		trm_light_armor = { x = 0 y = 1 }
		
		trm_light_armor = { x = 1 y = 0 }
		trm_light_armor = { x = 1 y = 1 }
		
		motorized = { x = 2 y = 0 }
        motorized = { x = 2 y = 1 }
		
		artillery_brigade_mot = { x = 3 y = 0 }
	}
	support = {
		DIV_HQ = { x = 0 y = 0 }
        recon = { x = 0 y = 1 }
        engineer = { x = 0 y = 2 }
 	}
}

units = {
	division= {	
		name = "13. Wehrmacht Remnants"
		location = 362									# to be determined
		division_template = "Wehrmacht Remnants 1"
		start_experience_factor = 0.6
		start_equipment_factor = 0.8
	}
	
	division= {	
		name = "14. Wehrmacht Remnants"
		location = 362									# to be determined
		division_template = "Wehrmacht Remnants 1"
		start_experience_factor = 0.6
		start_equipment_factor = 0.8
	}
	
	division= {	
		name = "15. Wehrmacht Remnants"
		location = 362									# to be determined
		division_template = "Wehrmacht Remnants 1"
		start_experience_factor = 0.6
		start_equipment_factor = 0.8
	}
	
	division= {	
		name = "16. Wehrmacht Remnants"
		location = 389									# to be determined
		division_template = "Wehrmacht Remnants 1"
		start_experience_factor = 0.6
		start_equipment_factor = 0.8
	}
	
	division= {	
		name = "17. Wehrmacht Remnants"
		location = 389									# to be determined
		division_template = "Wehrmacht Remnants 1"
		start_experience_factor = 0.6
		start_equipment_factor = 0.8
	}
	
	division= {	
		name = "18. Wehrmacht Remnants"
		location = 389									# to be determined
		division_template = "Wehrmacht Remnants 1"
		start_experience_factor = 0.6
		start_equipment_factor = 0.8
	}
	
	division= {	
		name = "19. Wehrmacht Remnants"
		location = 389									# to be determined
		division_template = "Wehrmacht Remnants 2"
		start_experience_factor = 0.3
		start_equipment_factor = 0.8
	}
	
	division= {	
		name = "20. Wehrmacht Remnants"
		location = 389									# to be determined
		division_template = "Wehrmacht Remnants 2"
		start_experience_factor = 0.6
		start_equipment_factor = 0.8
	}
	
	division= {	
		name = "21. Wehrmacht Remnants"
		location = 389									# to be determined
		division_template = "Wehrmacht Remnants 2"
		start_experience_factor = 0.6
		start_equipment_factor = 0.8
	}
	
	division= {	
		name = "22. Wehrmacht Remnants"
		location = 362									# to be determined
		division_template = "Wehrmacht Remnants 2"
		start_experience_factor = 0.6
		start_equipment_factor = 0.8
	}
	
	division= {	
		name = "23. Wehrmacht Remnants"
		location = 362									# to be determined
		division_template = "Wehrmacht Remnants 2"
		start_experience_factor = 0.6
		start_equipment_factor = 0.8
	}
	
	division= {	
		name = "24. Wehrmacht Remnants"
		location = 362									# to be determined
		division_template = "Wehrmacht Remnants 2"
		start_experience_factor = 0.6
		start_equipment_factor = 0.8
	}
}
