﻿division_template = {
	name = "Wehrmacht Remnants 1"
	template_counter = 113	# Inf. Brigade
	
	regiments = {
		infantry = { x = 0 y = 0 }
		infantry = { x = 0 y = 1 }
		
        infantry = { x = 1 y = 0 }
		infantry = { x = 1 y = 1 }
		
		artillery_brigade = { x = 2 y = 0 }
		artillery_brigade = { x = 2 y = 1 }
	}
	support = {
        DIV_HQ = { x = 0 y = 0 }
		recon = { x = 0 y = 1 }
	}
}
division_template = {
	name = "Wehrmacht Remnants 2"
	template_counter = 113	# Inf. Brigade
	
	regiments = {
		infantry = { x = 0 y = 0 }
		infantry = { x = 0 y = 1 }
		
        infantry = { x = 1 y = 0 }
		infantry = { x = 1 y = 1 }
		
        infantry = { x = 2 y = 0 }
		
		artillery_brigade = { x = 3 y = 0 }
	}
	support = {
        DIV_HQ = { x = 0 y = 0 }
  		recon = { x = 0 y = 1 }
	}
}
division_template = {
	name = "Wehrmacht Remnants 3"
	template_counter = 241	# LARM Brigade
	
	regiments = {
		trm_light_armor = { x = 0 y = 0 }
		trm_light_armor = { x = 0 y = 1 }
		
		trm_light_armor = { x = 1 y = 0 }
		trm_light_armor = { x = 1 y = 1 }
		
		motorized = { x = 2 y = 0 }
        motorized = { x = 2 y = 1 }
		
		artillery_brigade_mot = { x = 3 y = 0 }
	}
	support = {
		DIV_HQ = { x = 0 y = 0 }
        recon = { x = 0 y = 1 }
        engineer = { x = 0 y = 2 }
 	}
}

units = {
	division= {	
		name = "25. Wehrmacht Remnants"
		location = 692									# to be determined / München/Munich
		division_template = "Wehrmacht Remnants 1"
		start_experience_factor = 0.6
		start_equipment_factor = 0.8
	}
	
	division= {	
		name = "26. Wehrmacht Remnants"
		location = 692									# to be determined
		division_template = "Wehrmacht Remnants 1"
		start_experience_factor = 0.6
		start_equipment_factor = 0.8
	}
	
	division= {	
		name = "27. Wehrmacht Remnants"
		location = 692									# to be determined
		division_template = "Wehrmacht Remnants 1"
		start_experience_factor = 0.6
		start_equipment_factor = 0.8
	}
	
	division= {	
		name = "28. Wehrmacht Remnants"
		location = 692									# to be determined
		division_template = "Wehrmacht Remnants 1"
		start_experience_factor = 0.6
		start_equipment_factor = 0.8
	}
	
	division= {	
		name = "29. Wehrmacht Remnants"
		location = 692									# to be determined
		division_template = "Wehrmacht Remnants 1"
		start_experience_factor = 0.6
		start_equipment_factor = 0.8
	}
	
	division= {	
		name = "30. Wehrmacht Remnants"
		location = 692									# to be determined
		division_template = "Wehrmacht Remnants 1"
		start_experience_factor = 0.6
		start_equipment_factor = 0.8
	}
	
	division= {	
		name = "31. Wehrmacht Remnants"
		location = 11544									# to be determined / Nürnberg / Nuremberg
		division_template = "Wehrmacht Remnants 2"
		start_experience_factor = 0.3
		start_equipment_factor = 0.8
	}
	
	division= {	
		name = "32. Wehrmacht Remnants"
		location = 11544									# to be determined
		division_template = "Wehrmacht Remnants 2"
		start_experience_factor = 0.6
		start_equipment_factor = 0.8
	}
	
	division= {	
		name = "33. Wehrmacht Remnants"
		location = 11544									# to be determined
		division_template = "Wehrmacht Remnants 2"
		start_experience_factor = 0.6
		start_equipment_factor = 0.8
	}
	
	division= {	
		name = "34. Wehrmacht Remnants"
		location = 11544									# to be determined
		division_template = "Wehrmacht Remnants 2"
		start_experience_factor = 0.6
		start_equipment_factor = 0.8
	}
	
	division= {	
		name = "35. Wehrmacht Remnants"
		location = 11544									# to be determined
		division_template = "Wehrmacht Remnants 2"
		start_experience_factor = 0.6
		start_equipment_factor = 0.8
	}
	
	division= {	
		name = "36. Wehrmacht Remnants"
		location = 11544									# to be determined
		division_template = "Wehrmacht Remnants 2"
		start_experience_factor = 0.6
		start_equipment_factor = 0.8
	}
}
